<?xml version="1.0" encoding="UTF-8" standalone="no"?>
<!-- Created with Inkscape (http://www.inkscape.org/) -->

<svg
   xmlns:dc="http://purl.org/dc/elements/1.1/"
   xmlns:cc="http://creativecommons.org/ns#"
   xmlns:rdf="http://www.w3.org/1999/02/22-rdf-syntax-ns#"
   xmlns:svg="http://www.w3.org/2000/svg"
   xmlns="http://www.w3.org/2000/svg"
   xmlns:xlink="http://www.w3.org/1999/xlink"
   xmlns:sodipodi="http://sodipodi.sourceforge.net/DTD/sodipodi-0.dtd"
   xmlns:inkscape="http://www.inkscape.org/namespaces/inkscape"
   id="svg3039"
   version="1.1"
   inkscape:version="0.48.3.1 r9886"
   width="3000"
   height="4000"
   sodipodi:docname="Ozark_Butterfly.svg"
   inkscape:export-filename="/home/miles/Desktop/Ozark_Butterfly.png"
   inkscape:export-xdpi="2.3"
   inkscape:export-ydpi="2.3">
  <title
     id="title3073">Ozark Butterfly (&quot;bug&quot;)</title>
  <metadata
     id="metadata3045">
    <rdf:RDF>
      <cc:Work
         rdf:about="">
        <dc:format>image/svg+xml</dc:format>
        <dc:type
           rdf:resource="http://purl.org/dc/dcmitype/StillImage" />
        <dc:title>Ozark Butterfly (&quot;bug&quot;)</dc:title>
        <dc:creator>
          <cc:Agent>
            <dc:title>Miles McCammon</dc:title>
          </cc:Agent>
        </dc:creator>
        <dc:rights>
          <cc:Agent>
            <dc:title>GPL</dc:title>
          </cc:Agent>
        </dc:rights>
        <dc:publisher>
          <cc:Agent>
            <dc:title>freedroid.org</dc:title>
          </cc:Agent>
        </dc:publisher>
        <dc:source>Digitized Photograph</dc:source>
        <cc:license
           rdf:resource="http://www.gnu.org/copyleft/gpl.html" />
        <dc:date>11/21/2013</dc:date>
      </cc:Work>
    </rdf:RDF>
  </metadata>
  <defs
     id="defs3043" />
  <sodipodi:namedview
     pagecolor="#ffffff"
     bordercolor="#666666"
     borderopacity="1"
     objecttolerance="10"
     gridtolerance="10"
     guidetolerance="10"
     inkscape:pageopacity="0"
     inkscape:pageshadow="2"
     inkscape:window-width="1855"
     inkscape:window-height="1056"
     id="namedview3041"
     showgrid="false"
     inkscape:zoom="0.16"
     inkscape:cx="-1708.1163"
     inkscape:cy="1222.055"
     inkscape:window-x="65"
     inkscape:window-y="24"
     inkscape:window-maximized="1"
     inkscape:current-layer="layer2" />
  <g
     inkscape:groupmode="layer"
     id="layer1"
     inkscape:label="image"
     sodipodi:insensitive="true"
     style="display:none">
    <image
       width="3000"
       height="4000"
       xlink:href="file:///home/miles/Documents/SDC12197.JPG"
       id="image3047"
       x="0"
       y="0" />
  </g>
  <g
     inkscape:groupmode="layer"
     id="layer2"
     inkscape:label="black"
     style="display:inline"
     sodipodi:insensitive="true">
    <path
       style="fill:#000000;stroke:#000000;stroke-width:1px;stroke-linecap:butt;stroke-linejoin:miter;stroke-opacity:1"
       d="m 202.25,498.96875 -3.1875,32.125 4.8125,54.5625 c 0,0 14.43429,36.92787 19.25,51.375 4.81571,14.44713 19.27483,44.95591 28.90625,64.21875 9.63142,19.26284 30.48531,62.60388 36.90625,78.65625 6.42095,16.05237 36.92281,67.41638 43.34375,83.46875 6.42095,16.05237 6.4375,38.53125 6.4375,38.53125 l 44.9375,117.15625 c 0,0 52.97381,56.2089 61,70.6563 8.02618,14.4469 22.45726,56.1728 24.0625,62.5937 1.60523,6.421 67.4375,81.875 67.4375,81.875 l 20.875,67.4063 110.75,122 19.25,96.3124 -16.03125,35.3126 -36.9375,16.0624 -1.59375,41.7188 49.75,85.0938 c 0,0 -14.44763,20.852 -30.5,24.0624 -16.05236,3.2105 0,33.7188 0,33.7188 L 732,1876.2812 l 8,36.9063 -33.6875,36.9375 1.59375,25.6562 -4.8125,-8 3.21875,20.8438 c 0,0 57.78311,19.278 70.625,24.0938 12.84189,4.8155 38.53125,16.0624 38.53125,16.0624 l 8.03125,43.3438 -40.15625,40.125 c 0,0 -94.70912,72.2386 -109.15625,73.8438 -14.44713,1.605 -80.25,96.3124 -80.25,96.3124 0,0 51.37044,-8.0331 73.84375,-20.875 22.47332,-12.8416 69.01334,-70.6383 80.25,-81.875 11.23666,-11.2363 80.28125,-24.0624 80.28125,-24.0624 l 78.65625,-3.2188 46.53125,41.7188 -11.21875,43.3437 c 0,0 36.89983,1.625 46.53125,1.625 9.63142,0 14.4687,-22.4687 14.4687,-22.4687 l 33.6876,-1.625 c 0,-2e-4 62.6122,-3.2041 81.875,-9.625 19.2626,-6.421 94.7187,-77.0626 94.7187,-77.0626 l -1.5937,14.4688 -35.3438,65.8125 -6.4062,56.1875 16.0624,78.6562 -1.625,36.9063 -44.9374,38.5313 8.0312,43.3437 c 0,0 14.4508,-4.8206 25.6875,-8.0313 11.2366,-3.2101 43.329,28.8916 49.75,35.3126 6.4209,6.4209 -9.6141,89.8939 -41.7187,139.6562 -32.105,49.7624 -40.1371,65.808 -69.0313,88.2812 -28.8943,22.4736 -49.7748,40.1353 -59.4063,56.1876 -9.6313,16.0524 4.8258,48.1562 16.0626,48.1562 11.2364,0 38.5312,-12.8438 38.5312,-12.8438 0,0 48.1581,-59.3901 61,-83.4687 12.8419,-24.0785 67.4081,-73.8392 80.25,-96.3125 12.8419,-22.4733 38.5166,-51.3653 44.9375,-65.8125 6.421,-14.4471 22.4936,-11.227 32.125,-14.4375 9.6315,-3.2105 33.6875,69.0312 33.6875,69.0312 l 20.875,49.75 25.6875,8.0313 c 0,0 51.3585,-41.7353 44.9375,-48.1563 -6.4209,-6.4209 38.5412,20.8636 54.5938,22.4688 16.0522,1.6052 72.2237,8.0198 80.25,9.625 8.0261,1.6053 28.9062,-32.0938 28.9062,-32.0938 l 24.0625,-6.4374 -8.0313,36.9374 32.125,-1.625 17.6563,-4.8124 24.0625,11.25 9.6562,30.5 c 2e-4,0 32.0988,3.199 40.125,1.5937 8.0263,-1.6052 33.6876,-54.5625 33.6876,-54.5625 l 28.9062,-12.8438 c 0,2e-4 59.4062,51.3572 59.4062,62.5938 0,11.2367 224.7188,134.829 224.7188,141.25 0,6.4209 284.1228,130.0496 349.9375,149.3125 65.8147,19.2628 25.6861,27.2863 43.3437,35.3125 17.6578,8.0262 118.7813,46.5312 118.7813,46.5312 l 16.0625,-1.5937 46.5625,14.4375 30.5,-72.2188 -35.3125,-211.9062 -49.7812,-128.4062 -149.2813,-261.6563 -191.0313,-285.75 -219.9062,-298.5625 -150.9062,-160.5312 -62.5938,-52.9688 49.75,24.0938 11.125,-2.0938 5.5625,7.4375 54.6875,-48.4375 17.1875,-54.6875 c 0,0 42.1875,-25 50,-28.125 7.8125,-3.125 35.9375,-15.625 35.9375,-15.625 l 62.5,3.125 65.625,9.375 12.5,-9.375 -14.0625,-1.5625 -50,-9.375 -85.9375,4.6875 c 0,0 -68.75,21.875 -76.5625,23.4375 -7.8125,1.5625 -35.9375,39.0625 -35.9375,39.0625 0,0 -25.0585,50.0991 -33.125,55.7187 l -102.9688,-55.4374 11.25,-44.9376 138.0626,-11.25 9.5937,-9.625 c 5.2745,-3.9943 14.0869,-10.9115 16.25,-14.1562 1.0468,-1.5702 6.3193,-9.6161 12.4375,-18.9688 l 42.25,1.7813 c 0,0 103.125,-15.625 117.1875,-17.1875 C 2175,1429.6875 2200,1425 2200,1425 l -9.375,18.75 12.5,-6.25 6.25,-26.5625 c 0,0 -46.875,10.9375 -60.9375,10.9375 -14.0625,0 -107.8125,14.0625 -107.8125,14.0625 0,0 -13.8335,0.1362 -32.2812,0.25 10.7796,-16.5572 22.0581,-34.0673 22.9062,-36.1875 1.5625,-3.9063 60.1563,-70.3125 63.2812,-71.875 3.125,-1.5625 50.7812,-36.7188 53.125,-39.8438 2.3437,-3.125 30.4688,-42.9687 30.4688,-42.9687 0,0 -11.7187,-3.9063 -12.5,0 -0.7812,3.9062 -28.1251,44.5312 -33.5938,46.875 -5.4688,2.3437 -59.375,46.875 -59.375,46.875 l -39.0624,33.5937 c 0,0 -24.2188,37.5 -25.7813,42.9688 -0.59,2.0651 -6.8591,10.7038 -14.4375,20.6562 -26.4641,0.1067 -57.782,0.08 -77.9062,-0.4687 33.3412,-16.0804 83.75,-42.8437 83.75,-42.8437 l 46.875,-35.9376 57.0312,-46.0937 28.9062,-24.2187 -8.5937,1.5624 c 0,0 -19.5312,27.3438 -50.7813,41.4063 -31.25,14.0625 -69.5312,39.8437 -69.5312,39.8437 0,0 -54.6875,33.5938 -57.8125,35.9376 -3.125,2.3438 -54.6876,28.125 -60.1563,28.125 -1.2564,0 -3.3676,0.5489 -5.7812,1.375 l -2.8438,-0.125 c 0,0 -8.0312,-22.4853 -8.0312,-28.9063 0,-6.4209 -8.0312,4.8125 -8.0312,4.8125 l -22.4688,-1.5938 24.875,-29.875 67.5938,-37.875 c 0,0 46.0937,-25.7812 49.2187,-27.3437 3.125,-1.5625 -0.7812,-7.0313 -6.25,-6.25 -5.4687,0.7812 -16.4062,1.5625 -28.9063,10.9375 -12.5,9.375 -91.4062,41.4062 -91.4062,41.4062 l 0.6562,2.1876 -14.1874,-14.1876 -4.75,3.4376 -0.4688,-4.7188 c 0,0 21.875,-67.1875 26.5625,-68.75 4.6875,-1.5625 70.3125,-28.125 70.3125,-28.125 l 110.9375,-46.875 4.6875,0 0,-10.9375 -70.3125,29.6875 -132.8125,50 c 0,0 -10.9375,46.875 -21.875,62.5 -6.6372,9.4817 -9.2552,21.2314 -10.2812,29.0312 -7.6014,1.8517 -17.7557,4.5139 -24.9688,7.2188 -3.9918,1.4969 -8.1488,1.7329 -11.9688,1.375 l -5.7812,-13.7188 -33.1562,-85.0624 -7.8126,-42.1876 3.3438,-6.8124 17.1875,-46.875 10.1563,-14.8438 -6.25,0 c 0,0 3.125,-74.2188 1.5624,-79.6875 -1.5623,-5.4688 0.7813,-96.09375 2.3438,-100.78125 1.5625,-4.6875 -10.9375,-58.59375 -12.5,-61.71875 -1.5625,-3.125 -0.7812,-3.90625 -0.7812,-3.90625 l -4.6876,5.46875 5.4688,20.3125 c 0,0 3.1248,26.5625 2.3438,30.46875 -0.7816,3.90625 -2.3438,60.93745 -2.3438,60.93755 0,0 2.3438,77.344 0.7812,85.9374 -1.5623,8.5941 2.3438,39.8438 2.3438,39.8438 0,0 -11.011,25.3654 -22.6562,51.7812 l -2.8438,-15.2812 -2.2188,-79.5312 0.7188,-73.4688 9.2188,-58.03125 -3.25,-34.3125 -13.3126,-10.96875 -9.9374,1.09375 -7.5313,13.03125 8.625,4.65625 8.8437,-2.21875 8.8438,17.6875 c 0,0 -5.5403,48.6188 -7.75,58.5625 -2.2097,9.9437 -2.2187,102.75 -2.2188,102.75 0,0 7.7612,61.8507 6.6563,67.375 -0.2671,1.3355 0.7618,7.9086 2.4687,17 -11.2536,25.4469 -22.2039,49.7784 -23.6562,51.5938 -3.125,3.9061 -18.75,58.5937 -18.75,58.5937 l 3.2188,8.625 -0.6563,11.4375 22.4687,46.5625 -22.4687,25.6875 -27.2813,-4.8125 L 1528.1875,1267.875 1382.0938,1144.2812 1219.9688,993.40625 810.65625,726.9375 508.875,543.9375 377.21875,507 202.25,498.96875 z m 1522,739.40625 c 5.8458,28.543 13.6875,63.5625 13.6875,63.5625 l 26.9687,67.8437 c -3.3876,-1.1926 -5.5624,-2.3749 -5.5624,-2.375 0,2e-4 -4.511,7.3569 -6.8438,13 -3.4903,-5.6476 -10.8125,-12.9998 -10.8125,-13 l -17.6563,-32.0937 -19.2812,12.8437 -9.625,-24.0937 -8.4375,-1.0625 13.3125,-35.5 24.25,-49.125 z m 176.3125,204.4062 32.25,0.9688 53.0937,2.25 c -10.5987,13.6453 -21.0625,26.6562 -21.0624,26.6562 0,0 -0.7408,0.7337 -1.75,1.8126 -5.5515,-0.9375 -11.4363,-1.9919 -14.3438,-2.7188 -6.421,-1.6052 -96.3125,6.4375 -96.3125,6.4375 l -3.2187,-11.25 40.9687,-19.9375 c 2.4116,-0.7889 5.9845,-2.2624 10.375,-4.2188 z"
       id="path3069"
       inkscape:connector-curvature="0" />
  </g>
  <g
     inkscape:groupmode="layer"
     id="layer3"
     inkscape:label="yellow"
     sodipodi:insensitive="true"
     style="display:inline">
    <path
       style="fill:#c8ad61;fill-opacity:1;stroke:#000000;stroke-width:1px;stroke-linecap:butt;stroke-linejoin:miter;stroke-opacity:1"
       d="m 1534.6063,1629.0653 60.999,-77.0513 30.4995,-27.289 -57.7885,6.4209 -27.289,49.7623 -14.4472,27.2891 z"
       id="path3072"
       inkscape:connector-curvature="0" />
    <path
       style="fill:#c8ad61;fill-opacity:1;stroke:#000000;stroke-width:1px;stroke-linecap:butt;stroke-linejoin:miter;stroke-opacity:1"
       d="m 1626.1048,1722.1691 c 16.0524,-8.0262 77.0514,-51.3676 77.0514,-51.3676 0,0 30.4995,-24.0786 32.1047,-32.1047 1.6052,-8.0262 54.5781,-101.13 43.3414,-97.9195 -11.2367,3.2105 -52.9728,9.6314 -52.9728,9.6314 l -27.289,73.8409 -48.1571,54.5781 z"
       id="path3074"
       inkscape:connector-curvature="0" />
    <path
       style="fill:#c8ad61;fill-opacity:1;stroke:#000000;stroke-width:1px;stroke-linecap:butt;stroke-linejoin:miter;stroke-opacity:1"
       d="m 1549.0534,1521.5145 c 11.2367,0 78.6566,-1.6053 78.6566,-1.6053 l 51.3676,-38.5256 c 0,0 32.1048,-20.8681 40.1309,-27.2891 8.0262,-6.4209 56.1833,-48.1571 57.7886,-54.578 1.6052,-6.421 -8.0262,-20.8681 -17.6576,-14.4471 -9.6315,6.4209 -32.1048,-8.0262 -43.3414,17.6576 -11.2367,25.6838 -107.5509,65.8147 -107.5509,65.8147 l -62.6042,43.3414 z"
       id="path3076"
       inkscape:connector-curvature="0" />
    <path
       style="fill:#c8ad61;fill-opacity:1;stroke:#000000;stroke-width:1px;stroke-linecap:butt;stroke-linejoin:miter;stroke-opacity:1"
       d="m 1743.2871,1542.3826 c 6.4209,-4.8158 30.4995,-1.6053 38.5257,-9.6315 8.0262,-8.0261 33.7099,-60.999 33.7099,-60.999 l 0,-43.3413 -19.2628,17.6576 -20.8681,57.7885 z"
       id="path3078"
       inkscape:connector-curvature="0" />
    <path
       style="fill:#c8ad61;fill-opacity:1;stroke:#000000;stroke-width:1px;stroke-linecap:butt;stroke-linejoin:miter;stroke-opacity:1"
       d="m 1245.6637,1956.5336 c 16.0524,-11.2366 33.71,-91.4985 43.3414,-99.5246 9.6314,-8.0262 51.3676,-155.708 51.3676,-155.708 l 139.6556,-104.3404 8.0262,6.421 c 0,0 -64.2095,128.4189 -72.2357,144.4713 -8.0262,16.0523 -64.2095,105.9456 -64.2095,105.9456 0,0 -17.6576,44.9466 -19.2628,59.3937 -1.6052,14.4472 -6.421,25.6838 -6.421,25.6838 l -35.3152,30.4995 -27.289,6.421 z"
       id="path3080"
       inkscape:connector-curvature="0" />
    <path
       style="fill:#c8ad61;fill-opacity:1;stroke:#000000;stroke-width:1px;stroke-linecap:butt;stroke-linejoin:miter;stroke-opacity:1"
       d="m 1245.6637,1998.2698 6.421,16.0524 c 0,0 1.6052,11.2366 20.868,6.4209 19.2629,-4.8157 48.1571,-33.71 48.1571,-33.71 l 32.1048,-11.2366 -8.0262,-35.3152 c 0,0 -20.8681,3.2104 -25.6838,9.6314 -4.8157,6.4209 -54.5781,38.5257 -54.5781,38.5257 z"
       id="path3082"
       inkscape:connector-curvature="0" />
    <path
       style="fill:#c8ad61;fill-opacity:1;stroke:#000000;stroke-width:1px;stroke-linecap:butt;stroke-linejoin:miter;stroke-opacity:1"
       d="m 1244.0585,1945.297 c 0,0 17.6576,-25.6838 22.4733,-46.5519 4.8157,-20.8681 57.7885,-168.5498 57.7885,-168.5498 l -4.8157,-19.2629 -99.5247,38.5257 9.6314,112.3666 c 0,0 6.421,40.1309 6.421,54.578 0,14.4471 8.0262,28.8943 8.0262,28.8943 z"
       id="path3084"
       inkscape:connector-curvature="0" />
    <path
       style="fill:#c8ad61;fill-opacity:1;stroke:#000000;stroke-width:1px;stroke-linecap:butt;stroke-linejoin:miter;stroke-opacity:1"
       d="m 1385.3193,2094.584 c 38.5257,-16.0524 101.1299,-65.8147 113.9718,-70.6304 12.8419,-4.8157 80.2618,-57.7885 80.2618,-57.7885 l 3.2105,3.2104 c 0,0 0,93.1038 -6.4209,94.709 -6.421,1.6052 -30.4995,1.6052 -30.4995,1.6052 l -46.5519,6.421 c 0,0 -52.9728,19.2628 -64.2095,20.8681 -11.2366,1.6052 -49.7623,1.6052 -49.7623,1.6052 z"
       id="path3086"
       inkscape:connector-curvature="0" />
    <path
       style="fill:#c8ad61;fill-opacity:1;stroke:#000000;stroke-width:1px;stroke-linecap:butt;stroke-linejoin:miter;stroke-opacity:1"
       d="m 1375.6879,2092.9788 c -1.6053,-8.0262 -9.6314,-49.7624 -9.6314,-49.7624 0,0 49.7623,-49.7623 62.6042,-60.999 12.8419,-11.2366 112.3666,-93.1037 112.3666,-93.1037 l 52.9728,-49.7623 64.2094,-56.1833 8.0262,1.6052 -51.3675,102.7352 -30.4995,78.6566 c 0,0 -17.6576,19.2628 -28.8943,20.868 -11.2367,1.6053 -59.3938,30.4995 -59.3938,30.4995 l -64.2094,46.5519 z"
       id="path3088"
       inkscape:connector-curvature="0" />
    <path
       style="fill:#c8ad61;fill-opacity:1;stroke:#000000;stroke-width:1px;stroke-linecap:butt;stroke-linejoin:miter;stroke-opacity:1"
       d="m 1359.6355,2107.4259 c -3.2105,12.8419 -38.5257,57.7885 -38.5257,57.7885 0,0 11.2367,22.4733 12.8419,28.8943 1.6053,6.4209 16.0524,38.5257 16.0524,38.5257 l 3.2105,28.8942 c 0,0 16.0523,-4.8157 36.9204,-16.0524 20.8681,-11.2366 57.7885,-52.9728 72.2357,-64.2094 14.4471,-11.2367 57.7885,-48.1571 62.6042,-56.1833 4.8157,-8.0262 25.6838,-28.8943 25.6838,-28.8943 0,0 -46.5519,-11.2366 -62.6042,0 -16.0524,11.2367 -54.5781,17.6576 -70.6305,16.0524 -16.0523,-1.6052 -57.7885,-4.8157 -57.7885,-4.8157 z"
       id="path3090"
       inkscape:connector-curvature="0" />
    <path
       style="fill:#c8ad61;fill-opacity:1;stroke:#000000;stroke-width:1px;stroke-linecap:butt;stroke-linejoin:miter;stroke-opacity:1"
       d="m 1337.1622,2109.0311 c 0,0 12.8419,-4.8157 12.8419,-12.8419 0,-8.0262 -11.2367,-41.7361 -1.6052,-44.9466 9.6314,-3.2105 36.9204,-44.9466 36.9204,-44.9466 l -9.6314,-19.2629 -24.0786,1.6053 c 0,0 -11.2366,8.0262 -8.0262,16.0523 3.2105,8.0262 9.6315,3.2105 9.6315,17.6576 0,14.4472 -25.6838,32.1048 -25.6838,32.1048 0,0 -9.6314,8.0262 -9.6314,24.0785 0,16.0524 19.2628,30.4995 19.2628,30.4995 z"
       id="path3092"
       inkscape:connector-curvature="0" />
    <path
       style="fill:#c8ad61;fill-opacity:1;stroke:#000000;stroke-width:1px;stroke-linecap:butt;stroke-linejoin:miter;stroke-opacity:1"
       d="m 931.03731,1088.1006 -70.63042,-64.2095 c 0,0 -4.81571,-24.07856 -3.21047,-35.31521 1.60523,-11.23666 27.28902,-51.36758 27.28902,-51.36758 l -8.02618,-16.05237 c 0,0 11.23665,-46.55186 19.26284,-48.1571 8.02618,-1.60524 40.13092,6.42095 40.13092,6.42095 l 59.39376,16.05236 25.68382,24.07856 1.6052,19.26284 c 0,0 -30.4995,3.21047 -41.73615,6.42094 -11.23666,3.21048 -41.73616,27.28903 -41.73616,27.28903 0,0 -6.42095,11.23666 -4.81571,25.68379 1.60524,14.44709 0,24.07859 -1.60524,41.73619 -1.60523,17.6576 -1.60523,48.1571 -1.60523,48.1571 z"
       id="path3094"
       inkscape:connector-curvature="0" />
    <path
       style="fill:#c8ad61;fill-opacity:1;stroke:#000000;stroke-width:1px;stroke-linecap:butt;stroke-linejoin:miter;stroke-opacity:1"
       d="m 1067.4824,1203.6776 c 0,-6.4209 -11.2366,-41.7361 -14.4471,-51.3676 -3.2105,-9.6314 -20.8681,-35.3152 -12.8419,-48.1571 8.0262,-12.8419 24.0786,-72.2356 24.0786,-72.2356 l 20.868,-19.2629 70.6304,0 c 0,0 12.8419,16.0524 16.0524,27.2891 3.2105,11.2366 3.2105,32.1047 -3.2105,51.3675 -6.4209,19.2629 -1.6052,67.42 -1.6052,67.42 0,0 -4.8157,28.8942 3.2105,28.8942 8.0262,0 25.6838,19.2629 19.2628,27.2891 -6.4209,8.0261 -9.6314,38.5256 -9.6314,38.5256 l -38.5257,-3.2104 z"
       id="path3096"
       inkscape:connector-curvature="0" />
    <path
       style="fill:#c8ad61;fill-opacity:1;stroke:#000000;stroke-width:1px;stroke-linecap:butt;stroke-linejoin:miter;stroke-opacity:1"
       d="m 1258.5056,1308.018 c 22.4733,4.8157 208.6808,86.6828 208.6808,86.6828 l 44.9466,19.2628 c 0,0 -24.0785,-54.578 -25.6838,-62.6042 -1.6052,-8.0262 -11.2366,-28.8943 -33.71,-59.3938 -22.4733,-30.4995 -36.9204,-64.2094 -36.9204,-64.2094 0,0 -51.3676,-44.9467 -57.7885,-49.7624 -6.421,-4.8157 -43.3414,-33.71 -43.3414,-33.71 l -12.8419,25.6838 c 0,0 20.8681,9.6315 14.4471,27.2891 -6.4209,17.6576 -17.6576,56.1832 -20.8681,65.8147 -3.2104,9.6314 -14.4471,32.1047 -14.4471,32.1047 z"
       id="path3098"
       inkscape:connector-curvature="0" />
    <path
       style="fill:#c8ad61;fill-opacity:1;stroke:#000000;stroke-width:1px;stroke-linecap:butt;stroke-linejoin:miter;stroke-opacity:1"
       d="m 1815.5227,1717.3534 104.3404,256.8378 c 0,0 3.2105,-32.1047 17.6576,-40.1309 14.4472,-8.0262 54.5781,-25.6838 54.5781,-25.6838 l 51.3676,-8.0261 4.8157,-1.6053 c 0,0 3.2104,-28.8942 -11.2367,-35.3152 -14.4471,-6.4209 -94.709,-89.8933 -94.709,-89.8933 0,0 -20.868,-6.4209 -40.1309,-11.2366 -19.2628,-4.8157 -86.6828,-44.9466 -86.6828,-44.9466 z"
       id="path3100"
       inkscape:connector-curvature="0" />
    <path
       style="fill:#c8ad61;fill-opacity:1;stroke:#000000;stroke-width:1px;stroke-linecap:butt;stroke-linejoin:miter;stroke-opacity:1"
       d="m 2099.6496,2275.9757 c 9.6315,12.8419 113.9719,112.3666 113.9719,112.3666 l 35.3152,-20.8681 c 0,0 30.4995,-16.0523 41.7361,-17.6576 11.2367,-1.6052 35.3152,-49.7623 35.3152,-49.7623 l -67.4199,-121.998 c 0,0 -6.421,22.4733 -9.6314,33.71 -3.2105,11.2366 -3.2105,27.289 -6.421,40.1309 -3.2105,12.8419 -11.2366,28.8943 -20.8681,40.1309 -9.6314,11.2367 -27.289,-25.6838 -38.5256,-16.0524 -11.2367,9.6315 -43.3414,24.0786 -43.3414,24.0786 z"
       id="path3102"
       inkscape:connector-curvature="0" />
    <path
       style="fill:#c8ad61;fill-opacity:1;stroke:#000000;stroke-width:1px;stroke-linecap:butt;stroke-linejoin:miter;stroke-opacity:1"
       d="m 2012.9669,2166.8196 32.1047,4.8158 c 0,0 36.9204,16.0523 43.3414,17.6576 6.4209,1.6052 16.0524,-3.2105 32.1047,-4.8157 16.0524,-1.6053 32.1048,-32.1048 43.3414,-35.3153 11.2367,-3.2104 30.4995,-19.2628 30.4995,-19.2628 0,0 -27.289,-94.709 -35.3152,-96.3142 -8.0262,-1.6052 -14.4471,-16.0524 -27.289,-11.2367 -12.8419,4.8158 -8.0262,12.8419 -20.8681,11.2367 -12.8419,-1.6052 -20.8681,-6.4209 -38.5257,0 -17.6576,6.4209 -30.4995,0 -46.5518,12.8419 -16.0524,12.8419 -51.3676,3.2105 -51.3676,3.2105 l -14.4471,12.8419 z"
       id="path3104"
       inkscape:connector-curvature="0" />
    <path
       style="fill:#c8ad61;fill-opacity:1;stroke:#000000;stroke-width:1px;stroke-linecap:butt;stroke-linejoin:miter;stroke-opacity:1"
       d="m 2226.4634,2452.5518 c 0,0 46.5518,176.576 49.7623,189.4179 3.2105,12.8419 11.2366,56.1833 11.2366,56.1833 l 43.3414,24.0786 19.2629,16.0523 27.289,-12.8419 c 0,0 -27.289,-117.1822 -27.289,-123.6032 0,-6.4209 -30.4995,-120.3928 -30.4995,-120.3928 l -16.0524,-33.7099 c 0,0 -33.71,8.0262 -41.7361,8.0262 -8.0262,0 -33.71,-11.2367 -33.71,-11.2367 z"
       id="path3106"
       inkscape:connector-curvature="0" />
    <path
       style="fill:#c8ad61;fill-opacity:1;stroke:#000000;stroke-width:1px;stroke-linecap:butt;stroke-linejoin:miter;stroke-opacity:1"
       d="m 2327.5933,2465.3937 40.1309,126.8137 24.0785,-1.6053 -19.2628,35.3153 -3.2105,51.3675 16.0524,59.3938 c 0,0 9.6314,12.8419 19.2628,16.0524 9.6314,3.2104 52.9728,6.4209 52.9728,6.4209 0,0 20.8681,-4.8157 14.4472,-9.6314 -6.421,-4.8157 -40.1309,-131.6294 -40.1309,-131.6294 l -12.8419,-14.4472 6.4209,-41.7361 c 0,0 -17.6576,-56.1833 -24.0785,-69.0252 -6.421,-12.8419 -28.8943,-56.1833 -28.8943,-56.1833 l -28.8943,3.2105 z"
       id="path3108"
       inkscape:connector-curvature="0" />
    <path
       style="fill:#c8ad61;fill-opacity:1;stroke:#000000;stroke-width:1px;stroke-linecap:butt;stroke-linejoin:miter;stroke-opacity:1"
       d="m 2117.3073,2304.87 c 0,0 14.4471,57.7885 14.4471,72.2357 0,14.4471 0,43.3414 0,43.3414 0,0 27.289,136.4451 25.6838,147.6817 -1.6053,11.2367 17.6576,86.6828 17.6576,86.6828 l 46.5518,12.8419 32.1048,27.289 c 0,0 28.8942,8.0262 27.289,0 -1.6052,-8.0261 -49.7623,-216.7069 -49.7623,-216.7069 l -32.1048,-83.4723 -22.4733,-25.6838 z"
       id="path3110"
       inkscape:connector-curvature="0" />
    <path
       style="fill:#c8ad61;fill-opacity:1;stroke:#000000;stroke-width:1px;stroke-linecap:butt;stroke-linejoin:miter;stroke-opacity:1"
       d="m 2473.6698,2770.3887 c 0,0 41.7362,14.4471 49.7623,24.0785 8.0262,9.6314 33.71,11.2367 33.71,11.2367 0,0 -9.6314,-12.8419 -17.6576,-33.71 -8.0262,-20.8681 -75.4461,-158.9184 -75.4461,-158.9184 l -17.6576,-12.8419 11.2366,78.6566 z"
       id="path3112"
       inkscape:connector-curvature="0" />
    <path
       style="fill:#c8ad61;fill-opacity:1;stroke:#000000;stroke-width:1px;stroke-linecap:butt;stroke-linejoin:miter;stroke-opacity:1"
       d="m 2569.984,2813.7301 c 6.421,9.6314 46.5519,16.0523 51.3676,22.4733 4.8157,6.4209 19.2628,0 19.2628,0 0,0 -38.5257,-77.0514 -41.7361,-88.2881 -3.2105,-11.2366 -46.5519,-97.9194 -56.1833,-104.3403 -9.6314,-6.421 -52.9728,-22.4734 -57.7885,-32.1048 -4.8157,-9.6314 -19.2629,-25.6838 -19.2629,-25.6838 0,0 3.2105,-25.6838 14.4472,-28.8942 11.2366,-3.2105 22.4733,-9.6314 22.4733,-9.6314 0,0 -19.2629,-62.6043 -30.4995,-69.0252 -11.2367,-6.421 -59.3938,-67.42 -59.3938,-67.42 0,0 -1.6052,11.2367 -9.6314,19.2629 -8.0262,8.0262 -9.6314,19.2628 -9.6314,19.2628 l 35.3152,97.9195 35.3152,56.1832 28.8942,46.5519 59.3938,123.6032 z"
       id="path3114"
       inkscape:connector-curvature="0" />
    <path
       style="fill:#c8ad61;fill-opacity:1;stroke:#000000;stroke-width:1px;stroke-linecap:butt;stroke-linejoin:miter;stroke-opacity:1"
       d="m 1097.9819,1709.3272 c -14.4471,4.8157 -130.02415,54.578 -136.4451,57.7885 -6.42094,3.2105 -16.05236,12.8419 -14.44713,24.0786 1.60524,11.2366 12.8419,57.7885 12.8419,57.7885 l 41.73613,12.8419 c 0,0 28.8943,-6.421 36.9205,-17.6576 8.0262,-11.2367 94.7089,-97.9195 94.7089,-97.9195 l -11.2366,-25.6838 z"
       id="path3116"
       inkscape:connector-curvature="0" />
    <path
       style="fill:#c8ad61;fill-opacity:1;stroke:#000000;stroke-width:1px;stroke-linecap:butt;stroke-linejoin:miter;stroke-opacity:1"
       d="m 1096.3767,1696.4853 -14.4471,-97.9195 c 0,0 -112.36661,19.2629 -139.65564,30.4995 -27.28902,11.2367 -44.94663,16.0524 -44.94663,16.0524 0,0 6.42095,38.5257 11.23666,60.999 4.81571,22.4733 46.55187,33.71 44.94663,44.9466 -1.60524,11.2367 -4.81571,17.6576 3.21047,16.0524 8.02619,-1.6052 139.65561,-70.6304 139.65561,-70.6304 z"
       id="path3118"
       inkscape:connector-curvature="0" />
    <path
       style="fill:#c8ad61;fill-opacity:1;stroke:#000000;stroke-width:1px;stroke-linecap:butt;stroke-linejoin:miter;stroke-opacity:1"
       d="m 1097.9819,1600.1711 72.2357,-73.8409 -48.1571,-3.2105 -133.23467,-6.4209 -110.76134,3.2104 c 0,0 -24.07855,-4.8157 -20.86807,1.6053 3.21047,6.4209 27.28902,86.6828 27.28902,86.6828 l 20.86808,27.289 174.97078,-40.1309 z"
       id="path3120"
       inkscape:connector-curvature="0" />
    <path
       style="fill:#c8ad61;fill-opacity:1;stroke:#000000;stroke-width:1px;stroke-linecap:butt;stroke-linejoin:miter;stroke-opacity:1"
       d="m 786.566,885.84073 c 0,8.02619 8.02618,89.89326 8.02618,89.89326 l -4.81571,12.8419 -144.4713,-36.92045 -89.89326,-9.63142 -28.89426,-77.05136 3.21047,-22.47332 83.47231,8.02619 94.70897,22.47331 z"
       id="path3122"
       inkscape:connector-curvature="0" />
    <path
       style="fill:#c8ad61;fill-opacity:1;stroke:#000000;stroke-width:1px;stroke-linecap:butt;stroke-linejoin:miter;stroke-opacity:1"
       d="m 471.9396,726.9223 c 0,0 67.41994,17.6576 78.6566,20.86807 11.23666,3.21048 67.41994,6.42095 67.41994,6.42095 0,0 -6.42094,-20.86808 -12.84189,-20.86808 -6.42095,0 -86.68278,-52.97281 -86.68278,-52.97281 l -78.6566,-24.07855 c 0,0 6.42094,19.26284 8.02618,25.68379 1.60524,6.42095 24.07855,44.94663 24.07855,44.94663 z"
       id="path3124"
       inkscape:connector-curvature="0" />
    <path
       style="fill:#c8ad61;fill-opacity:1;stroke:#000000;stroke-width:1px;stroke-linecap:butt;stroke-linejoin:miter;stroke-opacity:1"
       d="m 996.85201,1226.1509 -1.60523,65.8147 c 0,0 -3.21048,25.6838 6.42092,24.0786 9.6314,-1.6053 163.7342,-14.4472 163.7342,-14.4472 0,0 -28.8943,-17.6576 -27.2891,-24.0785 1.6053,-6.4209 0,-33.71 0,-33.71 l -78.6566,-41.7361 z"
       id="path3126"
       inkscape:connector-curvature="0" />
    <path
       style="fill:#c8ad61;fill-opacity:1;stroke:#000000;stroke-width:1px;stroke-linecap:butt;stroke-linejoin:miter;stroke-opacity:1"
       d="m 1139.7181,1722.1691 43.3414,1.6052 c 0,0 20.8681,-41.7361 24.0785,-59.3937 3.2105,-17.6577 -9.6314,-78.6566 -9.6314,-78.6566 0,0 -3.2105,-48.1572 -11.2367,-46.5519 -8.0261,1.6052 -36.9204,30.4995 -36.9204,30.4995 l -36.9204,38.5257 c 0,0 27.289,51.3675 24.0785,60.999 -3.2105,9.6314 3.2105,52.9728 3.2105,52.9728 z"
       id="path3128"
       inkscape:connector-curvature="0" />
    <path
       style="fill:#c8ad61;fill-opacity:1;stroke:#000000;stroke-width:1px;stroke-linecap:butt;stroke-linejoin:miter;stroke-opacity:1"
       d="m 786.566,1855.4037 c 0,0 -6.42095,-30.4995 -8.02618,-38.5257 -1.60524,-8.0261 -43.3414,-64.2094 -43.3414,-64.2094 0,0 -14.44713,-20.8681 -25.68378,-20.8681 -11.23666,0 -32.10474,1.6052 -32.10474,1.6052 0,0 0,6.421 6.42095,24.0786 6.42095,17.6576 27.28902,40.1309 35.31521,48.1571 8.02618,8.0262 44.94663,44.9466 44.94663,44.9466 l 32.10473,6.421 z"
       id="path3130"
       inkscape:connector-curvature="0" />
    <path
       style="fill:#c8ad61;fill-opacity:1;stroke:#000000;stroke-width:1px;stroke-linecap:butt;stroke-linejoin:miter;stroke-opacity:1"
       d="m 773.72411,1922.8237 c -12.8419,6.4209 -32.10474,12.8419 -30.4995,20.868 1.60524,8.0262 -8.02619,22.4734 8.02618,25.6838 16.05237,3.2105 49.76234,12.8419 57.78852,17.6576 8.02619,4.8157 38.52569,11.2367 38.52569,11.2367 l 22.47331,11.2366 c 0,0 11.23666,0 6.42095,-16.0523 -4.81571,-16.0524 -8.02619,-30.4995 -8.02619,-30.4995 l -49.76234,-17.6576 z"
       id="path3132"
       inkscape:connector-curvature="0" />
    <path
       style="fill:#c8ad61;fill-opacity:1;stroke:#000000;stroke-width:1px;stroke-linecap:butt;stroke-linejoin:miter;stroke-opacity:1"
       d="m 845.95976,2110.6364 c 0,0 12.84189,-27.2891 24.07855,-28.8943 11.23666,-1.6052 19.26284,-11.2367 33.70997,-8.0262 14.44713,3.2105 17.65761,4.8157 28.89426,9.6314 11.23666,4.8157 28.89426,12.8419 28.89426,12.8419 l 8.02619,41.7362 3.21047,20.8681 -35.31521,-30.4995 -41.73615,-3.2105 z"
       id="path3134"
       inkscape:connector-curvature="0" />
    <path
       style="fill:#c8ad61;fill-opacity:1;stroke:#000000;stroke-width:1px;stroke-linecap:butt;stroke-linejoin:miter;stroke-opacity:1"
       d="m 741.61937,1674.012 -49.76234,-48.1571 -19.26284,-16.0524 c 0,0 -33.70997,-19.2628 -14.44713,-22.4733 19.26284,-3.2105 28.89426,-20.8681 28.89426,-20.8681 l 43.34139,33.71 12.8419,35.3152 11.23666,36.9204 z"
       id="path3136"
       inkscape:connector-curvature="0" />
    <path
       style="fill:#c8ad61;fill-opacity:1;stroke:#000000;stroke-width:1px;stroke-linecap:butt;stroke-linejoin:miter;stroke-opacity:1"
       d="m 268.07453,598.50336 c 0,0 14.44714,-22.47332 17.65761,-30.4995 3.21047,-8.02618 -25.68379,-44.94663 -25.68379,-44.94663 l -19.26284,0 c 0,0 -16.05237,8.02619 -14.44713,14.44713 1.60524,6.42095 6.42095,32.10474 6.42095,32.10474 l 27.28902,25.68379 z"
       id="path3138"
       inkscape:connector-curvature="0" />
    <path
       style="fill:#c8ad61;fill-opacity:1;stroke:#000000;stroke-width:1px;stroke-linecap:butt;stroke-linejoin:miter;stroke-opacity:1"
       d="m 301.78451,690.00185 c 0,0 11.23665,-24.07855 12.84189,-38.52568 1.60524,-14.44713 -12.84189,-44.94663 -12.84189,-44.94663 l -16.05237,4.81571 c 0,0 -6.42095,1.60524 -9.63142,17.65761 -3.21048,16.05236 -8.02619,36.92044 -8.02619,36.92044 z"
       id="path3140"
       inkscape:connector-curvature="0" />
    <path
       style="fill:#c8ad61;fill-opacity:1;stroke:#000000;stroke-width:1px;stroke-linecap:butt;stroke-linejoin:miter;stroke-opacity:1"
       d="m 332.284,715.68564 -16.05236,36.92045 c 0,0 -6.42095,22.47331 8.02618,30.49949 14.44713,8.02619 27.28902,-1.60523 27.28902,-1.60523 l 3.21048,-41.73616 z"
       id="path3142"
       inkscape:connector-curvature="0" />
    <path
       style="fill:#c8ad61;fill-opacity:1;stroke:#000000;stroke-width:1px;stroke-linecap:butt;stroke-linejoin:miter;stroke-opacity:1"
       d="m 736.80366,1521.5145 -12.84189,-36.9205 -19.26284,-25.6838 c 0,0 8.02618,-12.8418 19.26284,-9.6314 11.23665,3.2105 35.31521,27.2891 35.31521,27.2891 0,0 11.23665,24.0785 6.42094,32.1047 -4.81571,8.0262 -22.47331,27.289 -22.47331,27.289 z"
       id="path3144"
       inkscape:connector-curvature="0" />
    <path
       style="fill:#c8ad61;fill-opacity:1;stroke:#000000;stroke-width:1px;stroke-linecap:butt;stroke-linejoin:miter;stroke-opacity:1"
       d="m 1126.8762,2179.6615 -86.6828,-27.289 c 0,0 -27.289,8.0262 -16.0524,12.8419 11.2367,4.8157 36.9205,19.2629 52.9728,19.2629 16.0524,0 49.7624,-4.8158 49.7624,-4.8158 z"
       id="path3146"
       inkscape:connector-curvature="0" />
    <path
       style="fill:#c8ad61;fill-opacity:1;stroke:#000000;stroke-width:1px;stroke-linecap:butt;stroke-linejoin:miter;stroke-opacity:1"
       d="m 1203.9276,2267.9496 c 0,0 -11.2367,24.0785 -6.421,35.3152 4.8157,11.2366 17.6576,52.9728 17.6576,52.9728 l 11.2367,-20.8681 -9.6315,-30.4995 z"
       id="path3148"
       inkscape:connector-curvature="0" />
    <path
       style="fill:#c8ad61;fill-opacity:1;stroke:#000000;stroke-width:1px;stroke-linecap:butt;stroke-linejoin:miter;stroke-opacity:1"
       d="m 1231.2166,2418.8418 25.6838,60.999 c 0,0 -9.6315,40.1309 -8.0262,49.7624 1.6052,9.6314 6.4209,11.2366 4.8157,19.2628 -1.6052,8.0262 16.0524,4.8157 16.0524,4.8157 0,0 24.0785,-8.0262 22.4733,-25.6838 -1.6053,-17.6576 -1.6053,-49.7623 -3.2105,-64.2095 -1.6052,-14.4471 -9.6314,-38.5256 -9.6314,-38.5256 l -38.5257,-8.0262 z"
       id="path3150"
       inkscape:connector-curvature="0" />
    <path
       style="fill:#c8ad61;fill-opacity:1;stroke:#000000;stroke-width:1px;stroke-linecap:butt;stroke-linejoin:miter;stroke-opacity:1"
       d="m 1573.132,2109.0311 6.4209,46.5519 c 0,0 16.855,14.4471 24.8812,14.4471 4.0538,0 39.9417,-3.9476 59.3775,-0.7049 19.0456,3.1775 21.687,13.5468 21.687,13.5468 l 15.8663,-27.066 10.6201,-28.3146 29.6969,-45.7493 c 0,0 -20.8681,-17.6576 -33.71,-14.4471 -12.8419,3.2104 -41.7362,6.4209 -60.999,11.2366 -19.2629,4.8157 -17.6576,0 -41.7362,9.6314 -24.0785,9.6315 -32.1047,20.8681 -32.1047,20.8681 z"
       id="path3152"
       inkscape:connector-curvature="0"
       sodipodi:nodetypes="ccssccccsssc" />
    <path
       style="fill:#c8ad61;fill-opacity:1;stroke:#000000;stroke-width:1px;stroke-linecap:butt;stroke-linejoin:miter;stroke-opacity:1"
       d="m 1417.424,2625.9174 c 8.0262,-4.8158 16.0524,-19.2629 12.8419,-30.4995 -3.2104,-11.2367 -19.2628,-40.131 -19.2628,-40.131 l -28.8943,-48.1571 -28.8942,-4.8157 1.6052,35.3152 c 0,0 16.0524,19.2629 14.4471,30.4995 -1.6052,11.2367 11.2367,43.3414 11.2367,43.3414 z"
       id="path3154"
       inkscape:connector-curvature="0" />
    <path
       style="fill:#c8ad61;fill-opacity:1;stroke:#000000;stroke-width:1px;stroke-linecap:butt;stroke-linejoin:miter;stroke-opacity:1"
       d="m 1595.9137,2645.2894 c 5.1079,-2.2701 9.6482,-13.6208 8.5131,-16.4585 -1.1351,-2.8377 -23.8366,-28.3769 -36.3224,-31.2146 -12.4858,-2.8376 -55.6186,-41.9977 -58.4563,-40.8626 -2.8377,1.1351 -15.891,13.6209 -15.891,22.1339 0,8.5131 25.5392,22.134 30.647,29.5119 5.1078,7.378 11.9183,20.9989 22.1339,26.1067 10.2157,5.1079 25.5392,8.5131 29.5119,9.0806 3.9728,0.5676 19.8638,1.7026 19.8638,1.7026 z"
       id="path3156"
       inkscape:connector-curvature="0" />
    <path
       style="fill:#c8ad61;fill-opacity:1;stroke:#000000;stroke-width:1px;stroke-linecap:butt;stroke-linejoin:miter;stroke-opacity:1"
       d="m 1677.639,2612.9398 c 2.2702,6.8105 24.4041,6.8105 26.1067,13.6209 1.7027,6.8105 20.4314,27.2418 25.5392,28.3769 5.1078,1.135 14.756,3.4052 18.1612,0.5675 3.4052,-2.8377 7.9455,-11.9183 6.2429,-20.9989 -1.7026,-9.0805 -3.9728,-11.9182 -11.9183,-23.269 -7.9455,-11.3507 -11.9183,-22.7014 -20.9988,-27.2417 -9.0806,-4.5403 -27.2418,-13.0534 -33.4847,-14.756 -6.2429,-1.7026 -18.1612,-9.0806 -21.5664,-5.6754 -3.4052,3.4053 -4.5403,5.6754 -5.1079,10.7832 -0.5675,5.1079 -3.4052,12.4858 0.5676,18.7287 3.9727,6.243 6.2429,15.8911 9.0806,17.5937 2.8377,1.7026 7.3779,2.2701 7.3779,2.2701 z"
       id="path3158"
       inkscape:connector-curvature="0" />
    <path
       style="fill:#c8ad61;fill-opacity:1;stroke:#000000;stroke-width:1px;stroke-linecap:butt;stroke-linejoin:miter;stroke-opacity:1"
       d="m 1862.0885,2643.0193 c 2.8377,7.9455 15.8911,18.7287 18.1612,20.4313 2.2702,1.7026 23.8366,7.378 23.8366,7.378 0,0 -8.5131,-14.1884 -10.7832,-18.1612 -2.2702,-3.9727 -6.8105,-11.9183 -12.4858,-12.4858 -5.6754,-0.5675 -18.7288,2.8377 -18.7288,2.8377 z"
       id="path3160"
       inkscape:connector-curvature="0" />
    <path
       style="fill:#c8ad61;fill-opacity:1;stroke:#000000;stroke-width:1px;stroke-linecap:butt;stroke-linejoin:miter;stroke-opacity:1"
       d="m 1785.4711,2560.7264 c 5.6753,5.1079 22.7014,11.3508 22.7014,11.3508 0,0 1.7026,-5.1078 0,-10.7832 -1.7026,-5.6754 -10.7832,-25.5392 -13.6209,-24.9716 -2.8376,0.5675 -10.7832,0.5675 -11.9182,3.9727 -1.1351,3.4052 2.2701,14.1884 2.2701,14.1884 z"
       id="path3162"
       inkscape:connector-curvature="0" />
    <path
       style="fill:#c8ad61;fill-opacity:1;stroke:#000000;stroke-width:1px;stroke-linecap:butt;stroke-linejoin:miter;stroke-opacity:1"
       d="m 2007.3485,2288.015 c 1.6053,5.6183 8.8288,25.6838 12.0393,37.7231 3.2105,12.0393 12.8419,112.3666 12.8419,121.1954 0,8.8288 8.8288,100.3273 8.8288,100.3273 l 1.6052,42.5387 c 0,0 -33.7099,-8.8288 -43.3413,-12.0392 -9.6315,-3.2105 -30.4995,-4.0131 -39.3283,-9.6315 -8.8288,-5.6183 -36.9205,-16.0523 -34.5126,-24.0785 2.4078,-8.0262 -2.4079,-52.1702 -2.4079,-62.6043 0,-10.434 0.8026,-148.4844 0.8026,-154.1027 0,-5.6183 16.0524,-47.3545 16.0524,-47.3545 0,0 12.8419,-13.6445 24.0785,-3.2104 11.2367,10.434 25.6838,10.434 25.6838,10.434 z"
       id="path3164"
       inkscape:connector-curvature="0" />
    <path
       style="fill:#c8ad61;fill-opacity:1;stroke:#000000;stroke-width:1px;stroke-linecap:butt;stroke-linejoin:miter;stroke-opacity:1"
       d="m 1927.8893,2074.5185 c 0,5.6184 0,145.274 1.6053,154.1028 1.6052,8.8288 4.8157,33.7099 8.0261,35.3152 3.2105,1.6052 33.71,-0.8026 47.3545,-4.0131 13.6445,-3.2105 29.6969,-29.6969 32.1048,-38.5257 2.4078,-8.8288 7.2235,-37.7231 4.0131,-41.7362 -3.2105,-4.0131 -20.8681,-44.9466 -32.1048,-55.3806 -11.2366,-10.4341 -21.6707,-28.8943 -21.6707,-28.8943 0,0 -18.4602,0 -23.2759,-3.2105 -4.8157,-3.2104 -16.0524,-17.6576 -16.0524,-17.6576 z"
       id="path3166"
       inkscape:connector-curvature="0" />
    <path
       style="fill:#c8ad61;fill-opacity:1;stroke:#000000;stroke-width:1px;stroke-linecap:butt;stroke-linejoin:miter;stroke-opacity:1"
       d="m 2023.4009,2191.7008 c 3.2105,6.421 6.421,50.565 8.8288,58.5912 2.4079,8.0261 32.1047,19.2628 32.1047,19.2628 0,0 12.0393,-24.8812 8.0262,-28.8943 -4.0131,-4.0131 -27.289,-37.723 -27.289,-37.723 z"
       id="path3168"
       inkscape:connector-curvature="0" />
    <path
       style="fill:#c8ad61;fill-opacity:1;stroke:#000000;stroke-width:1px;stroke-linecap:butt;stroke-linejoin:miter;stroke-opacity:1"
       d="m 2037.0454,2269.5548 c 0.8026,4.0131 -1.6052,58.5911 -1.6052,58.5911 0,0 -11.2367,-10.434 -9.6314,19.2629 1.6052,29.6969 6.4209,73.0383 7.2235,83.4723 0.8026,10.434 8.0262,103.5378 10.4341,106.7482 2.4078,3.2105 14.4471,58.5912 14.4471,58.5912 0,0 19.2628,3.2104 24.0785,10.434 4.8158,7.2236 28.8943,9.6314 30.4995,13.6445 1.6053,4.0131 16.855,21.6707 28.0917,22.4733 11.2366,0.8027 25.6838,4.8158 26.4864,0.8027 0.8026,-4.0131 -16.855,-122.8007 -16.855,-122.8007 0,0 -32.1047,-136.4451 -33.71,-142.0634 -1.6052,-5.6183 -24.8811,-61.8016 -28.8942,-68.2226 -4.0131,-6.4209 -7.2236,-31.3021 -16.855,-32.9073 -9.6314,-1.6053 -33.71,-8.0262 -33.71,-8.0262 z"
       id="path3170"
       inkscape:connector-curvature="0" />
    <path
       style="fill:#c8ad61;fill-opacity:1;stroke:#000000;stroke-width:1px;stroke-linecap:butt;stroke-linejoin:miter;stroke-opacity:1"
       d="m 1998.5197,2731.863 c 6.421,8.0262 10.4341,15.2497 20.8681,16.855 10.4341,1.6052 28.0917,6.4209 24.0786,2.4078 -4.0131,-4.0131 -27.2891,-29.6969 -36.1179,-34.5126 -8.8288,-4.8157 -26.4864,-14.4471 -32.1047,-16.855 -5.6183,-2.4078 -16.855,0.8027 -16.855,0.8027 0,0 8.0262,18.4602 11.2367,22.4733 3.2104,4.0131 12.0393,8.8288 18.4602,8.0262 6.4209,-0.8027 10.434,0.8026 10.434,0.8026 z"
       id="path3172"
       inkscape:connector-curvature="0" />
    <path
       style="fill:#c8ad61;fill-opacity:1;stroke:#000000;stroke-width:1px;stroke-linecap:butt;stroke-linejoin:miter;stroke-opacity:1"
       d="m 2092.4261,2771.1913 c 5.6183,12.8419 1.6052,23.2759 10.434,26.4864 8.8288,3.2105 21.6707,0 24.8812,4.8157 3.2105,4.8157 21.6707,12.8419 27.289,11.2367 5.6183,-1.6053 16.0524,6.4209 8.0262,-4.8158 -8.0262,-11.2366 -24.8812,-29.6968 -28.0916,-32.1047 -3.2105,-2.4078 -22.4734,-12.8419 -27.2891,-11.2366 -4.8157,1.6052 -15.2497,5.6183 -15.2497,5.6183 z"
       id="path3174"
       inkscape:connector-curvature="0" />
    <path
       style="fill:#c8ad61;fill-opacity:1;stroke:#000000;stroke-width:1px;stroke-linecap:butt;stroke-linejoin:miter;stroke-opacity:1"
       d="m 2614.128,2974.2537 c -4.8157,8.8288 9.6314,35.3152 10.4341,40.1309 0.8026,4.8158 28.0916,24.0786 40.1309,22.4734 12.0393,-1.6053 19.2628,-28.0917 15.2497,-35.3152 -4.0131,-7.2236 -35.3152,-35.3153 -35.3152,-35.3153 0,0 -14.4471,-8.0261 -20.8681,-5.6183 -6.4209,2.4079 -9.6314,13.6445 -9.6314,13.6445 z"
       id="path3176"
       inkscape:connector-curvature="0" />
    <path
       style="fill:#c8ad61;fill-opacity:1;stroke:#000000;stroke-width:1px;stroke-linecap:butt;stroke-linejoin:miter;stroke-opacity:1"
       d="m 2549.9186,2991.9113 c 8.8288,4.0131 24.8811,12.8419 32.1047,7.2236 7.2236,-5.6183 14.4471,-40.1309 6.4209,-42.5388 -8.0261,-2.4078 -23.2759,-15.2497 -26.4864,-14.4471 -3.2104,0.8026 -16.0523,-2.4079 -24.8811,2.4078 -8.8288,4.8158 -17.6576,6.421 -16.0524,16.0524 1.6052,9.6314 4.8157,31.3021 10.434,29.6969 5.6184,-1.6052 18.4603,1.6052 18.4603,1.6052 z"
       id="path3178"
       inkscape:connector-curvature="0" />
    <path
       style="fill:#c8ad61;fill-opacity:1;stroke:#000000;stroke-width:1px;stroke-linecap:butt;stroke-linejoin:miter;stroke-opacity:1"
       d="m 2438.3546,2926.8992 c 0,0 3.2105,16.0524 10.434,19.2629 7.2236,3.2105 33.71,5.6183 36.9205,4.8157 3.2105,-0.8026 10.434,-12.8419 6.4209,-16.0524 -4.0131,-3.2104 -24.8811,-22.4733 -31.3021,-20.8681 -6.4209,1.6053 -23.2759,-0.8026 -23.2759,-0.8026 z"
       id="path3180"
       inkscape:connector-curvature="0" />
    <path
       style="fill:#c8ad61;fill-opacity:1;stroke:#000000;stroke-width:1px;stroke-linecap:butt;stroke-linejoin:miter;stroke-opacity:1"
       d="m 2350.8692,2903.6233 c 6.4209,7.2236 36.9204,12.8419 41.7362,6.421 4.8157,-6.421 -7.2236,-24.8812 -11.2367,-27.2891 -4.0131,-2.4078 -24.0786,-13.6445 -29.6969,-14.4471 -5.6183,-0.8026 -40.9335,-14.4471 -38.5257,-3.2105 2.4079,11.2367 5.6184,20.0655 10.4341,28.0917 4.8157,8.0262 27.289,10.434 27.289,10.434 z"
       id="path3182"
       inkscape:connector-curvature="0" />
    <path
       style="fill:#c8ad61;fill-opacity:1;stroke:#000000;stroke-width:1px;stroke-linecap:butt;stroke-linejoin:miter;stroke-opacity:1"
       d="m 2216.0293,2847.44 c 8.0262,5.6184 19.2629,-0.8026 23.2759,3.2105 4.0131,4.0131 -2.4078,17.6576 18.4603,13.6445 20.868,-4.0131 15.2497,-12.0393 10.434,-17.6576 -4.8157,-5.6183 -24.0785,-24.8812 -24.0785,-24.8812 0,0 -8.0262,-6.4209 -13.6446,-4.0131 -5.6183,2.4079 -21.6707,11.2367 -21.6707,11.2367 l 3.2105,18.4602 c 0,0 3.2105,-0.8026 4.0131,0 z"
       id="path3184"
       inkscape:connector-curvature="0" />
    <path
       style="fill:#c8ad61;fill-opacity:1;stroke:#000000;stroke-width:1px;stroke-linecap:butt;stroke-linejoin:miter;stroke-opacity:1"
       d="m 1574.7372,2171.6354 17.6576,15.2497 c 0,0 5.6184,35.3152 3.2105,40.9335 -2.4078,5.6184 -18.4602,94.709 -18.4602,94.709 0,0 -11.2367,17.6576 -13.6445,23.2759 -2.4079,5.6184 -3.2105,36.9205 -8.8288,37.7231 -5.6183,0.8026 -38.5257,-1.6052 -42.5388,-1.6052 -4.0131,0 -21.6707,-2.4079 -23.2759,-9.6315 -1.6053,-7.2235 -8.8288,-47.3544 -0.8026,-55.3806 8.0261,-8.0262 31.3021,-68.2226 34.5125,-69.0252 3.2105,-0.8026 24.8812,-32.1047 27.2891,-36.1178 2.4078,-4.0131 24.8811,-40.1309 24.8811,-40.1309 z"
       id="path3186"
       inkscape:connector-curvature="0" />
    <path
       style="fill:#c8ad61;fill-opacity:1;stroke:#000000;stroke-width:1px;stroke-linecap:butt;stroke-linejoin:miter;stroke-opacity:1"
       d="m 1553.0665,2101.8076 15.2498,48.9597 c 0,0 -6.421,22.4733 -11.2367,32.1047 -4.8157,9.6314 -24.0785,35.3152 -28.0916,47.3545 -4.0131,12.0393 -25.6838,36.9204 -28.0917,44.144 -2.4078,7.2236 -37.723,39.3283 -37.723,39.3283 l -15.2498,7.2236 c 0,0 -21.6707,-5.6184 -27.289,-7.2236 -5.6183,-1.6052 -23.2759,-10.434 -24.0785,-18.4602 -0.8027,-8.0262 17.6576,-43.3414 17.6576,-43.3414 0,0 19.2628,-43.3414 24.8811,-44.144 5.6184,-0.8026 69.0252,-58.5912 69.0252,-58.5912 z"
       id="path3188"
       inkscape:connector-curvature="0" />
    <path
       style="fill:#c8ad61;fill-opacity:1;stroke:#000000;stroke-width:1px;stroke-linecap:butt;stroke-linejoin:miter;stroke-opacity:1"
       d="m 396.14075,908.05902 c 1.13507,-7.94552 -4.5403,-35.18729 1.13507,-37.45743 5.67537,-2.27015 -19.29625,-54.48355 -19.29625,-54.48355 0,0 -11.35074,19.29626 -9.08059,32.91714 2.27015,13.62089 18.16118,59.02384 18.16118,59.02384 z"
       id="path3190"
       inkscape:connector-curvature="0" />
    <path
       style="fill:#c8ad61;fill-opacity:1;stroke:#000000;stroke-width:1px;stroke-linecap:butt;stroke-linejoin:miter;stroke-opacity:1"
       d="m 421.11237,942.11123 c 0,0 -6.81044,30.647 -5.67537,38.59251 1.13508,7.94552 29.51192,48.80816 29.51192,48.80816 0,0 10.21567,2.2702 11.35074,-4.5403 1.13507,-6.8104 5.67537,-47.67308 2.27015,-52.21337 -3.40522,-4.5403 -37.45744,-30.647 -37.45744,-30.647 z"
       id="path3192"
       inkscape:connector-curvature="0" />
    <path
       style="fill:#c8ad61;fill-opacity:1;stroke:#000000;stroke-width:1px;stroke-linecap:butt;stroke-linejoin:miter;stroke-opacity:1"
       d="m 479.00114,1068.1044 7.94551,52.2134 13.62089,9.0806 14.75596,39.7276 c 0,0 5.67537,-40.8627 3.40522,-52.2134 -2.27015,-11.3507 -22.70148,-34.0522 -22.70148,-34.0522 l -15.89103,-9.0806 z"
       id="path3194"
       inkscape:connector-curvature="0" />
    <path
       style="fill:#c8ad61;fill-opacity:1;stroke:#000000;stroke-width:1px;stroke-linecap:butt;stroke-linejoin:miter;stroke-opacity:1"
       d="m 559.59137,1205.4484 c 0,10.2156 -3.40522,47.673 -3.40522,47.673 0,0 12.48581,-1.135 12.48581,3.4053 0,4.5403 11.35074,30.647 11.35074,30.647 l 9.08059,15.891 c 0,0 6.81045,-13.6209 6.81045,-23.8366 0,-10.2156 -19.29626,-52.2133 -19.29626,-52.2133 z"
       id="path3196"
       inkscape:connector-curvature="0" />
    <path
       style="fill:#c8ad61;fill-opacity:1;stroke:#000000;stroke-width:1px;stroke-linecap:butt;stroke-linejoin:miter;stroke-opacity:1"
       d="m 641.31669,1353.0079 c -1.13508,4.5403 -5.67537,27.2418 -2.27015,34.0523 3.40522,6.8104 14.75596,17.0261 19.29625,17.0261 4.5403,0 -5.67537,-32.9172 -5.67537,-32.9172 z"
       id="path3198"
       inkscape:connector-curvature="0" />
    <path
       style="fill:#c8ad61;fill-opacity:1;stroke:#000000;stroke-width:1px;stroke-linecap:butt;stroke-linejoin:miter;stroke-opacity:1"
       d="m 386.86205,549.54364 c 0.80262,4.81571 25.68379,65.8147 25.68379,65.8147 0,0 21.6707,19.26284 23.27593,23.27594 1.60524,4.01309 4.81571,14.44713 15.24975,16.85498 10.43404,2.40786 167.74724,81.06446 170.95772,80.26184 3.21047,-0.80262 -1.60524,-13.64451 -5.61833,-26.48641 -4.0131,-12.84189 -20.06546,-32.10473 -24.88117,-48.1571 -4.81571,-16.05237 -14.44713,-28.09164 -34.51259,-37.72306 -20.06546,-9.63142 -17.65761,-14.44713 -47.35449,-28.09165 -29.69688,-13.64451 -58.59114,-26.4864 -69.82779,-28.89426 -11.23666,-2.40785 -57.78853,-17.6576 -57.78853,-17.6576 z"
       id="path3200"
       inkscape:connector-curvature="0" />
    <path
       style="fill:#c8ad61;fill-opacity:1;stroke:#000000;stroke-width:1px;stroke-linecap:butt;stroke-linejoin:miter;stroke-opacity:1"
       d="m 667.77848,684.38352 c 0,0 -5.61833,23.27593 -7.22356,28.89426 -1.60524,5.61833 -20.06546,26.48641 -20.06546,30.4995 0,4.01309 0,8.8288 15.24975,16.05237 15.24975,7.22356 105.94562,46.55186 111.56395,46.55186 5.61833,0 16.85499,-6.42094 16.85499,-6.42094 l 14.44713,-12.8419 c 0,0 5.61832,-17.6576 6.42094,-20.86807 0.80262,-3.21048 14.44713,-6.42095 -0.80262,-14.44713 -15.24974,-8.02619 -107.55086,-65.01209 -107.55086,-65.01209 z"
       id="path3202"
       inkscape:connector-curvature="0" />
    <path
       style="fill:#c8ad61;fill-opacity:1;stroke:#000000;stroke-width:1px;stroke-linecap:butt;stroke-linejoin:miter;stroke-opacity:1"
       d="m 496.01815,741.36943 c 0,0 -16.05237,5.61832 -12.84189,10.43404 3.21047,4.81571 6.42094,15.24974 11.23665,34.51258 4.81571,19.26285 15.24975,36.92045 15.24975,36.92045 0,0 11.23666,12.84189 21.6707,14.44713 10.43404,1.60524 60.19638,3.21047 68.22256,3.21047 8.02618,0 36.92045,-4.01309 36.92045,-4.01309 0,0 13.64451,6.42095 22.47331,9.63142 8.8288,3.21048 28.89426,16.85499 35.31521,18.46022 6.42095,1.60524 78.6566,11.23666 78.6566,11.23666 0,0 4.81571,-12.84189 5.61833,-20.06546 0.80262,-7.22356 5.61833,-51.36757 5.61833,-51.36757 0,0 -18.46023,2.40785 -29.69688,-0.80262 -11.23666,-3.21047 -48.15711,-5.61833 -56.18329,-13.64451 -8.02618,-8.02619 -32.90735,-15.24975 -38.52568,-13.64452 -5.61833,1.60524 -9.63142,11.23666 -13.64451,9.63142 -4.0131,-1.60523 -27.28903,-10.43403 -32.90736,-13.64451 -5.61833,-3.21047 -24.07855,-8.8288 -39.3283,-10.43404 -15.24975,-1.60523 -77.85398,-20.86807 -77.85398,-20.86807 z"
       id="path3204"
       inkscape:connector-curvature="0" />
    <path
       style="fill:#c8ad61;fill-opacity:1;stroke:#000000;stroke-width:1px;stroke-linecap:butt;stroke-linejoin:miter;stroke-opacity:1"
       d="m 571.46428,951.65544 c 0,0 -7.22357,4.01309 -4.01309,15.24975 3.21047,11.23665 8.8288,32.10473 17.6576,35.31521 8.8288,3.2105 17.6576,0.8026 15.24975,4.0131 -2.40786,3.2105 9.63142,36.9204 9.63142,36.9204 l 11.23666,24.8812 c 0,0 4.81571,4.8157 28.89426,7.2236 24.07855,2.4078 190.22055,19.2628 204.66768,20.868 14.44713,1.6053 18.46022,0 30.4995,0.8027 12.03928,0.8026 35.31521,10.434 38.52568,11.2366 3.21047,0.8026 20.06546,12.8419 11.23666,-0.8026 -8.8288,-13.6445 -42.53877,-50.565 -48.95972,-56.1833 -6.42095,-5.6183 -44.94663,-36.1178 -49.76234,-40.1309 -4.81571,-4.0131 -50.56496,-23.27593 -56.18329,-22.47332 -5.61832,0.80262 -90.69587,-20.86807 -90.69587,-20.86807 l -106.74824,-21.6707 z"
       id="path3206"
       inkscape:connector-curvature="0" />
    <path
       style="fill:#c8ad61;fill-opacity:1;stroke:#000000;stroke-width:1px;stroke-linecap:butt;stroke-linejoin:miter;stroke-opacity:1"
       d="m 627.64756,1076.0613 c 0,5.6183 -0.80261,27.289 -0.80261,27.289 0,0 18.46022,20.8681 24.07855,22.4733 5.61832,1.6053 7.22356,24.8812 10.43404,28.8943 3.21047,4.0131 6.42094,20.8681 9.63142,25.6838 3.21047,4.8157 14.44713,18.4602 21.67069,18.4602 7.22357,0 174.16819,3.2105 178.18128,4.0131 4.01309,0.8026 51.36757,2.4078 61.80161,0.8026 10.43404,-1.6052 45.74925,-9.6314 45.74925,-9.6314 0,0 8.02618,-32.9074 3.21047,-39.3283 -4.81571,-6.421 -47.35448,-20.8681 -57.78852,-25.6838 -10.43404,-4.8157 -51.36757,-22.4733 -51.36757,-22.4733 0,0 -51.36758,-8.0262 -61.80162,-10.4341 -10.43404,-2.4078 -131.62941,-14.4471 -131.62941,-14.4471 z"
       id="path3208"
       inkscape:connector-curvature="0" />
    <path
       style="fill:#c8ad61;fill-opacity:1;stroke:#000000;stroke-width:1px;stroke-linecap:butt;stroke-linejoin:miter;stroke-opacity:1"
       d="m 991.23368,1153.9153 c 0,0 2.40786,8.0262 3.21048,18.4602 0.80262,10.434 -1.60524,24.0785 7.22354,25.6838 8.8288,1.6052 48.1571,3.2105 48.1571,3.2105 l -9.6314,-23.276 z"
       id="path3210"
       inkscape:connector-curvature="0" />
    <path
       style="fill:#c8ad61;fill-opacity:1;stroke:#000000;stroke-width:1px;stroke-linecap:butt;stroke-linejoin:miter;stroke-opacity:1"
       d="m 745.63246,1333.7018 c 7.22357,0.8026 85.88017,4.8157 94.70897,6.4209 8.8288,1.6053 97.11682,-4.0131 103.53777,-8.8288 6.42095,-4.8157 28.89426,-24.8811 28.89426,-24.8811 0,0 1.60524,-32.1048 0.80262,-36.9205 -0.80262,-4.8157 -3.21047,-8.0262 -6.42095,-19.2628 -3.21047,-11.2367 -10.43404,-35.3152 -17.6576,-37.7231 -7.22357,-2.4078 -6.42095,-2.4078 -26.48641,-2.4078 -20.06546,0 -123.60323,-2.4079 -126.8137,-4.0131 -3.21047,-1.6053 -92.30111,-4.0131 -99.52468,-2.4079 -7.22356,1.6052 -12.84189,0.8026 -12.84189,0.8026 0,0 6.42095,24.8812 12.03927,35.3152 5.61833,10.4341 16.85499,22.4733 16.85499,22.4733 0,0 18.46022,9.6315 16.05237,16.0524 -2.40786,6.421 -4.01309,31.3021 2.40785,38.5257 6.42095,7.2236 14.44713,16.855 14.44713,16.855 z"
       id="path3212"
       inkscape:connector-curvature="0" />
    <path
       style="fill:#c8ad61;fill-opacity:1;stroke:#000000;stroke-width:1px;stroke-linecap:butt;stroke-linejoin:miter;stroke-opacity:1"
       d="m 1193.4935,1750.2607 c -2.4078,0 -56.1833,-11.2366 -56.1833,-11.2366 0,0 -35.3152,44.144 -44.144,52.1702 -8.8288,8.0261 -53.7754,53.7754 -55.3807,60.9989 -1.6052,7.2236 -12.8418,5.6184 -16.8549,25.6838 -4.0131,20.0655 -6.421,39.3283 0.8026,51.3676 7.2235,12.0393 24.8812,21.6707 28.8942,25.6838 4.0131,4.0131 34.5126,8.8288 36.9205,1.6052 2.4078,-7.2235 43.3414,-65.8147 45.7492,-70.6304 2.4079,-4.8157 17.6576,-52.9728 23.276,-65.8147 5.6183,-12.8419 36.9204,-69.8278 36.9204,-69.8278 z"
       id="path3214"
       inkscape:connector-curvature="0" />
    <path
       style="fill:#c8ad61;fill-opacity:1;stroke:#000000;stroke-width:1px;stroke-linecap:butt;stroke-linejoin:miter;stroke-opacity:1"
       d="m 1203.9276,1756.6817 c 0,0 -36.1179,48.9597 -39.3283,63.4068 -3.2105,14.4471 -48.9598,106.7483 -51.3676,110.7613 -2.4079,4.0131 -16.855,11.2367 -17.6576,34.5126 -0.8026,23.276 4.8157,23.276 8.8288,31.3022 4.0131,8.0261 48.9597,20.868 54.578,24.8811 5.6184,4.0131 36.1178,16.855 41.7362,16.855 5.6183,0 16.855,-14.4471 21.6707,-28.8943 4.8157,-14.4471 15.2497,-41.7361 14.4471,-44.9466 -0.8026,-3.2105 -6.4209,-38.5257 -8.0262,-45.7492 -1.6052,-7.2236 -5.6183,-79.4592 -5.6183,-79.4592 l -14.4471,-58.5912 z"
       id="path3216"
       inkscape:connector-curvature="0" />
    <path
       style="fill:#c8ad61;fill-opacity:1;stroke:#000000;stroke-width:1px;stroke-linecap:butt;stroke-linejoin:miter;stroke-opacity:1"
       d="m 1598.4375,2196.875 90.625,-1.5625 -6.25,153.125 -17.1875,59.375 -34.375,10.9375 -34.375,-17.1875 -28.125,-21.875 c 0,0 -10.9375,-23.4375 -4.6875,-31.25 6.25,-7.8125 26.5625,-65.625 26.5625,-65.625 z"
       id="path3254"
       inkscape:connector-curvature="0" />
    <path
       style="fill:#c8ad61;fill-opacity:1;stroke:#000000;stroke-width:1px;stroke-linecap:butt;stroke-linejoin:miter;stroke-opacity:1"
       d="m 1684.375,2184.375 0,107.8125 c 0,0 -12.5,107.8125 -12.5,112.5 0,4.6875 26.5625,12.5 43.75,17.1875 17.1875,4.6875 65.625,12.5 64.0625,4.6875 -1.5625,-7.8125 -6.25,-81.25 -6.25,-81.25 0,0 -9.375,-82.8125 -10.9375,-90.625 -1.5625,-7.8125 -7.8125,-107.8125 -7.8125,-107.8125 0,0 0,-65.625 -4.6875,-51.5625 -4.6875,14.0625 -39.0625,42.1875 -39.0625,42.1875 z"
       id="path3256"
       inkscape:connector-curvature="0" />
    <path
       style="fill:#c8ad61;fill-opacity:1;stroke:#000000;stroke-width:1px;stroke-linecap:butt;stroke-linejoin:miter;stroke-opacity:1"
       d="m 1581.25,2067.1875 c 7.8125,-3.125 90.625,-26.5625 90.625,-26.5625 0,0 28.125,-3.125 37.5,-3.125 9.375,0 48.4375,3.125 48.4375,3.125 0,0 -28.125,-300 -34.375,-296.875 -6.25,3.125 -62.5,42.1875 -62.5,42.1875 L 1581.25,1975 l 1.5625,103.125 z"
       id="path3258"
       inkscape:connector-curvature="0" />
    <path
       style="fill:#c8ad61;fill-opacity:1;stroke:#000000;stroke-width:1px;stroke-linecap:butt;stroke-linejoin:miter;stroke-opacity:1"
       d="m 1867.1875,1968.75 c 9.375,-3.125 60.9375,7.8125 54.6875,3.125 -6.25,-4.6875 -76.5625,-167.1875 -76.5625,-167.1875 L 1812.5,1709.375 c 0,0 -45.3125,3.125 -43.75,9.375 1.5625,6.25 28.125,73.4375 35.9375,79.6875 7.8125,6.25 56.25,142.1875 56.25,142.1875 z"
       id="path3260"
       inkscape:connector-curvature="0" />
    <path
       style="fill:#c8ad61;fill-opacity:1;stroke:#000000;stroke-width:1px;stroke-linecap:butt;stroke-linejoin:miter;stroke-opacity:1"
       d="m 1889.0625,2062.5 34.375,3.125 6.25,207.8125 -4.6875,43.75 0,214.0625 -42.1875,-21.875 c 0,0 9.375,-87.5 10.9375,-104.6875 1.5625,-17.1875 -7.8125,-104.6875 -1.5625,-126.5625 6.25,-21.875 -3.125,-215.625 -3.125,-215.625 z"
       id="path3262"
       inkscape:connector-curvature="0" />
    <path
       style="fill:#c8ad61;fill-opacity:1;stroke:#000000;stroke-width:1px;stroke-linecap:butt;stroke-linejoin:miter;stroke-opacity:1"
       d="m 1228.125,1509.375 c 79.6875,14.0625 284.375,-12.5 284.375,-12.5 l -35.9375,103.125 -137.5,107.8125 c 0,0 -70.3125,18.75 -85.9375,21.875 -15.625,3.125 -34.375,7.8125 -32.8125,0 1.5625,-7.8125 23.4375,-79.6875 25,-101.5625 1.5625,-21.875 0,-31.25 -3.125,-42.1875 -3.125,-10.9375 -14.0625,-76.5625 -14.0625,-76.5625 z"
       id="path3264"
       inkscape:connector-curvature="0" />
    <path
       style="fill:#c8ad61;fill-opacity:1;stroke:#000000;stroke-width:1px;stroke-linecap:butt;stroke-linejoin:miter;stroke-opacity:1"
       d="m 1275,1371.875 c 10.9375,-1.5625 221.875,29.6875 221.875,29.6875 l -132.8125,-50 -104.6875,-31.25 -4.6875,32.8125 z"
       id="path3266"
       inkscape:connector-curvature="0" />
    <path
       style="fill:#c8ad61;fill-opacity:1;stroke:#000000;stroke-width:1px;stroke-linecap:butt;stroke-linejoin:miter;stroke-opacity:1"
       d="m 1175,1362.5 c 3.125,-6.25 3.125,-60.9375 -3.125,-56.25 -6.25,4.6875 -110.9375,-3.125 -121.875,1.5625 -10.9375,4.6875 -84.375,14.0625 -100,20.3125 -15.625,6.25 -196.875,6.25 -196.875,14.0625 0,7.8125 34.375,46.875 42.1875,46.875 7.8125,0 193.75,-17.1875 193.75,-17.1875 0,0 126.5625,-17.1875 132.8125,-15.625 6.25,1.5625 53.125,6.25 53.125,6.25 z"
       id="path3268"
       inkscape:connector-curvature="0" />
  </g>
  <g
     inkscape:groupmode="layer"
     id="layer4"
     inkscape:label="yellow2"
     sodipodi:insensitive="true"
     style="display:inline">
    <path
       style="fill:#b49033;fill-opacity:1;stroke:#000000;stroke-width:1px;stroke-linecap:butt;stroke-linejoin:miter;stroke-opacity:1"
       d="m 784.375,1395.3125 42.1875,59.375 c 0,0 18.75,-7.8125 18.75,6.25 0,14.0625 7.8125,26.5625 7.8125,26.5625 0,0 1.5625,25 9.375,21.875 7.8125,-3.125 276.5625,0 276.5625,0 l 35.9375,1.5625 c 0,0 6.25,-12.5 1.5625,-26.5625 -4.6875,-14.0625 -4.6875,-43.75 -4.6875,-43.75 0,0 -18.75,-9.375 -12.5,-12.5 6.25,-3.125 7.8125,-54.6875 7.8125,-54.6875 0,0 -28.125,-17.1875 -40.625,-14.0625 -12.5,3.125 -273.4375,18.75 -284.375,23.4375 -10.9375,4.6875 -57.8125,12.5 -57.8125,12.5 z"
       id="path3222"
       inkscape:connector-curvature="0" />
    <path
       style="fill:#b49033;fill-opacity:1;stroke:#000000;stroke-width:1px;stroke-linecap:butt;stroke-linejoin:miter;stroke-opacity:1"
       d="m 1273.4375,1371.875 c 0,0 -6.25,46.875 -10.9375,59.375 -4.6875,12.5 -21.875,39.0625 -21.875,46.875 0,7.8125 -20.3125,32.8125 -9.375,28.125 10.9375,-4.6875 117.1875,-3.125 132.8125,-1.5625 15.625,1.5625 121.875,3.125 121.875,3.125 l 26.5625,-6.25 3.125,-28.125 c 0,0 14.0625,-40.625 7.8125,-42.1875 -6.25,-1.5625 -10.9375,-21.875 -18.75,-23.4375 -7.8125,-1.5625 -100,-18.75 -100,-18.75 z"
       id="path3224"
       inkscape:connector-curvature="0" />
    <path
       style="fill:#b49033;fill-opacity:1;stroke:#000000;stroke-width:1px;stroke-linecap:butt;stroke-linejoin:miter;stroke-opacity:1"
       d="m 1782.8125,2428.125 35.9375,31.25 c 0,0 6.25,-73.4375 4.6875,-95.3125 -1.5625,-21.875 -1.5625,-278.125 -1.5625,-278.125 l -35.9375,6.25 -29.6875,-1.5625 c 0,0 0,-6.25 -3.125,23.4375 C 1750,2143.75 1781.25,2387.5 1781.25,2387.5 z"
       id="path3248"
       inkscape:connector-curvature="0" />
    <path
       style="fill:#b49033;fill-opacity:1;stroke:#000000;stroke-width:1px;stroke-linecap:butt;stroke-linejoin:miter;stroke-opacity:1"
       d="m 1823.4375,2464.0625 45.3125,43.75 c 0,0 18.75,1.5625 20.3125,-17.1875 1.5625,-18.75 1.5625,-334.375 3.125,-342.1875 1.5625,-7.8125 -4.6875,-76.5625 -4.6875,-76.5625 l -43.75,4.6875 c 0,0 -21.875,-1.5625 -20.3125,7.8125 1.5625,9.375 1.5625,289.0625 1.5625,289.0625 z"
       id="path3250"
       inkscape:connector-curvature="0" />
    <path
       style="fill:#b49033;fill-opacity:1;stroke:#000000;stroke-width:1px;stroke-linecap:butt;stroke-linejoin:miter;stroke-opacity:1"
       d="m 1764.0625,2037.5 c 9.375,-6.25 95.3125,-48.4375 96.875,-54.6875 1.5625,-6.25 3.125,-45.3125 3.125,-45.3125 L 1768.75,1720.3125 c 0,0 -42.1875,10.9375 -42.1875,18.75 0,7.8125 21.875,184.375 21.875,184.375 z"
       id="path3252"
       inkscape:connector-curvature="0" />
  </g>
</svg>
