<?xml version="1.0" encoding="UTF-8" standalone="no"?>
<!-- Created with Inkscape (http://www.inkscape.org/) -->
<svg
   xmlns:dc="http://purl.org/dc/elements/1.1/"
   xmlns:cc="http://web.resource.org/cc/"
   xmlns:rdf="http://www.w3.org/1999/02/22-rdf-syntax-ns#"
   xmlns:svg="http://www.w3.org/2000/svg"
   xmlns="http://www.w3.org/2000/svg"
   xmlns:xlink="http://www.w3.org/1999/xlink"
   xmlns:sodipodi="http://sodipodi.sourceforge.net/DTD/sodipodi-0.dtd"
   xmlns:inkscape="http://www.inkscape.org/namespaces/inkscape"
   version="1.0"
   width="30"
   height="30"
   id="svg4228"
   sodipodi:version="0.32"
   inkscape:version="0.45.1"
   sodipodi:docname="Glue.svg"
   sodipodi:docbase="/home/ian/Vector stuff/FreeDroid"
   inkscape:output_extension="org.inkscape.output.svg.inkscape"
   inkscape:export-filename="/home/ian/Vector stuff/FreeDroid/thing.png"
   inkscape:export-xdpi="90"
   inkscape:export-ydpi="90">
  <metadata
     id="metadata32">
    <rdf:RDF>
      <cc:Work
         rdf:about="">
        <dc:format>image/svg+xml</dc:format>
        <dc:type
           rdf:resource="http://purl.org/dc/dcmitype/StillImage" />
      </cc:Work>
    </rdf:RDF>
  </metadata>
  <sodipodi:namedview
     inkscape:window-height="580"
     inkscape:window-width="794"
     inkscape:pageshadow="2"
     inkscape:pageopacity="0.0"
     guidetolerance="10.0"
     gridtolerance="10.0"
     objecttolerance="10.0"
     borderopacity="1.0"
     bordercolor="#666666"
     pagecolor="#ffffff"
     id="base"
     showguides="true"
     inkscape:guide-bbox="true"
     inkscape:zoom="5.12"
     inkscape:cx="-19.473342"
     inkscape:cy="35.554331"
     inkscape:window-x="90"
     inkscape:window-y="282"
     inkscape:current-layer="svg4228" />
  <defs
     id="defs4230">
    <linearGradient
       id="linearGradient7228">
      <stop
         style="stop-color:#000000;stop-opacity:1;"
         offset="0"
         id="stop7230" />
      <stop
         id="stop7232"
         offset="0.5"
         style="stop-color:#fffdff;stop-opacity:0.08547009;" />
      <stop
         style="stop-color:#ffffc3;stop-opacity:0;"
         offset="0.75"
         id="stop7234" />
      <stop
         id="stop7236"
         offset="0.875"
         style="stop-color:#ffffc3;stop-opacity:0;" />
      <stop
         style="stop-color:#ffffc3;stop-opacity:0;"
         offset="1"
         id="stop7238" />
    </linearGradient>
    <linearGradient
       id="linearGradient4291">
      <stop
         id="stop4293"
         offset="0"
         style="stop-color:#000000;stop-opacity:1;" />
      <stop
         style="stop-color:#fffdff;stop-opacity:0.08547009;"
         offset="0.5"
         id="stop4295" />
      <stop
         id="stop4297"
         offset="0.75"
         style="stop-color:#ffffc3;stop-opacity:0;" />
      <stop
         style="stop-color:#ffffc3;stop-opacity:0;"
         offset="0.875"
         id="stop4299" />
      <stop
         id="stop4301"
         offset="1"
         style="stop-color:#ffffc3;stop-opacity:0;" />
    </linearGradient>
    <linearGradient
       id="linearGradient54487">
      <stop
         style="stop-color:#ffffff;stop-opacity:0.64957267;"
         offset="0"
         id="stop54489" />
      <stop
         id="stop54495"
         offset="0.5"
         style="stop-color:#c4fdff;stop-opacity:0;" />
      <stop
         style="stop-color:#ffffc3;stop-opacity:0;"
         offset="0.75"
         id="stop54497" />
      <stop
         id="stop54499"
         offset="0.875"
         style="stop-color:#ffffc3;stop-opacity:0;" />
      <stop
         style="stop-color:#ffffc3;stop-opacity:0;"
         offset="1"
         id="stop54491" />
    </linearGradient>
    <linearGradient
       id="linearGradient36692">
      <stop
         id="stop36694"
         offset="0"
         style="stop-color:#000000;stop-opacity:0;" />
      <stop
         id="stop36700"
         offset="1"
         style="stop-color:#323232;stop-opacity:0.95689654;" />
    </linearGradient>
    <linearGradient
       id="linearGradient35713">
      <stop
         style="stop-color:#ffffff;stop-opacity:0.28448275;"
         offset="0"
         id="stop35715" />
      <stop
         id="stop35717"
         offset="0.5"
         style="stop-color:#ffffff;stop-opacity:0;" />
      <stop
         style="stop-color:#aeaeae;stop-opacity:0;"
         offset="0.75"
         id="stop35719" />
      <stop
         style="stop-color:#d6ffff;stop-opacity:1;"
         offset="1"
         id="stop35721" />
    </linearGradient>
    <linearGradient
       id="linearGradient20167">
      <stop
         style="stop-color:#000000;stop-opacity:0;"
         offset="0"
         id="stop20169" />
      <stop
         id="stop20171"
         offset="0.5"
         style="stop-color:#fff7ff;stop-opacity:0;" />
      <stop
         style="stop-color:#c5efff;stop-opacity:1;"
         offset="1"
         id="stop20173" />
    </linearGradient>
    <linearGradient
       id="linearGradient14338">
      <stop
         id="stop14340"
         offset="0"
         style="stop-color:#ffffff;stop-opacity:0;" />
      <stop
         style="stop-color:#ffffff;stop-opacity:0;"
         offset="0.5"
         id="stop14344" />
      <stop
         id="stop14346"
         offset="0.75"
         style="stop-color:#000000;stop-opacity:0;" />
      <stop
         id="stop14342"
         offset="1"
         style="stop-color:#323632;stop-opacity:1;" />
    </linearGradient>
    <linearGradient
       id="linearGradient12924">
      <stop
         style="stop-color:#f0f0f0;stop-opacity:0.63247865;"
         offset="0"
         id="stop12926" />
      <stop
         id="stop12928"
         offset="0.5"
         style="stop-color:#ffffff;stop-opacity:0;" />
      <stop
         style="stop-color:#ffffff;stop-opacity:0;"
         offset="1"
         id="stop12930" />
    </linearGradient>
    <linearGradient
       id="linearGradient10978">
      <stop
         style="stop-color:#004e83;stop-opacity:0.31623933;"
         offset="0"
         id="stop10980" />
      <stop
         style="stop-color:#2b646d;stop-opacity:0.75213677;"
         offset="1"
         id="stop10982" />
    </linearGradient>
    <linearGradient
       id="linearGradient8063">
      <stop
         style="stop-color:#f0f0f0;stop-opacity:0;"
         offset="0"
         id="stop8065" />
      <stop
         id="stop8067"
         offset="0.5"
         style="stop-color:#646464;stop-opacity:0;" />
      <stop
         style="stop-color:#e6e6e6;stop-opacity:1;"
         offset="1"
         id="stop8069" />
    </linearGradient>
    <linearGradient
       id="linearGradient6091">
      <stop
         id="stop6093"
         offset="0"
         style="stop-color:#000000;stop-opacity:0;" />
      <stop
         style="stop-color:#00b9ff;stop-opacity:0;"
         offset="0.5"
         id="stop7068" />
      <stop
         id="stop6095"
         offset="1"
         style="stop-color:#6687ac;stop-opacity:1;" />
    </linearGradient>
    <linearGradient
       id="linearGradient4139">
      <stop
         style="stop-color:#f0f0f0;stop-opacity:0.32478634;"
         offset="0"
         id="stop4141" />
      <stop
         style="stop-color:#e6e6e6;stop-opacity:1;"
         offset="1"
         id="stop4143" />
    </linearGradient>
    <linearGradient
       id="linearGradient5165">
      <stop
         style="stop-color:#ffff00;stop-opacity:1"
         offset="0"
         id="stop5167" />
      <stop
         style="stop-color:#ffb900;stop-opacity:1"
         offset="1"
         id="stop5169" />
    </linearGradient>
    <linearGradient
       id="linearGradient4177">
      <stop
         style="stop-color:#ffff80;stop-opacity:1"
         offset="0"
         id="stop4179" />
      <stop
         style="stop-color:#00ffff;stop-opacity:1"
         offset="1"
         id="stop4181" />
    </linearGradient>
    <linearGradient
       id="linearGradient4212">
      <stop
         style="stop-color:#ffff00;stop-opacity:1"
         offset="0"
         id="stop4214" />
      <stop
         style="stop-color:#ffff00;stop-opacity:1"
         offset="0.5"
         id="stop4220" />
      <stop
         style="stop-color:#ffffff;stop-opacity:0"
         offset="1"
         id="stop4216" />
    </linearGradient>
    <linearGradient
       id="linearGradient3155">
      <stop
         style="stop-color:#ffffff;stop-opacity:1"
         offset="0"
         id="stop3157" />
      <stop
         style="stop-color:#ffffff;stop-opacity:0"
         offset="1"
         id="stop3159" />
    </linearGradient>
    <radialGradient
       cx="15"
       cy="15"
       r="16"
       fx="15"
       fy="15"
       id="radialGradient4185"
       xlink:href="#linearGradient4177"
       gradientUnits="userSpaceOnUse" />
    <radialGradient
       cx="15.028969"
       cy="15.097325"
       r="6.051754"
       fx="15.028969"
       fy="15.097325"
       id="radialGradient5171"
       xlink:href="#linearGradient5165"
       gradientUnits="userSpaceOnUse"
       gradientTransform="matrix(1,0,0,0.9895656,0,0.157532)" />
    <radialGradient
       cx="15"
       cy="15"
       r="16"
       fx="15"
       fy="15"
       id="radialGradient5195"
       xlink:href="#linearGradient4177"
       gradientUnits="userSpaceOnUse" />
    <radialGradient
       cx="15.028969"
       cy="15.097325"
       r="6.051754"
       fx="15.028969"
       fy="15.097325"
       id="radialGradient5197"
       xlink:href="#linearGradient5165"
       gradientUnits="userSpaceOnUse"
       gradientTransform="matrix(1,0,0,0.9895656,0,0.157532)" />
    <radialGradient
       cx="15"
       cy="15"
       r="16"
       fx="15"
       fy="15"
       id="radialGradient5201"
       xlink:href="#linearGradient4177"
       gradientUnits="userSpaceOnUse" />
    <radialGradient
       cx="15"
       cy="15"
       r="16"
       fx="15"
       fy="15"
       id="radialGradient5207"
       xlink:href="#linearGradient4177"
       gradientUnits="userSpaceOnUse" />
    <radialGradient
       cx="15.028969"
       cy="15.097325"
       r="6.051754"
       fx="15.028969"
       fy="15.097325"
       id="radialGradient5209"
       xlink:href="#linearGradient5165"
       gradientUnits="userSpaceOnUse"
       gradientTransform="matrix(1,0,0,0.9895656,0,0.157532)" />
    <radialGradient
       cx="15"
       cy="15"
       r="16"
       fx="15"
       fy="15"
       id="radialGradient5213"
       xlink:href="#linearGradient4177"
       gradientUnits="userSpaceOnUse" />
    <radialGradient
       inkscape:collect="always"
       xlink:href="#linearGradient12924"
       id="radialGradient14332"
       gradientUnits="userSpaceOnUse"
       gradientTransform="matrix(1.518724,1.408519,-1.4502012,1.6006237,-5.1837474,-89.174314)"
       cx="23.082907"
       cy="20.024515"
       fx="23.082907"
       fy="20.024515"
       r="14.010153" />
    <radialGradient
       inkscape:collect="always"
       xlink:href="#linearGradient14338"
       id="radialGradient22126"
       gradientUnits="userSpaceOnUse"
       gradientTransform="matrix(1.2106494,3.8998741e-8,-4.3792597e-8,1.394612,4.0823089,6.3732263)"
       cx="-16.657145"
       cy="-16.075825"
       fx="-16.657145"
       fy="-16.075825"
       r="14.051131" />
    <radialGradient
       inkscape:collect="always"
       xlink:href="#linearGradient36692"
       id="radialGradient34742"
       gradientUnits="userSpaceOnUse"
       gradientTransform="matrix(1.2106494,3.8998741e-8,-4.3792597e-8,1.394612,33.249622,36.187002)"
       cx="-17.173395"
       cy="-16.166603"
       fx="-17.173395"
       fy="-16.166603"
       r="14.051131" />
    <radialGradient
       inkscape:collect="always"
       xlink:href="#linearGradient14338"
       id="radialGradient44547"
       gradientUnits="userSpaceOnUse"
       gradientTransform="matrix(1.2106494,3.8998741e-8,-4.3792597e-8,1.394612,33.249622,36.187002)"
       cx="-16.657145"
       cy="-16.075825"
       fx="-16.657145"
       fy="-16.075825"
       r="14.051131" />
    <linearGradient
       inkscape:collect="always"
       xlink:href="#linearGradient54487"
       id="linearGradient54493"
       x1="0.13810679"
       y1="14.808252"
       x2="15.05364"
       y2="14.808252"
       gradientUnits="userSpaceOnUse"
       spreadMethod="reflect"
       gradientTransform="matrix(1.0128213,0,0,1,-0.3860158,0)" />
    <linearGradient
       inkscape:collect="always"
       xlink:href="#linearGradient54487"
       id="linearGradient54503"
       gradientUnits="userSpaceOnUse"
       spreadMethod="reflect"
       x1="0.13810679"
       y1="14.808252"
       x2="15.05364"
       y2="14.808252"
       gradientTransform="matrix(1,0,0,1.0128213,-0.2453883,-29.858745)" />
    <radialGradient
       inkscape:collect="always"
       xlink:href="#linearGradient36692"
       id="radialGradient54517"
       gradientUnits="userSpaceOnUse"
       gradientTransform="matrix(1.2106494,3.8998741e-8,-4.3792597e-8,1.394612,33.249622,36.187002)"
       cx="-17.173395"
       cy="-16.166603"
       fx="-17.173395"
       fy="-16.166603"
       r="14.051131" />
    <radialGradient
       inkscape:collect="always"
       xlink:href="#linearGradient14338"
       id="radialGradient54519"
       gradientUnits="userSpaceOnUse"
       gradientTransform="matrix(1.2106494,3.8998741e-8,-4.3792597e-8,1.394612,4.0823089,6.3732263)"
       cx="-16.657145"
       cy="-16.075825"
       fx="-16.657145"
       fy="-16.075825"
       r="14.051131" />
    <radialGradient
       inkscape:collect="always"
       xlink:href="#linearGradient14338"
       id="radialGradient54521"
       gradientUnits="userSpaceOnUse"
       gradientTransform="matrix(1.2106494,3.8998741e-8,-4.3792597e-8,1.394612,33.249622,36.187002)"
       cx="-16.657145"
       cy="-16.075825"
       fx="-16.657145"
       fy="-16.075825"
       r="14.051131" />
    <linearGradient
       inkscape:collect="always"
       xlink:href="#linearGradient54487"
       id="linearGradient54523"
       gradientUnits="userSpaceOnUse"
       gradientTransform="matrix(1.0128213,0,0,1,-0.3860158,0)"
       spreadMethod="reflect"
       x1="0.13810679"
       y1="14.808252"
       x2="15.05364"
       y2="14.808252" />
    <linearGradient
       inkscape:collect="always"
       xlink:href="#linearGradient54487"
       id="linearGradient54525"
       gradientUnits="userSpaceOnUse"
       gradientTransform="matrix(1,0,0,1.0128213,-0.2453883,-29.858745)"
       spreadMethod="reflect"
       x1="0.13810679"
       y1="14.808252"
       x2="15.05364"
       y2="14.808252" />
    <linearGradient
       inkscape:collect="always"
       xlink:href="#linearGradient54487"
       id="linearGradient54528"
       gradientUnits="userSpaceOnUse"
       gradientTransform="matrix(1,0,0,1.0128213,-0.2453883,-29.858745)"
       spreadMethod="reflect"
       x1="0.13810679"
       y1="14.808252"
       x2="15.05364"
       y2="14.808252" />
    <linearGradient
       inkscape:collect="always"
       xlink:href="#linearGradient54487"
       id="linearGradient54531"
       gradientUnits="userSpaceOnUse"
       gradientTransform="matrix(1.0128213,0,0,1,-0.3860158,9.7656251e-2)"
       spreadMethod="reflect"
       x1="0.13810679"
       y1="14.808252"
       x2="15.05364"
       y2="14.808252" />
    <radialGradient
       inkscape:collect="always"
       xlink:href="#linearGradient14338"
       id="radialGradient54534"
       gradientUnits="userSpaceOnUse"
       gradientTransform="matrix(1.2106494,3.8998741e-8,-4.3792597e-8,1.394612,33.249622,36.187002)"
       cx="-16.657145"
       cy="-16.075825"
       fx="-16.657145"
       fy="-16.075825"
       r="14.051131" />
    <radialGradient
       inkscape:collect="always"
       xlink:href="#linearGradient14338"
       id="radialGradient54537"
       gradientUnits="userSpaceOnUse"
       gradientTransform="matrix(1.2106494,3.8998741e-8,-4.3792597e-8,1.394612,4.0823089,6.3732263)"
       cx="-16.657145"
       cy="-16.075825"
       fx="-16.657145"
       fy="-16.075825"
       r="14.051131" />
    <radialGradient
       inkscape:collect="always"
       xlink:href="#linearGradient36692"
       id="radialGradient54542"
       gradientUnits="userSpaceOnUse"
       gradientTransform="matrix(1.2106494,3.8998741e-8,-4.3792597e-8,1.394612,33.249622,36.187002)"
       cx="-17.173395"
       cy="-16.166603"
       fx="-17.173395"
       fy="-16.166603"
       r="14.051131" />
    <radialGradient
       inkscape:collect="always"
       xlink:href="#linearGradient36692"
       id="radialGradient54558"
       gradientUnits="userSpaceOnUse"
       gradientTransform="matrix(1.2106494,3.8998741e-8,-4.3792597e-8,1.394612,33.249622,36.187002)"
       cx="-17.173395"
       cy="-16.166603"
       fx="-17.173395"
       fy="-16.166603"
       r="14.051131" />
    <radialGradient
       inkscape:collect="always"
       xlink:href="#linearGradient14338"
       id="radialGradient54560"
       gradientUnits="userSpaceOnUse"
       gradientTransform="matrix(1.2106494,3.8998741e-8,-4.3792597e-8,1.394612,33.249622,36.187002)"
       cx="-16.657145"
       cy="-16.075825"
       fx="-16.657145"
       fy="-16.075825"
       r="14.051131" />
    <radialGradient
       inkscape:collect="always"
       xlink:href="#linearGradient14338"
       id="radialGradient54562"
       gradientUnits="userSpaceOnUse"
       gradientTransform="matrix(1.2106494,3.8998741e-8,-4.3792597e-8,1.394612,4.0823089,6.3732263)"
       cx="-16.657145"
       cy="-16.075825"
       fx="-16.657145"
       fy="-16.075825"
       r="14.051131" />
    <linearGradient
       inkscape:collect="always"
       xlink:href="#linearGradient54487"
       id="linearGradient54564"
       gradientUnits="userSpaceOnUse"
       gradientTransform="matrix(1,0,0,1.0128213,-0.2453883,-29.858745)"
       spreadMethod="reflect"
       x1="0.13810679"
       y1="14.808252"
       x2="15.05364"
       y2="14.808252" />
    <linearGradient
       inkscape:collect="always"
       xlink:href="#linearGradient54487"
       id="linearGradient54566"
       gradientUnits="userSpaceOnUse"
       gradientTransform="matrix(1.0128213,0,0,1,-0.3860158,9.7656251e-2)"
       spreadMethod="reflect"
       x1="0.13810679"
       y1="14.808252"
       x2="15.05364"
       y2="14.808252" />
    <linearGradient
       inkscape:collect="always"
       xlink:href="#linearGradient4291"
       id="linearGradient5273"
       gradientUnits="userSpaceOnUse"
       gradientTransform="matrix(1.005663,0,0,0.9964367,-30.13889,-29.755481)"
       spreadMethod="reflect"
       x1="0.13810679"
       y1="14.808252"
       x2="15.05364"
       y2="14.808252" />
    <radialGradient
       inkscape:collect="always"
       xlink:href="#linearGradient36692"
       id="radialGradient5280"
       gradientUnits="userSpaceOnUse"
       gradientTransform="matrix(1.2106494,3.8998741e-8,-4.3792597e-8,1.394612,33.640247,36.284658)"
       cx="-17.173395"
       cy="-16.166603"
       fx="-17.173395"
       fy="-16.166603"
       r="14.051131" />
    <radialGradient
       inkscape:collect="always"
       xlink:href="#linearGradient14338"
       id="radialGradient5282"
       gradientUnits="userSpaceOnUse"
       gradientTransform="matrix(1.2106494,3.8998741e-8,-4.3792597e-8,1.394612,33.640247,36.284658)"
       cx="-16.657145"
       cy="-16.075825"
       fx="-16.657145"
       fy="-16.075825"
       r="14.051131" />
    <radialGradient
       inkscape:collect="always"
       xlink:href="#linearGradient14338"
       id="radialGradient5284"
       gradientUnits="userSpaceOnUse"
       gradientTransform="matrix(1.2106494,3.8998741e-8,-4.3792597e-8,1.394612,3.691684,6.27557)"
       cx="-16.657145"
       cy="-16.075825"
       fx="-16.657145"
       fy="-16.075825"
       r="14.051131" />
    <linearGradient
       inkscape:collect="always"
       xlink:href="#linearGradient7228"
       id="linearGradient6257"
       gradientUnits="userSpaceOnUse"
       gradientTransform="matrix(1.005663,0,0,0.9964367,-0.13889,-29.755481)"
       spreadMethod="reflect"
       x1="0.13810679"
       y1="14.808252"
       x2="15.053641"
       y2="14.808252" />
    <radialGradient
       inkscape:collect="always"
       xlink:href="#linearGradient36692"
       id="radialGradient8246"
       gradientUnits="userSpaceOnUse"
       gradientTransform="matrix(1.2106494,3.8998741e-8,-4.3792597e-8,1.394612,33.640247,36.284658)"
       cx="-17.173395"
       cy="-16.166603"
       fx="-17.173395"
       fy="-16.166603"
       r="14.051131" />
    <radialGradient
       inkscape:collect="always"
       xlink:href="#linearGradient14338"
       id="radialGradient8248"
       gradientUnits="userSpaceOnUse"
       gradientTransform="matrix(1.2106494,3.8998741e-8,-4.3792597e-8,1.394612,33.640247,36.284658)"
       cx="-16.657145"
       cy="-16.075825"
       fx="-16.657145"
       fy="-16.075825"
       r="14.051131" />
    <radialGradient
       inkscape:collect="always"
       xlink:href="#linearGradient14338"
       id="radialGradient8250"
       gradientUnits="userSpaceOnUse"
       gradientTransform="matrix(1.2106494,3.8998741e-8,-4.3792597e-8,1.394612,3.691684,6.27557)"
       cx="-16.657145"
       cy="-16.075825"
       fx="-16.657145"
       fy="-16.075825"
       r="14.051131" />
    <linearGradient
       inkscape:collect="always"
       xlink:href="#linearGradient4291"
       id="linearGradient8252"
       gradientUnits="userSpaceOnUse"
       gradientTransform="matrix(1.005663,0,0,0.9964367,-30.13889,-29.755481)"
       spreadMethod="reflect"
       x1="0.13810679"
       y1="14.808252"
       x2="15.05364"
       y2="14.808252" />
    <linearGradient
       inkscape:collect="always"
       xlink:href="#linearGradient7228"
       id="linearGradient8254"
       gradientUnits="userSpaceOnUse"
       gradientTransform="matrix(1.005663,0,0,0.9964367,-0.13889,-29.755481)"
       spreadMethod="reflect"
       x1="0.13810679"
       y1="14.808252"
       x2="15.053641"
       y2="14.808252" />
    <radialGradient
       inkscape:collect="always"
       xlink:href="#linearGradient36692"
       id="radialGradient8256"
       gradientUnits="userSpaceOnUse"
       gradientTransform="matrix(1.2106494,3.8998741e-8,-4.3792597e-8,1.394612,33.640247,36.284658)"
       cx="-17.173395"
       cy="-16.166603"
       fx="-17.173395"
       fy="-16.166603"
       r="14.051131" />
    <radialGradient
       inkscape:collect="always"
       xlink:href="#linearGradient14338"
       id="radialGradient8258"
       gradientUnits="userSpaceOnUse"
       gradientTransform="matrix(1.2106494,3.8998741e-8,-4.3792597e-8,1.394612,33.640247,36.284658)"
       cx="-16.657145"
       cy="-16.075825"
       fx="-16.657145"
       fy="-16.075825"
       r="14.051131" />
    <radialGradient
       inkscape:collect="always"
       xlink:href="#linearGradient14338"
       id="radialGradient8260"
       gradientUnits="userSpaceOnUse"
       gradientTransform="matrix(1.2106494,3.8998741e-8,-4.3792597e-8,1.394612,3.691684,6.27557)"
       cx="-16.657145"
       cy="-16.075825"
       fx="-16.657145"
       fy="-16.075825"
       r="14.051131" />
    <radialGradient
       inkscape:collect="always"
       xlink:href="#linearGradient36692"
       id="radialGradient8290"
       gradientUnits="userSpaceOnUse"
       gradientTransform="matrix(1.2106494,3.8998741e-8,-4.3792597e-8,1.394612,33.640247,36.284658)"
       cx="-17.173395"
       cy="-16.166603"
       fx="-17.173395"
       fy="-16.166603"
       r="14.051131" />
    <radialGradient
       inkscape:collect="always"
       xlink:href="#linearGradient14338"
       id="radialGradient8292"
       gradientUnits="userSpaceOnUse"
       gradientTransform="matrix(1.2106494,3.8998741e-8,-4.3792597e-8,1.394612,33.640247,36.284658)"
       cx="-16.657145"
       cy="-16.075825"
       fx="-16.657145"
       fy="-16.075825"
       r="14.051131" />
    <radialGradient
       inkscape:collect="always"
       xlink:href="#linearGradient14338"
       id="radialGradient8294"
       gradientUnits="userSpaceOnUse"
       gradientTransform="matrix(1.2106494,3.8998741e-8,-4.3792597e-8,1.394612,3.691684,6.27557)"
       cx="-16.657145"
       cy="-16.075825"
       fx="-16.657145"
       fy="-16.075825"
       r="14.051131" />
    <linearGradient
       inkscape:collect="always"
       xlink:href="#linearGradient4291"
       id="linearGradient8296"
       gradientUnits="userSpaceOnUse"
       gradientTransform="matrix(1.005663,0,0,0.9964367,-30.13889,-29.755481)"
       spreadMethod="reflect"
       x1="0.13810679"
       y1="14.808252"
       x2="15.05364"
       y2="14.808252" />
    <linearGradient
       inkscape:collect="always"
       xlink:href="#linearGradient7228"
       id="linearGradient8298"
       gradientUnits="userSpaceOnUse"
       gradientTransform="matrix(1.005663,0,0,0.9964367,-0.13889,-29.755481)"
       spreadMethod="reflect"
       x1="0.13810679"
       y1="14.808252"
       x2="15.053641"
       y2="14.808252" />
    <linearGradient
       inkscape:collect="always"
       xlink:href="#linearGradient7228"
       id="linearGradient3275"
       gradientUnits="userSpaceOnUse"
       gradientTransform="matrix(1.0026167,0,0,0.9918556,-0.1384693,-29.61868)"
       spreadMethod="reflect"
       x1="0.13810679"
       y1="14.808252"
       x2="15.053641"
       y2="14.808252" />
    <linearGradient
       inkscape:collect="always"
       xlink:href="#linearGradient4291"
       id="linearGradient3278"
       gradientUnits="userSpaceOnUse"
       gradientTransform="matrix(1.0010395,0,0,0.9934184,-30.000326,-29.665349)"
       spreadMethod="reflect"
       x1="0.13810679"
       y1="14.808252"
       x2="15.05364"
       y2="14.808252" />
  </defs>
  <rect
     style="opacity:1;fill:#ffff00;fill-opacity:1;fill-rule:nonzero;stroke:#5a0000;stroke-width:0;stroke-linecap:round;stroke-linejoin:bevel;stroke-miterlimit:4;stroke-dasharray:none;stroke-dashoffset:0;stroke-opacity:0"
     id="rect3168"
     width="0.30456853"
     height="0"
     x="27.639593"
     y="2.4365482"
     ry="0" />
  <path
     id="path50607"
     d="M 0.031034304,30 L 0.031034304,29.842941 C 4.661528,29.834406 8.3748448,29.764149 8.3748448,29.654471 C 8.3748448,29.544793 4.661528,29.443126 0.031034304,29.434589 L 0.031034304,27.864005 C 1.5291461,27.890013 3.195092,27.926828 5.218572,27.926828 C 7.7052029,27.926828 9.9397738,27.901644 11.562368,27.864005 C 13.182914,27.823455 14.187386,27.764628 14.187386,27.706946 C 14.187386,27.591586 10.191834,27.487065 5.218572,27.487065 C 3.195092,27.487065 1.5291461,27.52388 0.031034304,27.549887 L 0.031034304,26.670361 C 0.16428127,26.670496 0.24005678,26.670361 0.3747867,26.670361 C 5.348049,26.670361 9.3436023,26.565839 9.3436023,26.450478 C 9.3436023,26.335118 5.348049,26.230597 0.3747867,26.230597 C 0.24005678,26.230597 0.16428127,26.230461 0.031034304,26.230597 L 0.031034304,23.937543 C 1.6487229,23.991714 4.2128637,24.031779 7.2810868,24.031779 C 12.254349,24.031779 16.249902,23.927257 16.249902,23.811896 C 16.249902,23.696536 12.254349,23.623427 7.2810868,23.623427 C 4.2132957,23.623427 1.6487998,23.632093 0.031034304,23.686249 L 0.031034304,22.900958 C 4.3535188,22.885823 7.8435909,22.817105 7.8435909,22.712487 C 7.8435909,22.60787 4.3535188,22.507739 0.031034304,22.492606 L 0.031034304,21.927195 C 0.11577188,21.927249 0.16446225,21.927195 0.24978591,21.927195 C 5.223048,21.927195 9.2186011,21.854086 9.2186011,21.738725 C 9.2186011,21.623364 5.223048,21.518843 0.24978591,21.518843 C 0.16446926,21.518843 0.11576586,21.518788 0.031034304,21.518843 L 0.031034304,20.764962 C 0.20595556,20.876697 4.0761898,20.984845 8.9373488,20.984845 C 13.910611,20.984845 17.906164,20.880323 17.906164,20.764962 C 17.906164,20.649602 13.910611,20.545081 8.9373488,20.545081 C 4.0750528,20.545081 0.20423757,20.653191 0.031034304,20.764962 L 0.031034304,19.854024 C 0.3175913,19.854658 0.48708254,19.854024 0.78103965,19.854024 C 5.7543018,19.854024 9.7811051,19.780914 9.7811051,19.665553 C 9.7811051,19.550193 5.7543018,19.445672 0.78103965,19.445672 C 0.48708254,19.445672 0.3175913,19.445038 0.031034304,19.445672 L 0.031034304,18.723202 C 1.1596434,18.735021 2.08313,18.754614 3.4060585,18.754614 C 8.3793208,18.754614 12.406123,18.650093 12.406123,18.534732 C 12.406123,18.419372 8.3793208,18.346262 3.4060585,18.346262 C 2.08313,18.346262 1.1596434,18.365855 0.031034304,18.377674 L 0.031034304,16.932736 C 4.4369093,16.919294 7.9685918,16.85025 7.9685918,16.744266 C 7.9685918,16.63828 4.4369093,16.537826 0.031034304,16.524384 L 0.031034304,14.733918 C 0.47491841,14.735472 0.75539142,14.733918 1.2185427,14.733918 C 6.191805,14.733918 10.187358,14.629397 10.187358,14.514036 C 10.187358,14.398675 6.191805,14.294154 1.2185427,14.294154 C 0.75539142,14.294154 0.47491841,14.2926 0.031034304,14.294154 L 0.031034304,13.540273 C 1.6497349,13.577259 3.8501947,13.603097 6.3123299,13.603097 C 11.285592,13.603097 15.281144,13.529988 15.281144,13.414626 C 15.281144,13.299267 11.285592,13.194745 6.3123299,13.194745 C 3.8501947,13.194745 1.6497349,13.220583 0.031034304,13.257568 L 0.031034304,11.749807 C 1.6697891,11.791256 3.966723,11.812631 6.593582,11.812631 C 11.566844,11.812631 15.562396,11.708109 15.562396,11.592748 C 15.562396,11.477389 11.566844,11.404279 6.593582,11.404279 C 3.966723,11.404279 1.6697891,11.425653 0.031034304,11.467102 L 0.031034304,10.399104 C 3.0703311,10.365812 5.499824,10.294045 5.499824,10.210634 C 5.499824,10.127225 3.0703311,10.055458 0.031034304,10.022165 L 0.031034304,8.8599327 C 1.2969922,8.8757179 2.4251655,8.8913443 3.968563,8.8913443 C 8.9418249,8.8913443 12.937377,8.7868234 12.937377,8.6714625 C 12.937377,8.5561027 8.9418249,8.4829924 3.968563,8.4829924 C 2.4251655,8.4829924 1.2969922,8.4986188 0.031034304,8.514404 L 0.031034304,7.8861703 C 1.2305589,7.899911 2.2541472,7.9175819 3.6873105,7.9175819 C 8.6605729,7.9175819 12.656125,7.8130609 12.656125,7.6977001 C 12.656125,7.5823403 8.6605729,7.50923 3.6873105,7.50923 C 2.2541472,7.50923 1.2305589,7.5269009 0.031034304,7.5406417 L 0.031034304,4.7764122 C 1.5765084,4.8389441 4.3449078,4.8706473 7.6873398,4.8706473 C 12.660602,4.8706473 16.687405,4.7661262 16.687405,4.6507654 C 16.687407,4.5354057 12.660602,4.4622952 7.6873398,4.4622952 C 4.3449078,4.4622952 1.5765084,4.4939975 0.031034304,4.5565304 L 0.031034304,3.8654731 C 1.0496965,3.8747409 1.8361032,3.8968848 2.9998057,3.8968848 C 7.9730679,3.8968848 11.968621,3.7923638 11.968621,3.677003 C 11.968621,3.5616432 7.9730679,3.4885329 2.9998057,3.4885329 C 1.8361032,3.4885329 1.0496965,3.5106768 0.031034304,3.5199445 L 0.031034304,1.8865366 C 1.6497349,1.923522 3.8501947,1.94936 6.3123299,1.94936 C 11.285592,1.94936 15.281144,1.844839 15.281144,1.7294781 C 15.281144,1.6141183 11.285592,1.541008 6.3123299,1.541008 C 3.8501947,1.541008 1.6497349,1.566846 0.031034304,1.6038314 L 0.031034304,1.1012442 C 1.263625,1.1159701 2.3564819,1.132656 3.8435617,1.132656 C 8.8168239,1.132656 12.812377,1.0281349 12.812377,0.91277411 C 12.812377,0.79741429 8.8168239,0.69289227 3.8435617,0.69289227 C 2.3564819,0.69289227 1.263625,0.70957817 0.031034304,0.72430396 L 0.031034304,0.0018350681 L 30.000001,0.0018350681 L 30.000001,0.78712735 C 28.424432,0.72749238 25.717214,0.69289227 22.468696,0.69289227 C 17.495435,0.69289227 13.499881,0.79741329 13.499881,0.91277411 C 13.499881,1.0281349 17.495435,1.132656 22.468696,1.132656 C 25.717214,1.132656 28.424432,1.0980558 30.000001,1.0384208 L 30.000001,1.4153612 C 28.734041,1.3995759 27.60587,1.3839495 26.062472,1.3839495 C 21.089211,1.3839495 17.093657,1.4884705 17.093657,1.6038314 C 17.093657,1.7191922 21.089211,1.8237133 26.062472,1.8237133 C 27.60587,1.8237133 28.734042,1.8080868 30.000001,1.7923015 L 30.000001,3.9282965 C 28.942557,3.8405951 25.627339,3.7712381 21.49994,3.7712381 C 16.526678,3.7712381 12.531125,3.8443474 12.531125,3.9597083 C 12.531125,4.075069 16.526678,4.1795901 21.49994,4.1795901 C 25.62583,4.1795901 28.941187,4.1101838 30.000001,4.0225316 L 30.000001,4.493707 C 29.062378,4.4860416 28.365949,4.4622952 27.312481,4.4622952 C 22.33922,4.4622952 18.343667,4.5354046 18.343667,4.6507654 C 18.343667,4.7661262 22.33922,4.8706473 27.312481,4.8706473 C 28.365949,4.8706473 29.062378,4.8469011 30.000001,4.8392356 L 30.000001,5.46747 C 27.399813,5.5038633 25.374967,5.5486619 25.374967,5.6245285 C 25.374967,5.700395 27.399813,5.7766043 30.000001,5.8129986 L 30.000001,7.8861703 C 29.604295,7.8701598 29.245925,7.8677122 28.687492,7.8547586 C 28.095772,7.8402509 27.604894,7.8325422 26.843728,7.8233468 C 25.459143,7.8031218 24.10756,7.7919352 22.343695,7.7919352 C 19.857063,7.7919352 17.597009,7.8220613 15.968649,7.8547586 C 15.157352,7.8735774 14.515444,7.8926526 14.062385,7.9175819 C 13.607165,7.9406587 13.343631,7.9515648 13.343631,7.9804053 C 13.343631,8.0380862 14.346055,8.0998261 15.968649,8.1374638 C 17.597009,8.1780145 19.857065,8.2002871 22.343695,8.2002871 C 24.014911,8.2002871 25.54064,8.1846175 26.843728,8.1688754 C 27.411078,8.1605878 28.215867,8.1484041 28.687492,8.1374638 C 29.108773,8.1271346 29.678639,8.119055 30.000001,8.1060521 L 30.000001,8.828521 C 28.356004,8.7824318 25.948237,8.7656976 23.156201,8.7656976 C 18.182939,8.7656976 14.187386,8.8388069 14.187386,8.9541678 C 14.187386,9.0695286 18.18294,9.1740496 23.156201,9.1740496 C 25.948236,9.1740496 28.356004,9.1573144 30.000001,9.1112262 L 30.000001,11.027339 C 28.50189,11.001331 26.835942,10.964515 24.812463,10.964515 C 19.839202,10.964515 15.843648,11.069036 15.843648,11.184396 C 15.843648,11.299757 19.839201,11.404279 24.812463,11.404279 C 26.835942,11.404279 28.501889,11.367463 30.000001,11.341455 L 30.000001,13.131921 C 28.480298,13.104522 26.769902,13.069098 24.687462,13.069098 C 19.714201,13.069098 15.718648,13.142208 15.718648,13.257568 C 15.718648,13.372929 19.714201,13.47745 24.687462,13.47745 C 26.769902,13.47745 28.480298,13.442027 30.000001,13.414626 L 30.000001,18.220616 C 28.734041,18.204831 27.60587,18.189204 26.062472,18.189204 C 21.089211,18.189204 17.093657,18.293725 17.093657,18.409085 C 17.093657,18.524446 21.089211,18.597556 26.062472,18.597556 C 27.60587,18.597556 28.734042,18.581929 30.000001,18.566144 L 30.000001,23.120839 C 28.430155,23.089548 26.522876,23.058016 24.28121,23.058016 C 19.307947,23.058016 15.281144,23.131125 15.281144,23.246486 C 15.281144,23.361847 19.307948,23.466368 24.28121,23.466368 C 26.522876,23.466368 28.430155,23.434837 30.000001,23.403544 L 30.000001,24.220248 C 28.521956,24.195428 26.940919,24.157425 24.968714,24.157425 C 19.995454,24.157425 15.968649,24.261947 15.968649,24.377307 C 15.968649,24.492668 19.995453,24.565777 24.968714,24.565777 C 26.940882,24.565777 28.521971,24.559187 30.000001,24.534365 L 30.000001,26.042126 C 28.356004,25.996038 25.948237,25.979303 23.156201,25.979303 C 18.18294,25.979303 14.187386,26.052413 14.187386,26.167773 C 14.187386,26.283134 18.18294,26.387655 23.156201,26.387655 C 25.948237,26.387655 28.356004,26.370921 30.000001,26.324832 L 30.000001,27.267182 C 28.50189,27.241174 26.835942,27.204359 24.812463,27.204359 C 19.839202,27.204359 15.843648,27.308881 15.843648,27.424241 C 15.843648,27.539602 19.839201,27.644123 24.812463,27.644123 C 26.835942,27.644123 28.501889,27.607308 30.000001,27.581299 L 30.000001,30 L 0.031034304,30 z M 17.906164,29.026238 C 22.879425,29.026238 26.906229,28.921716 26.906229,28.806355 C 26.906229,28.690995 22.879425,28.617886 17.906164,28.617886 C 12.932902,28.617886 8.9373488,28.690995 8.9373488,28.806355 C 8.9373488,28.921716 12.932902,29.026238 17.906164,29.026238 z M 12.124872,25.413893 C 17.098135,25.413893 21.093687,25.309372 21.093687,25.194011 C 21.093687,25.07865 17.098135,25.005541 12.124872,25.005541 C 7.1516099,25.005541 3.1248065,25.07865 3.1248065,25.194011 C 3.1248065,25.309372 7.1516099,25.413893 12.124872,25.413893 z M 18.593669,22.366959 C 23.566932,22.366959 27.593733,22.262438 27.593733,22.147077 C 27.593732,22.031716 23.566931,21.927195 18.593669,21.927195 C 13.620408,21.927195 9.6248543,22.031716 9.6248543,22.147077 C 9.6248543,22.262437 13.620407,22.366959 18.593669,22.366959 z M 19.718677,20.419434 C 24.691939,20.419434 28.687492,20.314913 28.687492,20.199552 C 28.687491,20.084191 24.691938,20.011082 19.718677,20.011082 C 14.745416,20.011082 10.749863,20.084191 10.749863,20.199552 C 10.749863,20.314912 14.745415,20.419434 19.718677,20.419434 z M 19.437424,19.320025 C 24.410687,19.320025 28.406239,19.215504 28.406239,19.100143 C 28.406239,18.984782 24.410687,18.880261 19.437424,18.880261 C 14.464163,18.880261 10.46861,18.984782 10.46861,19.100143 C 10.46861,19.215504 14.464163,19.320025 19.437424,19.320025 z M 10.999864,17.623793 C 15.973126,17.623793 19.999928,17.550684 19.999928,17.435323 C 19.999928,17.319963 15.973126,17.215441 10.999864,17.215441 C 6.0266019,17.215441 2.0310487,17.319963 2.0310487,17.435323 C 2.0310487,17.550684 6.0266019,17.623793 10.999864,17.623793 z M 18.593669,16.241679 C 23.566932,16.241679 27.593733,16.16857 27.593733,16.053208 C 27.593732,15.937848 23.566931,15.833327 18.593669,15.833327 C 13.620408,15.833327 9.6248543,15.937848 9.6248543,16.053208 C 9.6248543,16.16857 13.620407,16.241679 18.593669,16.241679 z M 18.343667,15.267917 C 23.316928,15.267917 27.312481,15.194807 27.312481,15.079446 C 27.312481,14.964086 23.316928,14.859565 18.343667,14.859565 C 13.370405,14.859565 9.3436023,14.964086 9.3436023,15.079446 C 9.3436023,15.194807 13.370405,15.267917 18.343667,15.267917 z M 19.031173,14.294154 C 24.004432,14.294154 27.999987,14.221045 27.999987,14.105684 C 27.999988,13.990323 24.004433,13.885802 19.031173,13.885802 C 14.057909,13.885802 10.031106,13.990323 10.031106,14.105684 C 10.031106,14.221045 14.05791,14.294154 19.031173,14.294154 z M 14.74989,12.378041 C 19.723153,12.378041 23.718706,12.27352 23.718706,12.158159 C 23.718706,12.0428 19.723153,11.938277 14.74989,11.938277 C 9.7766284,11.938277 5.7498259,12.042799 5.7498259,12.158159 C 5.7498259,12.27352 9.7766284,12.378041 14.74989,12.378041 z M 16.531153,10.273458 C 21.504417,10.273458 25.499968,10.200348 25.499968,10.084988 C 25.499967,9.9696289 21.504416,9.8651068 16.531153,9.8651068 C 11.557893,9.8651068 7.5623388,9.9696279 7.5623388,10.084988 C 7.5623388,10.200348 11.557892,10.273458 16.531153,10.273458 z M 16.531153,7.1008779 C 21.504417,7.1008779 25.499968,6.996357 25.499968,6.8809961 C 25.499967,6.7656363 21.504416,6.6611143 16.531153,6.6611143 C 11.557893,6.6611143 7.5623388,6.7656353 7.5623388,6.8809961 C 7.5623388,6.996357 11.557892,7.1008779 16.531153,7.1008779 z M 13.499881,5.8444103 C 18.473144,5.8444103 22.468696,5.7398893 22.468696,5.6245285 C 22.468695,5.5091686 18.473144,5.4360583 13.499881,5.4360583 C 8.5266198,5.4360583 4.531067,5.5091676 4.531067,5.6245285 C 4.531067,5.7398893 8.5266198,5.8444103 13.499881,5.8444103 z M 12.656125,3.0487691 C 17.629388,3.0487691 21.656191,2.9756598 21.656191,2.860299 C 21.656191,2.7449393 17.629388,2.6404172 12.656125,2.6404172 C 7.6828637,2.6404172 3.6873105,2.7449383 3.6873105,2.860299 C 3.6873105,2.9756598 7.6828637,3.0487691 12.656125,3.0487691 z "
     style="opacity:0.45698924;fill:#ffffc3;fill-opacity:0.8064516;fill-rule:nonzero;stroke:#5a0000;stroke-width:0;stroke-linecap:round;stroke-linejoin:bevel;stroke-miterlimit:4;stroke-dasharray:none;stroke-dashoffset:0;stroke-opacity:0" />
  <rect
     style="fill:#0094c0;fill-opacity:1;fill-rule:nonzero;stroke:#5a0000;stroke-width:0;stroke-linecap:round;stroke-linejoin:bevel;stroke-miterlimit:4;stroke-dasharray:none;stroke-dashoffset:0;stroke-opacity:0"
     id="rect2184"
     width="29.909126"
     height="29.862076"
     x="0"
     y="2.0417177e-15" />
  <path
     style="opacity:0.13978493;fill:#ffffff;fill-opacity:0.62365591;fill-rule:nonzero;stroke:#5a0000;stroke-width:0;stroke-linecap:round;stroke-linejoin:bevel;stroke-miterlimit:4;stroke-dasharray:none;stroke-dashoffset:0;stroke-opacity:0"
     d="M 0,-1.0958915e-15 L 0,0.15634584 C 4.6212474,0.16484315 8.3271509,0.23478016 8.3271509,0.34396097 C 8.3271509,0.45314146 4.6212474,0.55434747 0,0.56284568 L 0,2.1263056 C 1.495121,2.1004146 3.1577409,2.0637672 5.1771797,2.0637672 C 7.6588455,2.0637672 9.8889555,2.0888376 11.508308,2.1263056 C 13.12562,2.1666713 14.128087,2.2252322 14.128087,2.2826515 C 14.128087,2.3974879 10.140512,2.5015358 5.1771797,2.5015358 C 3.1577409,2.5015358 1.495121,2.4648873 0,2.4389974 L 0,3.3145346 C 0.1329811,3.3143996 0.20860358,3.3145346 0.3430662,3.3145346 C 5.3063978,3.3145346 9.2939732,3.4185816 9.2939732,3.533419 C 9.2939732,3.6482555 5.3063978,3.7523033 0.3430662,3.7523033 C 0.20860358,3.7523033 0.1329811,3.7524374 0,3.7523033 L 0,6.034954 C 1.6144589,5.9810289 4.1734795,5.9411464 7.2355759,5.9411464 C 12.198908,5.9411464 16.186483,6.0451933 16.186483,6.1600308 C 16.186483,6.2748682 12.198908,6.3476459 7.2355759,6.3476459 C 4.1739103,6.3476459 1.6145356,6.3390186 0,6.2851076 L 0,7.0668373 C 4.3138533,7.0819025 7.7969567,7.1503094 7.7969567,7.2544523 C 7.7969567,7.3585952 4.3138533,7.4582724 0,7.4733366 L 0,8.036182 C 0.084568346,8.036128 0.13316119,8.036182 0.21831458,8.036182 C 5.1816472,8.036182 9.1692225,8.1089597 9.1692225,8.2237972 C 9.1692225,8.3386347 5.1816472,8.4426815 0.21831458,8.4426815 C 0.13316716,8.4426815 0.084562376,8.4427355 0,8.4426815 L 0,9.193142 C 0.17457227,9.0819147 4.0370776,8.9742577 8.8885316,8.9742577 C 13.851864,8.9742577 17.839438,9.0783045 17.839438,9.193142 C 17.839438,9.3079794 13.851864,9.4120262 8.8885316,9.4120262 C 4.0359434,9.4120262 0.17285692,9.3044062 0,9.193142 L 0,10.099949 C 0.28598418,10.099318 0.45513779,10.099949 0.74850772,10.099949 C 5.7118403,10.099949 9.7306033,10.172726 9.7306033,10.287563 C 9.7306033,10.402401 5.7118403,10.506448 0.74850772,10.506448 C 0.45513779,10.506448 0.28598418,10.50708 0,10.506448 L 0,11.225639 C 1.1263555,11.213874 2.0479987,11.19437 3.3682857,11.19437 C 8.3316173,11.19437 12.350381,11.298417 12.350381,11.413254 C 12.350381,11.528092 8.3316173,11.60087 3.3682857,11.60087 C 2.0479987,11.60087 1.1263555,11.581366 0,11.5696 L 0,13.007983 C 4.3970773,13.021364 7.9217083,13.090094 7.9217083,13.195598 C 7.9217083,13.301103 4.3970773,13.401101 0,13.414482 L 0,15.196826 C 0.44299804,15.195279 0.72291086,15.196826 1.1851379,15.196826 C 6.1484695,15.196826 10.136045,15.300873 10.136045,15.41571 C 10.136045,15.530548 6.1484695,15.634595 1.1851379,15.634595 C 0.72291086,15.634595 0.44299804,15.636142 0,15.634595 L 0,16.385055 C 1.6154688,16.348238 3.8115355,16.322517 6.2687536,16.322517 C 11.232086,16.322517 15.219661,16.395294 15.219661,16.510132 C 15.219661,16.624969 11.232086,16.729016 6.2687536,16.729016 C 3.8115355,16.729016 1.6154688,16.703295 0,16.666478 L 0,18.167399 C 1.6354828,18.126137 3.9278298,18.10486 6.5494445,18.10486 C 11.512776,18.10486 15.500351,18.208907 15.500351,18.323744 C 15.500351,18.438581 11.512776,18.51136 6.5494445,18.51136 C 3.9278298,18.51136 1.6354828,18.490083 0,18.448822 L 0,19.511974 C 3.0332281,19.545115 5.4578696,19.616557 5.4578696,19.699589 C 5.4578696,19.782621 3.0332281,19.854062 0,19.887204 L 0,21.044164 C 1.2634299,21.02845 2.3893505,21.012895 3.9296665,21.012895 C 8.8929981,21.012895 12.880575,21.116941 12.880575,21.231779 C 12.880575,21.346616 8.8929981,21.419395 3.9296665,21.419395 C 2.3893505,21.419395 1.2634299,21.403838 0,21.388125 L 0,22.013508 C 1.1971294,21.999831 2.2186746,21.98224 3.6489766,21.98224 C 8.6123082,21.98224 12.599884,22.086286 12.599884,22.201124 C 12.599884,22.315961 8.6123082,22.388739 3.6489766,22.388739 C 2.2186746,22.388739 1.1971294,22.371149 0,22.35747 L 0,25.109158 C 1.5423886,25.046909 4.3052596,25.015351 7.6410185,25.015351 C 12.604351,25.015351 16.623114,25.119398 16.623114,25.234235 C 16.623115,25.349071 12.604351,25.42185 7.6410185,25.42185 C 4.3052596,25.42185 1.5423886,25.390292 0,25.328042 L 0,26.015965 C 1.0166281,26.006739 1.8014655,25.984696 2.9628442,25.984696 C 7.9261758,25.984696 11.913751,26.088743 11.913751,26.20358 C 11.913751,26.318416 7.9261758,26.391195 2.9628442,26.391195 C 1.8014655,26.391195 1.0166281,26.369152 0,26.359925 L 0,27.985923 C 1.6154688,27.949106 3.8115355,27.923385 6.2687536,27.923385 C 11.232086,27.923385 15.219661,28.027432 15.219661,28.142269 C 15.219661,28.257106 11.232086,28.329885 6.2687536,28.329885 C 3.8115355,28.329885 1.6154688,28.304164 0,28.267347 L 0,28.767654 C 1.2301299,28.752995 2.3208054,28.736384 3.8049149,28.736384 C 8.7682465,28.736384 12.755823,28.840431 12.755823,28.955268 C 12.755823,29.070105 8.7682465,29.174153 3.8049149,29.174153 C 2.3208054,29.174153 1.2301299,29.157543 0,29.142884 L 0,29.862075 L 29.909127,29.862075 L 29.909127,29.080346 C 28.336705,29.139709 25.634891,29.174153 22.392861,29.174153 C 17.42953,29.174153 13.441954,29.070106 13.441954,28.955268 C 13.441954,28.840431 17.42953,28.736384 22.392861,28.736384 C 25.634891,28.736384 28.336705,28.770827 29.909127,28.830192 L 29.909127,28.454961 C 28.645697,28.470676 27.519778,28.486231 25.979462,28.486231 C 21.01613,28.486231 17.028555,28.382184 17.028555,28.267347 C 17.028555,28.152509 21.01613,28.048463 25.979462,28.048463 C 27.519778,28.048463 28.645698,28.064018 29.909127,28.079731 L 29.909127,25.953427 C 28.853794,26.04073 25.545196,26.109773 21.426039,26.109773 C 16.462706,26.109773 12.475131,26.036995 12.475131,25.922157 C 12.475131,25.80732 16.462706,25.703273 21.426039,25.703273 C 25.543691,25.703273 28.852429,25.772364 29.909127,25.859619 L 29.909127,25.390582 C 28.973376,25.398211 28.278338,25.42185 27.226974,25.42185 C 22.263642,25.42185 18.276069,25.349072 18.276069,25.234235 C 18.276069,25.119398 22.263642,25.015351 27.226974,25.015351 C 28.278338,25.015351 28.973376,25.03899 29.909127,25.04662 L 29.909127,24.421237 C 27.314132,24.385007 25.293328,24.340413 25.293328,24.264891 C 25.293328,24.189368 27.314132,24.113504 29.909127,24.077275 L 29.909127,22.013508 C 29.514214,22.029447 29.156558,22.031884 28.59924,22.044778 C 28.008701,22.05922 27.518804,22.066894 26.759157,22.076048 C 25.377338,22.096181 24.028453,22.107316 22.26811,22.107316 C 19.786443,22.107316 17.5309,22.077327 15.905793,22.044778 C 15.096115,22.026045 14.45549,22.007056 14.003336,21.98224 C 13.549023,21.959268 13.286015,21.948411 13.286015,21.919702 C 13.286015,21.862282 14.286438,21.800823 15.905793,21.763356 C 17.5309,21.722988 19.786445,21.700817 22.26811,21.700817 C 23.93599,21.700817 25.458671,21.716416 26.759157,21.732086 C 27.325374,21.740336 28.128556,21.752465 28.59924,21.763356 C 29.019679,21.773637 29.588409,21.78168 29.909127,21.794624 L 29.909127,21.075433 C 28.268414,21.121313 25.865455,21.137971 23.078993,21.137971 C 18.11566,21.137971 14.128087,21.065194 14.128087,20.950357 C 14.128087,20.835519 18.115661,20.731472 23.078993,20.731472 C 25.865454,20.731472 28.268414,20.748132 29.909127,20.794011 L 29.909127,18.88659 C 28.414007,18.91248 26.751388,18.949129 24.731948,18.949129 C 19.768618,18.949129 15.781042,18.845082 15.781042,18.730244 C 15.781042,18.615406 19.768618,18.51136 24.731948,18.51136 C 26.751388,18.51136 28.414007,18.548009 29.909127,18.573898 L 29.909127,16.791554 C 28.39246,16.81883 26.685477,16.854093 24.607198,16.854093 C 19.643865,16.854093 15.65629,16.781316 15.65629,16.666478 C 15.65629,16.55164 19.643865,16.447594 24.607198,16.447594 C 26.685477,16.447594 28.39246,16.482856 29.909127,16.510132 L 29.909127,11.725946 C 28.645697,11.741659 27.519778,11.757216 25.979462,11.757216 C 21.01613,11.757216 17.028555,11.653168 17.028555,11.538332 C 17.028555,11.423494 21.01613,11.350716 25.979462,11.350716 C 27.519778,11.350716 28.645698,11.366271 29.909127,11.381985 L 29.909127,6.8479529 C 28.342416,6.879103 26.438946,6.9104913 24.201756,6.9104913 C 19.238423,6.9104913 15.219661,6.8377136 15.219661,6.7228761 C 15.219661,6.6080387 19.238424,6.5039918 24.201756,6.5039918 C 26.438946,6.5039918 28.342416,6.5353801 29.909127,6.5665302 L 29.909127,5.7535314 C 28.434035,5.7782394 26.856155,5.8160697 24.887888,5.8160697 C 19.924557,5.8160697 15.905793,5.7120219 15.905793,5.5971854 C 15.905793,5.4823479 19.924556,5.4095702 24.887888,5.4095702 C 26.856117,5.4095702 28.434049,5.4161313 29.909127,5.4408394 L 29.909127,3.9399185 C 28.268414,3.9857976 25.865455,4.0024568 23.078993,4.0024568 C 18.115661,4.0024568 14.128087,3.9296782 14.128087,3.8148417 C 14.128087,3.7000043 18.115661,3.5959574 23.078993,3.5959574 C 25.865455,3.5959574 28.268414,3.6126156 29.909127,3.6584958 L 29.909127,2.7204201 C 28.414007,2.74631 26.751388,2.7829585 24.731948,2.7829585 C 19.768618,2.7829585 15.781042,2.6789106 15.781042,2.5640742 C 15.781042,2.4492367 19.768618,2.3451899 24.731948,2.3451899 C 26.751388,2.3451899 28.414007,2.3818373 29.909127,2.4077282 L 29.909127,-1.0958915e-15 L 0,-1.0958915e-15 z M 17.839438,0.96934511 C 22.80277,0.96934511 26.821533,1.0733925 26.821533,1.1882299 C 26.821533,1.3030664 22.80277,1.375845 17.839438,1.375845 C 12.876107,1.375845 8.8885316,1.3030664 8.8885316,1.1882299 C 8.8885316,1.0733925 12.876107,0.96934511 17.839438,0.96934511 z M 12.069691,4.5653022 C 17.033022,4.5653022 21.020597,4.669349 21.020597,4.7841865 C 21.020597,4.899024 17.033022,4.9718017 12.069691,4.9718017 C 7.1063578,4.9718017 3.0875958,4.899023 3.0875958,4.7841865 C 3.0875958,4.669349 7.1063578,4.5653022 12.069691,4.5653022 z M 18.525572,7.5984134 C 23.488903,7.5984134 27.507665,7.7024603 27.507665,7.8172977 C 27.507663,7.9321352 23.488902,8.036182 18.525572,8.036182 C 13.56224,8.036182 9.5746631,7.9321352 9.5746631,7.8172977 C 9.5746631,7.7024613 13.56224,7.5984134 18.525572,7.5984134 z M 19.648332,9.5371031 C 24.611665,9.5371031 28.59924,9.6411499 28.59924,9.7559874 C 28.599239,9.8708248 24.611664,9.9436024 19.648332,9.9436024 C 14.685001,9.9436024 10.697426,9.8708248 10.697426,9.7559874 C 10.697426,9.6411509 14.685001,9.5371031 19.648332,9.5371031 z M 19.367642,10.631525 C 24.330973,10.631525 28.318549,10.735571 28.318549,10.850409 C 28.318549,10.965246 24.330973,11.069293 19.367642,11.069293 C 14.40431,11.069293 10.416735,10.965246 10.416735,10.850409 C 10.416735,10.735571 14.40431,10.631525 19.367642,10.631525 z M 10.946929,12.320061 C 15.91026,12.320061 19.929023,12.392839 19.929023,12.507675 C 19.929023,12.622513 15.91026,12.72656 10.946929,12.72656 C 5.9835962,12.72656 1.9960209,12.622513 1.9960209,12.507675 C 1.9960209,12.392839 5.9835962,12.320061 10.946929,12.320061 z M 18.525572,13.695905 C 23.488903,13.695905 27.507665,13.768683 27.507665,13.88352 C 27.507663,13.998357 23.488902,14.102405 18.525572,14.102405 C 13.56224,14.102405 9.5746631,13.998357 9.5746631,13.88352 C 9.5746631,13.768683 13.56224,13.695905 18.525572,13.695905 z M 18.276069,14.66525 C 23.239401,14.66525 27.226974,14.738028 27.226974,14.852865 C 27.226974,14.967702 23.239401,15.07175 18.276069,15.07175 C 13.312736,15.07175 9.2939732,14.967702 9.2939732,14.852865 C 9.2939732,14.738028 13.312736,14.66525 18.276069,14.66525 z M 18.9622,15.634595 C 23.925531,15.634595 27.913107,15.707372 27.913107,15.822209 C 27.913109,15.937047 23.925532,16.041094 18.9622,16.041094 C 13.998866,16.041094 9.9801054,15.937047 9.9801054,15.822209 C 9.9801054,15.707372 13.998868,15.634595 18.9622,15.634595 z M 14.689466,17.542015 C 19.6528,17.542015 23.640374,17.646062 23.640374,17.760899 C 23.640374,17.875736 19.6528,17.979784 14.689466,17.979784 C 9.7261349,17.979784 5.7073729,17.875737 5.7073729,17.760899 C 5.7073729,17.646062 9.7261349,17.542015 14.689466,17.542015 z M 16.467174,19.637051 C 21.430508,19.637051 25.41808,19.709829 25.41808,19.824666 C 25.41808,19.939503 21.430507,20.04355 16.467174,20.04355 C 11.503843,20.04355 7.5162668,19.939504 7.5162668,19.824666 C 7.5162668,19.709829 11.503841,19.637051 16.467174,19.637051 z M 16.467174,22.795239 C 21.430508,22.795239 25.41808,22.899285 25.41808,23.014123 C 25.41808,23.128959 21.430507,23.233007 16.467174,23.233007 C 11.503843,23.233007 7.5162668,23.12896 7.5162668,23.014123 C 7.5162668,22.899285 11.503841,22.795239 16.467174,22.795239 z M 13.441954,24.046006 C 18.405286,24.046006 22.392861,24.150053 22.392861,24.264891 C 22.392859,24.379727 18.405286,24.452505 13.441954,24.452505 C 8.4786227,24.452505 4.4910483,24.379728 4.4910483,24.264891 C 4.4910483,24.150053 8.4786227,24.046006 13.441954,24.046006 z M 12.599884,26.828964 C 17.563215,26.828964 21.581978,26.901741 21.581978,27.016579 C 21.581978,27.131415 17.563215,27.235464 12.599884,27.235464 C 7.6365509,27.235464 3.6489766,27.131416 3.6489766,27.016579 C 3.6489766,26.901741 7.6365509,26.828964 12.599884,26.828964 z "
     id="rect47548"
     inkscape:export-xdpi="90"
     inkscape:export-ydpi="90" />
  <path
     id="path46577"
     d="M 29.909127,29.862075 L 29.909127,29.396933 L 26.624129,29.396933 C 24.511757,29.396933 22.807275,29.318247 22.807275,29.210877 C 22.807275,29.103508 24.511757,29.024821 26.624129,29.024821 L 29.909127,29.024821 L 29.909127,26.885171 C 27.865232,26.88128 26.217415,26.772979 26.217415,26.668104 C 26.217415,26.56323 27.865232,26.485937 29.909127,26.482048 L 29.909127,24.24937 C 29.509622,24.256554 29.200681,24.24937 28.751557,24.24937 L 16.643993,24.24937 C 14.53162,24.24937 12.827137,24.170683 12.827137,24.063313 C 12.827137,23.955943 14.53162,23.877256 16.643993,23.877256 L 28.751557,23.877256 C 29.20078,23.877256 29.509546,23.901077 29.909127,23.908266 L 29.909127,20.094107 L 20.554705,20.094107 C 18.442334,20.094107 16.737848,20.01542 16.737848,19.908051 C 16.737848,19.800681 18.442334,19.721994 20.554705,19.721994 L 29.909127,19.721994 L 29.909127,18.543636 L 26.40513,18.543636 C 24.292758,18.543636 22.619559,18.464949 22.619559,18.357579 C 22.619559,18.250209 24.292758,18.171523 26.40513,18.171523 L 29.909127,18.171523 L 29.909127,14.078279 C 29.734062,14.07952 29.621847,14.078279 29.439842,14.078279 L 17.332276,14.078279 C 15.219905,14.078279 13.515421,13.999593 13.515421,13.892223 C 13.515421,13.784852 15.219905,13.706166 17.332276,13.706166 L 29.439842,13.706166 C 29.621847,13.706166 29.734062,13.704925 29.909127,13.706166 L 29.909127,11.163393 L 21.430704,11.163393 C 19.318332,11.163393 17.613849,11.084707 17.613849,10.977337 C 17.613849,10.869968 19.318332,10.791281 21.430704,10.791281 L 29.909127,10.791281 L 29.909127,8.5275917 L 19.271991,8.5275917 C 17.159619,8.5275917 15.455135,8.4178958 15.455135,8.3105258 C 15.455135,8.2031558 17.159619,8.1244692 19.271991,8.1244692 L 29.909127,8.1244692 L 29.909127,7.4732713 C 29.572515,7.4781852 29.339079,7.5042808 28.970557,7.5042808 L 16.831705,7.5042808 C 14.719334,7.5042808 13.014852,7.4255943 13.014852,7.3182243 C 13.014852,7.2108543 14.719334,7.1011583 16.831705,7.1011583 L 28.970557,7.1011583 C 29.339079,7.1011583 29.572515,7.1272539 29.909127,7.1321677 L 29.909127,6.201885 C 29.452647,6.2116662 29.091936,6.2328945 28.563842,6.2328945 L 16.456278,6.2328945 C 14.343905,6.2328945 12.639424,6.1542079 12.639424,6.046838 C 12.639424,5.939468 14.343905,5.8607814 16.456278,5.8607814 L 28.563842,5.8607814 C 29.092007,5.8607814 29.452598,5.8820068 29.909127,5.8917909 L 29.909127,4.3103103 L 22.807275,4.3103103 C 20.694904,4.3103103 18.990418,4.2006144 18.990418,4.0932444 C 18.990418,3.9858744 20.694904,3.9071878 22.807275,3.9071878 L 29.909127,3.9071878 L 29.909127,2.9458948 L 20.836275,2.9458948 C 18.723904,2.9458948 17.019421,2.8672082 17.019421,2.7598382 C 17.019421,2.6524683 18.723904,2.5427723 20.836275,2.5427723 L 29.909127,2.5427723 L 29.909127,-1.5887499e-15 L 0,-1.5887499e-15 L 0,0.55816959 L 6.6638549,0.55816959 C 8.776226,0.55816959 10.480708,0.66786555 10.480708,0.77523555 C 10.480708,0.88260555 8.776226,0.96129208 6.6638549,0.96129208 L 0,0.96129208 L 0,3.2249806 L 8.3219975,3.2249806 C 10.434367,3.2249806 12.138851,3.3036671 12.138851,3.4110371 C 12.138851,3.5184071 10.434367,3.6281031 8.3219975,3.6281031 L 0,3.6281031 L 0,5.0855459 L 9.9801383,5.0855459 C 12.092509,5.0855459 13.796993,5.1642324 13.796993,5.2716025 C 13.796993,5.3789725 12.092509,5.4576589 9.9801383,5.4576589 L 0,5.4576589 L 0,10.791281 L 10.073994,10.791281 C 12.186367,10.791281 13.89085,10.869968 13.89085,10.977337 C 13.89085,11.084707 12.186367,11.163393 10.073994,11.163393 L 0,11.163393 L 0,13.458091 L 7.445997,13.458091 C 9.5583691,13.458091 11.262851,13.536777 11.262851,13.644147 C 11.262851,13.751517 9.5583691,13.830204 7.445997,13.830204 L 0,13.830204 L 0,17.179222 L 9.8862817,17.179222 C 11.998651,17.179222 13.703137,17.288917 13.703137,17.396287 C 13.703137,17.503657 11.998651,17.582344 9.8862817,17.582344 L 0,17.582344 L 0,19.908051 L 9.8862817,19.908051 C 11.998651,19.908051 13.703137,19.986738 13.703137,20.094107 C 13.703137,20.201477 11.998651,20.280163 9.8862817,20.280163 L 0,20.280163 L 0,21.148427 C 0.012106356,21.148421 0.019152178,21.148427 0.031286482,21.148427 L 12.138851,21.148427 C 14.251221,21.148427 15.955707,21.258123 15.955707,21.365493 C 15.955707,21.472864 14.251221,21.55155 12.138851,21.55155 L 0.031286482,21.55155 C 0.019152178,21.55155 0.012106356,21.551556 0,21.55155 L 0,23.008993 L 7.6337119,23.008993 C 9.7460829,23.008993 11.450566,23.087679 11.450566,23.195049 C 11.450566,23.302419 9.7460829,23.381106 7.6337119,23.381106 L 0,23.381106 L 0,26.947189 C 0.61653583,26.92543 1.2541622,26.885171 2.0648569,26.885171 L 14.203707,26.885171 C 16.316079,26.885171 18.020561,26.963857 18.020561,27.071227 C 18.020561,27.178597 16.316079,27.257284 14.203707,27.257284 L 2.0648569,27.257284 C 1.2541622,27.257284 0.61653583,27.217025 0,27.195264 L 0,29.862075 L 29.909127,29.862075 z M 19.960276,28.52867 L 7.8527113,28.52867 C 5.7403403,28.52867 4.0358563,28.449983 4.0358563,28.342613 C 4.0358563,28.235243 5.7403403,28.125548 7.8527113,28.125548 L 19.960276,28.125548 C 22.072647,28.125548 23.777131,28.235243 23.777131,28.342613 C 23.777131,28.449983 22.072647,28.52867 19.960276,28.52867 z M 17.801562,25.613784 L 5.6939989,25.613784 C 3.5816269,25.613784 1.877143,25.535098 1.877143,25.427728 C 1.877143,25.320358 3.5816269,25.241671 5.6939989,25.241671 L 17.801562,25.241671 C 19.913934,25.241671 21.618418,25.320358 21.618418,25.427728 C 21.618418,25.535098 19.913934,25.613784 17.801562,25.613784 z M 26.029701,22.326786 L 13.89085,22.326786 C 11.778479,22.326786 10.073994,22.248099 10.073994,22.140729 C 10.073994,22.033359 11.778479,21.923663 13.89085,21.923663 L 26.029701,21.923663 C 28.142073,21.923663 29.846555,22.033359 29.846555,22.140729 C 29.846555,22.248099 28.142073,22.326786 26.029701,22.326786 z M 24.65313,16.124901 L 12.545565,16.124901 C 10.433195,16.124901 8.7287108,16.046215 8.7287108,15.938845 C 8.7287108,15.831475 10.433195,15.721778 12.545565,15.721778 L 24.65313,15.721778 C 26.765502,15.721778 28.469985,15.831475 28.469985,15.938845 C 28.469985,16.046215 26.765502,16.124901 24.65313,16.124901 z M 16.237277,13.023959 L 4.1297128,13.023959 C 2.0173428,13.023959 0.31285783,12.945272 0.31285783,12.837902 C 0.31285783,12.730532 2.0173428,12.620837 4.1297128,12.620837 L 16.237277,12.620837 C 18.34965,12.620837 20.054132,12.730532 20.054132,12.837902 C 20.054132,12.945272 18.34965,13.023959 16.237277,13.023959 z M 17.801562,1.860565 L 5.6939989,1.860565 C 3.5816269,1.860565 1.877143,1.7818785 1.877143,1.6745085 C 1.877143,1.5671385 3.5816269,1.4884519 5.6939989,1.4884519 L 17.801562,1.4884519 C 19.913934,1.4884519 21.618418,1.5671385 21.618418,1.6745085 C 21.618418,1.7818785 19.913934,1.860565 17.801562,1.860565 z "
     style="opacity:0.19892476;fill:#bbffff;fill-opacity:1;fill-rule:nonzero;stroke:#5a0000;stroke-width:0;stroke-linecap:round;stroke-linejoin:bevel;stroke-miterlimit:4;stroke-dasharray:none;stroke-dashoffset:0;stroke-opacity:0" />
  <path
     style="opacity:0.47311826;fill:#ffe4ff;fill-opacity:0.45161288;fill-rule:nonzero;stroke:#5a0000;stroke-width:0;stroke-linecap:round;stroke-linejoin:bevel;stroke-miterlimit:4;stroke-dasharray:none;stroke-dashoffset:0;stroke-opacity:0"
     d="M 0,-4.4045566e-15 L 0,0.4651406 L 3.2849977,0.4651406 C 5.3973696,0.4651406 7.1018534,0.54382678 7.1018534,0.65119703 C 7.1018534,0.75856729 5.3973696,0.83725447 3.2849977,0.83725447 L 0,0.83725447 L 0,2.9769041 C 2.043895,2.9807943 3.6917119,3.0890944 3.6917119,3.1939707 C 3.6917119,3.298845 2.043895,3.3761359 0,3.3800272 L 0,5.6127044 C 0.39950475,5.6055182 0.70844689,5.6127044 1.1575708,5.6127044 L 13.265136,5.6127044 C 15.377507,5.6127044 17.081991,5.6913906 17.081991,5.7987619 C 17.081991,5.9061311 15.377507,5.9848183 13.265136,5.9848183 L 1.1575708,5.9848183 C 0.70834709,5.9848183 0.39958061,5.9609963 0,5.953808 L 0,9.7679685 L 9.3544232,9.7679685 C 11.466794,9.7679685 13.171278,9.8466537 13.171278,9.954025 C 13.171278,10.061395 11.466794,10.140082 9.3544232,10.140082 L 0,10.140082 L 0,11.31844 L 3.503998,11.31844 C 5.61637,11.31844 7.2895674,11.397127 7.2895674,11.504497 C 7.2895674,11.611867 5.61637,11.690553 3.503998,11.690553 L 0,11.690553 L 0,15.783797 C 0.17506655,15.782556 0.28728066,15.783797 0.46928523,15.783797 L 12.576851,15.783797 C 14.689222,15.783797 16.393707,15.862484 16.393707,15.969853 C 16.393707,16.077224 14.689222,16.15591 12.576851,16.15591 L 0.46928523,16.15591 C 0.28728066,16.15591 0.17506655,16.157151 0,16.15591 L 0,18.698684 L 8.4784247,18.698684 C 10.590796,18.698684 12.295279,18.77737 12.295279,18.88474 C 12.295279,18.992109 10.590796,19.070796 8.4784247,19.070796 L 0,19.070796 L 0,21.334484 L 10.637138,21.334484 C 12.749508,21.334484 14.453991,21.44418 14.453991,21.55155 C 14.453991,21.65892 12.749508,21.737606 10.637138,21.737606 L 0,21.737606 L 0,22.388804 C 0.33661239,22.38389 0.57004677,22.357795 0.93857047,22.357795 L 13.077423,22.357795 C 15.189792,22.357795 16.894277,22.436481 16.894277,22.543851 C 16.894277,22.651222 15.189792,22.760918 13.077423,22.760918 L 0.93857047,22.760918 C 0.57004677,22.760918 0.33661239,22.734822 0,22.729908 L 0,23.660191 C 0.45648018,23.65041 0.8171925,23.629182 1.3452847,23.629182 L 13.452849,23.629182 C 15.565221,23.629182 17.269705,23.707868 17.269705,23.815238 C 17.269705,23.922609 15.565221,24.001294 13.452849,24.001294 L 1.3452847,24.001294 C 0.81712063,24.001294 0.4565291,23.980069 0,23.970286 L 0,25.551765 L 7.1018534,25.551765 C 9.2142244,25.551765 10.918709,25.661463 10.918709,25.768832 C 10.918709,25.876202 9.2142244,25.954888 7.1018534,25.954888 L 0,25.954888 L 0,26.91618 L 9.0728518,26.91618 C 11.185223,26.91618 12.889708,26.994867 12.889708,27.102237 C 12.889708,27.209607 11.185223,27.319302 9.0728518,27.319302 L 0,27.319302 L 0,29.862075 L 29.909127,29.862075 L 29.909127,29.303906 L 23.245274,29.303906 C 21.132902,29.303906 19.428419,29.194211 19.428419,29.08684 C 19.428419,28.97947 21.132902,28.900784 23.245274,28.900784 L 29.909127,28.900784 L 29.909127,26.637095 L 21.587131,26.637095 C 19.47476,26.637095 17.770277,26.558409 17.770277,26.451039 C 17.770277,26.34367 19.47476,26.233973 21.587131,26.233973 L 29.909127,26.233973 L 29.909127,24.77653 L 19.92899,24.77653 C 17.816619,24.77653 16.112134,24.697843 16.112134,24.590473 C 16.112134,24.483104 17.816619,24.404416 19.92899,24.404416 L 29.909127,24.404416 L 29.909127,19.070796 L 19.835132,19.070796 C 17.722761,19.070796 16.018278,18.992109 16.018278,18.88474 C 16.018278,18.77737 17.722761,18.698684 19.835132,18.698684 L 29.909127,18.698684 L 29.909127,16.403986 L 22.46313,16.403986 C 20.350758,16.403986 18.646276,16.3253 18.646276,16.21793 C 18.646276,16.11056 20.350758,16.031873 22.46313,16.031873 L 29.909127,16.031873 L 29.909127,12.682855 L 20.022847,12.682855 C 17.910475,12.682855 16.205993,12.573159 16.205993,12.46579 C 16.205993,12.358419 17.910475,12.279733 20.022847,12.279733 L 29.909127,12.279733 L 29.909127,9.954025 L 20.022847,9.954025 C 17.910475,9.954025 16.205993,9.8753388 16.205993,9.7679685 C 16.205993,9.6605973 17.910475,9.5819121 20.022847,9.5819121 L 29.909127,9.5819121 L 29.909127,8.7136474 C 29.897021,8.7136524 29.889974,8.7136474 29.877841,8.7136474 L 17.770277,8.7136474 C 15.657904,8.7136474 13.953422,8.6039509 13.953422,8.4965807 C 13.953422,8.3892105 15.657904,8.3105243 17.770277,8.3105243 L 29.877841,8.3105243 C 29.889974,8.3105243 29.897021,8.3105183 29.909127,8.3105243 L 29.909127,6.853082 L 22.275418,6.853082 C 20.163045,6.853082 18.458561,6.7743949 18.458561,6.6670256 C 18.458561,6.5596543 20.163045,6.4809691 22.275418,6.4809691 L 29.909127,6.4809691 L 29.909127,2.9148855 C 29.292591,2.936646 28.654964,2.9769041 27.844271,2.9769041 L 15.705421,2.9769041 C 13.593049,2.9769041 11.888565,2.8982178 11.888565,2.7908476 C 11.888565,2.6834763 13.593049,2.6047912 15.705421,2.6047912 L 27.844271,2.6047912 C 28.654964,2.6047912 29.292591,2.6450501 29.909127,2.6668096 L 29.909127,-4.4045566e-15 L 0,-4.4045566e-15 z M 9.9488534,1.3334054 L 22.056416,1.3334054 C 24.168788,1.3334054 25.873273,1.4120905 25.873273,1.5194617 C 25.873273,1.626831 24.168788,1.7365274 22.056416,1.7365274 L 9.9488534,1.7365274 C 7.8364814,1.7365274 6.1319965,1.626831 6.1319965,1.5194617 C 6.1319965,1.4120905 7.8364814,1.3334054 9.9488534,1.3334054 z M 12.107566,4.2482909 L 24.215129,4.2482909 C 26.3275,4.2482909 28.031985,4.326976 28.031985,4.4343473 C 28.031985,4.5417165 26.3275,4.6204038 24.215129,4.6204038 L 12.107566,4.6204038 C 9.9951946,4.6204038 8.2907108,4.5417165 8.2907108,4.4343473 C 8.2907108,4.326976 9.9951946,4.2482909 12.107566,4.2482909 z M 3.8794268,7.5352893 L 16.018278,7.5352893 C 18.130649,7.5352893 19.835132,7.6139745 19.835132,7.7213458 C 19.835132,7.8287159 18.130649,7.9384114 16.018278,7.9384114 L 3.8794268,7.9384114 C 1.7670558,7.9384114 0.062570965,7.8287159 0.062570965,7.7213458 C 0.062570965,7.6139745 1.7670558,7.5352893 3.8794268,7.5352893 z M 5.255997,13.737176 L 17.363561,13.737176 C 19.475933,13.737176 21.180417,13.815862 21.180417,13.923231 C 21.180417,14.030602 19.475933,14.140299 17.363561,14.140299 L 5.255997,14.140299 C 3.143626,14.140299 1.4391421,14.030602 1.4391421,13.923231 C 1.4391421,13.815862 3.143626,13.737176 5.255997,13.737176 z M 13.67185,16.838118 L 25.779415,16.838118 C 27.891786,16.838118 29.59627,16.916805 29.59627,17.024175 C 29.59627,17.131544 27.891786,17.24124 25.779415,17.24124 L 13.67185,17.24124 C 11.559479,17.24124 9.8549949,17.131544 9.8549949,17.024175 C 9.8549949,16.916805 11.559479,16.838118 13.67185,16.838118 z M 12.107566,28.00151 L 24.215129,28.00151 C 26.3275,28.00151 28.031985,28.080197 28.031985,28.187567 C 28.031985,28.294936 26.3275,28.373624 24.215129,28.373624 L 12.107566,28.373624 C 9.9951946,28.373624 8.2907108,28.294936 8.2907108,28.187567 C 8.2907108,28.080197 9.9951946,28.00151 12.107566,28.00151 z "
     id="rect44549" />
  <g
     id="g5275"
     transform="matrix(0.9891426,0,0,0.9886707,0.1129293,0.1264047)">
    <rect
       transform="matrix(0,1,1,0,0,0)"
       style="opacity:0.14516129;fill:url(#radialGradient8256);fill-opacity:1;fill-rule:nonzero;stroke:#5a0000;stroke-width:0;stroke-linecap:round;stroke-linejoin:bevel;stroke-miterlimit:4;stroke-dasharray:none;stroke-dashoffset:0;stroke-opacity:0"
       id="rect34740"
       width="28.190651"
       height="28.221598"
       x="0.87895584"
       y="0.89374536"
       ry="12.855988"
       rx="12.841892" />
    <rect
       transform="matrix(0,1,1,0,0,0)"
       style="opacity:0.33870969;fill:url(#radialGradient8258);fill-opacity:1;fill-rule:nonzero;stroke:#5a0000;stroke-width:0;stroke-linecap:round;stroke-linejoin:bevel;stroke-miterlimit:4;stroke-dasharray:none;stroke-dashoffset:0;stroke-opacity:0"
       id="rect44545"
       width="28.190651"
       height="28.221598"
       x="0.87895584"
       y="0.89374536"
       ry="12.855988"
       rx="12.841892" />
    <rect
       rx="12.841892"
       ry="12.855988"
       y="-29.115345"
       x="-29.069607"
       height="28.221598"
       width="28.190651"
       id="rect7090"
       style="opacity:0.33870969;fill:url(#radialGradient8260);fill-opacity:1;fill-rule:nonzero;stroke:#5a0000;stroke-width:0;stroke-linecap:round;stroke-linejoin:bevel;stroke-miterlimit:4;stroke-dasharray:none;stroke-dashoffset:0;stroke-opacity:0"
       transform="matrix(0,-1,-1,0,0,0)" />
  </g>
  <rect
     ry="0"
     rx="0"
     y="-29.909126"
     x="-29.862076"
     height="29.909126"
     width="29.862076"
     id="rect54501"
     style="opacity:0.5;fill:url(#linearGradient3278);fill-opacity:1;fill-rule:nonzero;stroke:#5a0000;stroke-width:0;stroke-linecap:round;stroke-linejoin:bevel;stroke-miterlimit:4;stroke-dasharray:none;stroke-dashoffset:0;stroke-opacity:0"
     transform="matrix(0,-1,-1,0,0,0)"
     inkscape:export-filename="/home/ian/Vector stuff/FreeDroid/bbb.png"
     inkscape:export-xdpi="90"
     inkscape:export-ydpi="90" />
  <rect
     inkscape:export-ydpi="90"
     inkscape:export-xdpi="90"
     inkscape:export-filename="/home/ian/Vector stuff/FreeDroid/bbb.png"
     transform="scale(1,-1)"
     style="opacity:0.2;fill:url(#linearGradient3275);fill-opacity:1;fill-rule:nonzero;stroke:#5a0000;stroke-width:0;stroke-linecap:round;stroke-linejoin:bevel;stroke-miterlimit:4;stroke-dasharray:none;stroke-dashoffset:0;stroke-opacity:0"
     id="rect6255"
     width="29.909126"
     height="29.862076"
     x="0"
     y="-29.862076"
     rx="0"
     ry="0" />
</svg>
