<?xml version="1.0" encoding="UTF-8" standalone="no"?>
<!-- Created with Inkscape (http://www.inkscape.org/) -->
<svg
   xmlns:dc="http://purl.org/dc/elements/1.1/"
   xmlns:cc="http://web.resource.org/cc/"
   xmlns:rdf="http://www.w3.org/1999/02/22-rdf-syntax-ns#"
   xmlns:svg="http://www.w3.org/2000/svg"
   xmlns="http://www.w3.org/2000/svg"
   xmlns:xlink="http://www.w3.org/1999/xlink"
   xmlns:sodipodi="http://sodipodi.sourceforge.net/DTD/sodipodi-0.dtd"
   xmlns:inkscape="http://www.inkscape.org/namespaces/inkscape"
   version="1.0"
   width="30"
   height="30"
   id="svg4228"
   sodipodi:version="0.32"
   inkscape:version="0.45.1"
   sodipodi:docname="LevelEditorToggleConnectionRedButtonPushed.svg"
   sodipodi:docbase="/home/ian/Vector stuff/FreeDroid"
   inkscape:output_extension="org.inkscape.output.svg.inkscape"
   inkscape:export-filename="/home/ian/Vector stuff/FreeDroid/Connect.png"
   inkscape:export-xdpi="90"
   inkscape:export-ydpi="90">
  <metadata
     id="metadata32">
    <rdf:RDF>
      <cc:Work
         rdf:about="">
        <dc:format>image/svg+xml</dc:format>
        <dc:type
           rdf:resource="http://purl.org/dc/dcmitype/StillImage" />
      </cc:Work>
    </rdf:RDF>
  </metadata>
  <sodipodi:namedview
     inkscape:window-height="580"
     inkscape:window-width="794"
     inkscape:pageshadow="2"
     inkscape:pageopacity="0.0"
     guidetolerance="10.0"
     gridtolerance="10.0"
     objecttolerance="10.0"
     borderopacity="1.0"
     bordercolor="#666666"
     pagecolor="#ffffff"
     id="base"
     showguides="true"
     inkscape:guide-bbox="true"
     inkscape:zoom="8"
     inkscape:cx="12.753221"
     inkscape:cy="14.215515"
     inkscape:window-x="90"
     inkscape:window-y="282"
     inkscape:current-layer="svg4228" />
  <defs
     id="defs4230">
    <linearGradient
       id="linearGradient7228">
      <stop
         style="stop-color:#000000;stop-opacity:1;"
         offset="0"
         id="stop7230" />
      <stop
         id="stop7232"
         offset="0.5"
         style="stop-color:#fffdff;stop-opacity:0.08547009;" />
      <stop
         style="stop-color:#ffffc3;stop-opacity:0;"
         offset="0.75"
         id="stop7234" />
      <stop
         id="stop7236"
         offset="0.875"
         style="stop-color:#ffffc3;stop-opacity:0;" />
      <stop
         style="stop-color:#ffffc3;stop-opacity:0;"
         offset="1"
         id="stop7238" />
    </linearGradient>
    <linearGradient
       id="linearGradient4291">
      <stop
         id="stop4293"
         offset="0"
         style="stop-color:#000000;stop-opacity:1;" />
      <stop
         style="stop-color:#fffdff;stop-opacity:0.08547009;"
         offset="0.5"
         id="stop4295" />
      <stop
         id="stop4297"
         offset="0.75"
         style="stop-color:#ffffc3;stop-opacity:0;" />
      <stop
         style="stop-color:#ffffc3;stop-opacity:0;"
         offset="0.875"
         id="stop4299" />
      <stop
         id="stop4301"
         offset="1"
         style="stop-color:#ffffc3;stop-opacity:0;" />
    </linearGradient>
    <linearGradient
       id="linearGradient54487">
      <stop
         style="stop-color:#ffffff;stop-opacity:0.64957267;"
         offset="0"
         id="stop54489" />
      <stop
         id="stop54495"
         offset="0.5"
         style="stop-color:#c4fdff;stop-opacity:0;" />
      <stop
         style="stop-color:#ffffc3;stop-opacity:0;"
         offset="0.75"
         id="stop54497" />
      <stop
         id="stop54499"
         offset="0.875"
         style="stop-color:#ffffc3;stop-opacity:0;" />
      <stop
         style="stop-color:#ffffc3;stop-opacity:0;"
         offset="1"
         id="stop54491" />
    </linearGradient>
    <linearGradient
       id="linearGradient36692">
      <stop
         id="stop36694"
         offset="0"
         style="stop-color:#000000;stop-opacity:0;" />
      <stop
         id="stop36700"
         offset="1"
         style="stop-color:#323232;stop-opacity:0.95689654;" />
    </linearGradient>
    <linearGradient
       id="linearGradient35713">
      <stop
         style="stop-color:#ffffff;stop-opacity:0.28448275;"
         offset="0"
         id="stop35715" />
      <stop
         id="stop35717"
         offset="0.5"
         style="stop-color:#ffffff;stop-opacity:0;" />
      <stop
         style="stop-color:#aeaeae;stop-opacity:0;"
         offset="0.75"
         id="stop35719" />
      <stop
         style="stop-color:#d6ffff;stop-opacity:1;"
         offset="1"
         id="stop35721" />
    </linearGradient>
    <linearGradient
       id="linearGradient20167">
      <stop
         style="stop-color:#000000;stop-opacity:0;"
         offset="0"
         id="stop20169" />
      <stop
         id="stop20171"
         offset="0.5"
         style="stop-color:#fff7ff;stop-opacity:0;" />
      <stop
         style="stop-color:#c5efff;stop-opacity:1;"
         offset="1"
         id="stop20173" />
    </linearGradient>
    <linearGradient
       id="linearGradient14338">
      <stop
         id="stop14340"
         offset="0"
         style="stop-color:#ffffff;stop-opacity:0;" />
      <stop
         style="stop-color:#ffffff;stop-opacity:0;"
         offset="0.5"
         id="stop14344" />
      <stop
         id="stop14346"
         offset="0.75"
         style="stop-color:#000000;stop-opacity:0;" />
      <stop
         id="stop14342"
         offset="1"
         style="stop-color:#323632;stop-opacity:1;" />
    </linearGradient>
    <linearGradient
       id="linearGradient12924">
      <stop
         style="stop-color:#f0f0f0;stop-opacity:0.63247865;"
         offset="0"
         id="stop12926" />
      <stop
         id="stop12928"
         offset="0.5"
         style="stop-color:#ffffff;stop-opacity:0;" />
      <stop
         style="stop-color:#ffffff;stop-opacity:0;"
         offset="1"
         id="stop12930" />
    </linearGradient>
    <linearGradient
       id="linearGradient10978">
      <stop
         style="stop-color:#004e83;stop-opacity:0.31623933;"
         offset="0"
         id="stop10980" />
      <stop
         style="stop-color:#2b646d;stop-opacity:0.75213677;"
         offset="1"
         id="stop10982" />
    </linearGradient>
    <linearGradient
       id="linearGradient8063">
      <stop
         style="stop-color:#f0f0f0;stop-opacity:0;"
         offset="0"
         id="stop8065" />
      <stop
         id="stop8067"
         offset="0.5"
         style="stop-color:#646464;stop-opacity:0;" />
      <stop
         style="stop-color:#e6e6e6;stop-opacity:1;"
         offset="1"
         id="stop8069" />
    </linearGradient>
    <linearGradient
       id="linearGradient6091">
      <stop
         id="stop6093"
         offset="0"
         style="stop-color:#000000;stop-opacity:0;" />
      <stop
         style="stop-color:#00b9ff;stop-opacity:0;"
         offset="0.5"
         id="stop7068" />
      <stop
         id="stop6095"
         offset="1"
         style="stop-color:#6687ac;stop-opacity:1;" />
    </linearGradient>
    <linearGradient
       id="linearGradient4139">
      <stop
         style="stop-color:#f0f0f0;stop-opacity:0.32478634;"
         offset="0"
         id="stop4141" />
      <stop
         style="stop-color:#e6e6e6;stop-opacity:1;"
         offset="1"
         id="stop4143" />
    </linearGradient>
    <linearGradient
       id="linearGradient5165">
      <stop
         style="stop-color:#ffff00;stop-opacity:1"
         offset="0"
         id="stop5167" />
      <stop
         style="stop-color:#ffb900;stop-opacity:1"
         offset="1"
         id="stop5169" />
    </linearGradient>
    <linearGradient
       id="linearGradient4177">
      <stop
         style="stop-color:#ffff80;stop-opacity:1"
         offset="0"
         id="stop4179" />
      <stop
         style="stop-color:#00ffff;stop-opacity:1"
         offset="1"
         id="stop4181" />
    </linearGradient>
    <linearGradient
       id="linearGradient4212">
      <stop
         style="stop-color:#ffff00;stop-opacity:1"
         offset="0"
         id="stop4214" />
      <stop
         style="stop-color:#ffff00;stop-opacity:1"
         offset="0.5"
         id="stop4220" />
      <stop
         style="stop-color:#ffffff;stop-opacity:0"
         offset="1"
         id="stop4216" />
    </linearGradient>
    <linearGradient
       id="linearGradient3155">
      <stop
         style="stop-color:#ffffff;stop-opacity:1"
         offset="0"
         id="stop3157" />
      <stop
         style="stop-color:#ffffff;stop-opacity:0"
         offset="1"
         id="stop3159" />
    </linearGradient>
    <radialGradient
       cx="15"
       cy="15"
       r="16"
       fx="15"
       fy="15"
       id="radialGradient4185"
       xlink:href="#linearGradient4177"
       gradientUnits="userSpaceOnUse" />
    <radialGradient
       cx="15.028969"
       cy="15.097325"
       r="6.051754"
       fx="15.028969"
       fy="15.097325"
       id="radialGradient5171"
       xlink:href="#linearGradient5165"
       gradientUnits="userSpaceOnUse"
       gradientTransform="matrix(1,0,0,0.9895656,0,0.157532)" />
    <radialGradient
       cx="15"
       cy="15"
       r="16"
       fx="15"
       fy="15"
       id="radialGradient5195"
       xlink:href="#linearGradient4177"
       gradientUnits="userSpaceOnUse" />
    <radialGradient
       cx="15.028969"
       cy="15.097325"
       r="6.051754"
       fx="15.028969"
       fy="15.097325"
       id="radialGradient5197"
       xlink:href="#linearGradient5165"
       gradientUnits="userSpaceOnUse"
       gradientTransform="matrix(1,0,0,0.9895656,0,0.157532)" />
    <radialGradient
       cx="15"
       cy="15"
       r="16"
       fx="15"
       fy="15"
       id="radialGradient5201"
       xlink:href="#linearGradient4177"
       gradientUnits="userSpaceOnUse" />
    <radialGradient
       cx="15"
       cy="15"
       r="16"
       fx="15"
       fy="15"
       id="radialGradient5207"
       xlink:href="#linearGradient4177"
       gradientUnits="userSpaceOnUse" />
    <radialGradient
       cx="15.028969"
       cy="15.097325"
       r="6.051754"
       fx="15.028969"
       fy="15.097325"
       id="radialGradient5209"
       xlink:href="#linearGradient5165"
       gradientUnits="userSpaceOnUse"
       gradientTransform="matrix(1,0,0,0.9895656,0,0.157532)" />
    <radialGradient
       cx="15"
       cy="15"
       r="16"
       fx="15"
       fy="15"
       id="radialGradient5213"
       xlink:href="#linearGradient4177"
       gradientUnits="userSpaceOnUse" />
    <radialGradient
       inkscape:collect="always"
       xlink:href="#linearGradient12924"
       id="radialGradient14332"
       gradientUnits="userSpaceOnUse"
       gradientTransform="matrix(1.518724,1.408519,-1.4502012,1.6006237,-5.1837474,-89.174314)"
       cx="23.082907"
       cy="20.024515"
       fx="23.082907"
       fy="20.024515"
       r="14.010153" />
    <radialGradient
       inkscape:collect="always"
       xlink:href="#linearGradient14338"
       id="radialGradient22126"
       gradientUnits="userSpaceOnUse"
       gradientTransform="matrix(1.2106494,3.8998741e-8,-4.3792597e-8,1.394612,4.0823089,6.3732263)"
       cx="-16.657145"
       cy="-16.075825"
       fx="-16.657145"
       fy="-16.075825"
       r="14.051131" />
    <radialGradient
       inkscape:collect="always"
       xlink:href="#linearGradient36692"
       id="radialGradient34742"
       gradientUnits="userSpaceOnUse"
       gradientTransform="matrix(1.2106494,3.8998741e-8,-4.3792597e-8,1.394612,33.249622,36.187002)"
       cx="-17.173395"
       cy="-16.166603"
       fx="-17.173395"
       fy="-16.166603"
       r="14.051131" />
    <radialGradient
       inkscape:collect="always"
       xlink:href="#linearGradient14338"
       id="radialGradient44547"
       gradientUnits="userSpaceOnUse"
       gradientTransform="matrix(1.2106494,3.8998741e-8,-4.3792597e-8,1.394612,33.249622,36.187002)"
       cx="-16.657145"
       cy="-16.075825"
       fx="-16.657145"
       fy="-16.075825"
       r="14.051131" />
    <linearGradient
       inkscape:collect="always"
       xlink:href="#linearGradient54487"
       id="linearGradient54493"
       x1="0.13810679"
       y1="14.808252"
       x2="15.05364"
       y2="14.808252"
       gradientUnits="userSpaceOnUse"
       spreadMethod="reflect"
       gradientTransform="matrix(1.0128213,0,0,1,-0.3860158,0)" />
    <linearGradient
       inkscape:collect="always"
       xlink:href="#linearGradient54487"
       id="linearGradient54503"
       gradientUnits="userSpaceOnUse"
       spreadMethod="reflect"
       x1="0.13810679"
       y1="14.808252"
       x2="15.05364"
       y2="14.808252"
       gradientTransform="matrix(1,0,0,1.0128213,-0.2453883,-29.858745)" />
    <radialGradient
       inkscape:collect="always"
       xlink:href="#linearGradient36692"
       id="radialGradient54517"
       gradientUnits="userSpaceOnUse"
       gradientTransform="matrix(1.2106494,3.8998741e-8,-4.3792597e-8,1.394612,33.249622,36.187002)"
       cx="-17.173395"
       cy="-16.166603"
       fx="-17.173395"
       fy="-16.166603"
       r="14.051131" />
    <radialGradient
       inkscape:collect="always"
       xlink:href="#linearGradient14338"
       id="radialGradient54519"
       gradientUnits="userSpaceOnUse"
       gradientTransform="matrix(1.2106494,3.8998741e-8,-4.3792597e-8,1.394612,4.0823089,6.3732263)"
       cx="-16.657145"
       cy="-16.075825"
       fx="-16.657145"
       fy="-16.075825"
       r="14.051131" />
    <radialGradient
       inkscape:collect="always"
       xlink:href="#linearGradient14338"
       id="radialGradient54521"
       gradientUnits="userSpaceOnUse"
       gradientTransform="matrix(1.2106494,3.8998741e-8,-4.3792597e-8,1.394612,33.249622,36.187002)"
       cx="-16.657145"
       cy="-16.075825"
       fx="-16.657145"
       fy="-16.075825"
       r="14.051131" />
    <linearGradient
       inkscape:collect="always"
       xlink:href="#linearGradient54487"
       id="linearGradient54523"
       gradientUnits="userSpaceOnUse"
       gradientTransform="matrix(1.0128213,0,0,1,-0.3860158,0)"
       spreadMethod="reflect"
       x1="0.13810679"
       y1="14.808252"
       x2="15.05364"
       y2="14.808252" />
    <linearGradient
       inkscape:collect="always"
       xlink:href="#linearGradient54487"
       id="linearGradient54525"
       gradientUnits="userSpaceOnUse"
       gradientTransform="matrix(1,0,0,1.0128213,-0.2453883,-29.858745)"
       spreadMethod="reflect"
       x1="0.13810679"
       y1="14.808252"
       x2="15.05364"
       y2="14.808252" />
    <linearGradient
       inkscape:collect="always"
       xlink:href="#linearGradient54487"
       id="linearGradient54528"
       gradientUnits="userSpaceOnUse"
       gradientTransform="matrix(1,0,0,1.0128213,-0.2453883,-29.858745)"
       spreadMethod="reflect"
       x1="0.13810679"
       y1="14.808252"
       x2="15.05364"
       y2="14.808252" />
    <linearGradient
       inkscape:collect="always"
       xlink:href="#linearGradient54487"
       id="linearGradient54531"
       gradientUnits="userSpaceOnUse"
       gradientTransform="matrix(1.0128213,0,0,1,-0.3860158,9.7656251e-2)"
       spreadMethod="reflect"
       x1="0.13810679"
       y1="14.808252"
       x2="15.05364"
       y2="14.808252" />
    <radialGradient
       inkscape:collect="always"
       xlink:href="#linearGradient14338"
       id="radialGradient54534"
       gradientUnits="userSpaceOnUse"
       gradientTransform="matrix(1.2106494,3.8998741e-8,-4.3792597e-8,1.394612,33.249622,36.187002)"
       cx="-16.657145"
       cy="-16.075825"
       fx="-16.657145"
       fy="-16.075825"
       r="14.051131" />
    <radialGradient
       inkscape:collect="always"
       xlink:href="#linearGradient14338"
       id="radialGradient54537"
       gradientUnits="userSpaceOnUse"
       gradientTransform="matrix(1.2106494,3.8998741e-8,-4.3792597e-8,1.394612,4.0823089,6.3732263)"
       cx="-16.657145"
       cy="-16.075825"
       fx="-16.657145"
       fy="-16.075825"
       r="14.051131" />
    <radialGradient
       inkscape:collect="always"
       xlink:href="#linearGradient36692"
       id="radialGradient54542"
       gradientUnits="userSpaceOnUse"
       gradientTransform="matrix(1.2106494,3.8998741e-8,-4.3792597e-8,1.394612,33.249622,36.187002)"
       cx="-17.173395"
       cy="-16.166603"
       fx="-17.173395"
       fy="-16.166603"
       r="14.051131" />
    <radialGradient
       inkscape:collect="always"
       xlink:href="#linearGradient36692"
       id="radialGradient54558"
       gradientUnits="userSpaceOnUse"
       gradientTransform="matrix(1.2106494,3.8998741e-8,-4.3792597e-8,1.394612,33.249622,36.187002)"
       cx="-17.173395"
       cy="-16.166603"
       fx="-17.173395"
       fy="-16.166603"
       r="14.051131" />
    <radialGradient
       inkscape:collect="always"
       xlink:href="#linearGradient14338"
       id="radialGradient54560"
       gradientUnits="userSpaceOnUse"
       gradientTransform="matrix(1.2106494,3.8998741e-8,-4.3792597e-8,1.394612,33.249622,36.187002)"
       cx="-16.657145"
       cy="-16.075825"
       fx="-16.657145"
       fy="-16.075825"
       r="14.051131" />
    <radialGradient
       inkscape:collect="always"
       xlink:href="#linearGradient14338"
       id="radialGradient54562"
       gradientUnits="userSpaceOnUse"
       gradientTransform="matrix(1.2106494,3.8998741e-8,-4.3792597e-8,1.394612,4.0823089,6.3732263)"
       cx="-16.657145"
       cy="-16.075825"
       fx="-16.657145"
       fy="-16.075825"
       r="14.051131" />
    <linearGradient
       inkscape:collect="always"
       xlink:href="#linearGradient54487"
       id="linearGradient54564"
       gradientUnits="userSpaceOnUse"
       gradientTransform="matrix(1,0,0,1.0128213,-0.2453883,-29.858745)"
       spreadMethod="reflect"
       x1="0.13810679"
       y1="14.808252"
       x2="15.05364"
       y2="14.808252" />
    <linearGradient
       inkscape:collect="always"
       xlink:href="#linearGradient54487"
       id="linearGradient54566"
       gradientUnits="userSpaceOnUse"
       gradientTransform="matrix(1.0128213,0,0,1,-0.3860158,9.7656251e-2)"
       spreadMethod="reflect"
       x1="0.13810679"
       y1="14.808252"
       x2="15.05364"
       y2="14.808252" />
    <linearGradient
       inkscape:collect="always"
       xlink:href="#linearGradient4291"
       id="linearGradient5273"
       gradientUnits="userSpaceOnUse"
       gradientTransform="matrix(1.005663,0,0,0.9964367,-30.13889,-29.755481)"
       spreadMethod="reflect"
       x1="0.13810679"
       y1="14.808252"
       x2="15.05364"
       y2="14.808252" />
    <radialGradient
       inkscape:collect="always"
       xlink:href="#linearGradient36692"
       id="radialGradient5280"
       gradientUnits="userSpaceOnUse"
       gradientTransform="matrix(1.2106494,3.8998741e-8,-4.3792597e-8,1.394612,33.640247,36.284658)"
       cx="-17.173395"
       cy="-16.166603"
       fx="-17.173395"
       fy="-16.166603"
       r="14.051131" />
    <radialGradient
       inkscape:collect="always"
       xlink:href="#linearGradient14338"
       id="radialGradient5282"
       gradientUnits="userSpaceOnUse"
       gradientTransform="matrix(1.2106494,3.8998741e-8,-4.3792597e-8,1.394612,33.640247,36.284658)"
       cx="-16.657145"
       cy="-16.075825"
       fx="-16.657145"
       fy="-16.075825"
       r="14.051131" />
    <radialGradient
       inkscape:collect="always"
       xlink:href="#linearGradient14338"
       id="radialGradient5284"
       gradientUnits="userSpaceOnUse"
       gradientTransform="matrix(1.2106494,3.8998741e-8,-4.3792597e-8,1.394612,3.691684,6.27557)"
       cx="-16.657145"
       cy="-16.075825"
       fx="-16.657145"
       fy="-16.075825"
       r="14.051131" />
    <linearGradient
       inkscape:collect="always"
       xlink:href="#linearGradient7228"
       id="linearGradient6257"
       gradientUnits="userSpaceOnUse"
       gradientTransform="matrix(1.005663,0,0,0.9964367,-0.13889,-29.755481)"
       spreadMethod="reflect"
       x1="0.13810679"
       y1="14.808252"
       x2="15.053641"
       y2="14.808252" />
    <radialGradient
       inkscape:collect="always"
       xlink:href="#linearGradient36692"
       id="radialGradient8246"
       gradientUnits="userSpaceOnUse"
       gradientTransform="matrix(1.2106494,3.8998741e-8,-4.3792597e-8,1.394612,33.640247,36.284658)"
       cx="-17.173395"
       cy="-16.166603"
       fx="-17.173395"
       fy="-16.166603"
       r="14.051131" />
    <radialGradient
       inkscape:collect="always"
       xlink:href="#linearGradient14338"
       id="radialGradient8248"
       gradientUnits="userSpaceOnUse"
       gradientTransform="matrix(1.2106494,3.8998741e-8,-4.3792597e-8,1.394612,33.640247,36.284658)"
       cx="-16.657145"
       cy="-16.075825"
       fx="-16.657145"
       fy="-16.075825"
       r="14.051131" />
    <radialGradient
       inkscape:collect="always"
       xlink:href="#linearGradient14338"
       id="radialGradient8250"
       gradientUnits="userSpaceOnUse"
       gradientTransform="matrix(1.2106494,3.8998741e-8,-4.3792597e-8,1.394612,3.691684,6.27557)"
       cx="-16.657145"
       cy="-16.075825"
       fx="-16.657145"
       fy="-16.075825"
       r="14.051131" />
    <linearGradient
       inkscape:collect="always"
       xlink:href="#linearGradient4291"
       id="linearGradient8252"
       gradientUnits="userSpaceOnUse"
       gradientTransform="matrix(1.005663,0,0,0.9964367,-30.13889,-29.755481)"
       spreadMethod="reflect"
       x1="0.13810679"
       y1="14.808252"
       x2="15.05364"
       y2="14.808252" />
    <linearGradient
       inkscape:collect="always"
       xlink:href="#linearGradient7228"
       id="linearGradient8254"
       gradientUnits="userSpaceOnUse"
       gradientTransform="matrix(1.005663,0,0,0.9964367,-0.13889,-29.755481)"
       spreadMethod="reflect"
       x1="0.13810679"
       y1="14.808252"
       x2="15.053641"
       y2="14.808252" />
    <radialGradient
       inkscape:collect="always"
       xlink:href="#linearGradient36692"
       id="radialGradient8290"
       gradientUnits="userSpaceOnUse"
       gradientTransform="matrix(1.2106494,3.8998741e-8,-4.3792597e-8,1.394612,33.640247,36.284658)"
       cx="-17.173395"
       cy="-16.166603"
       fx="-17.173395"
       fy="-16.166603"
       r="14.051131" />
    <radialGradient
       inkscape:collect="always"
       xlink:href="#linearGradient14338"
       id="radialGradient8292"
       gradientUnits="userSpaceOnUse"
       gradientTransform="matrix(1.2106494,3.8998741e-8,-4.3792597e-8,1.394612,33.640247,36.284658)"
       cx="-16.657145"
       cy="-16.075825"
       fx="-16.657145"
       fy="-16.075825"
       r="14.051131" />
    <radialGradient
       inkscape:collect="always"
       xlink:href="#linearGradient14338"
       id="radialGradient8294"
       gradientUnits="userSpaceOnUse"
       gradientTransform="matrix(1.2106494,3.8998741e-8,-4.3792597e-8,1.394612,3.691684,6.27557)"
       cx="-16.657145"
       cy="-16.075825"
       fx="-16.657145"
       fy="-16.075825"
       r="14.051131" />
    <linearGradient
       inkscape:collect="always"
       xlink:href="#linearGradient4291"
       id="linearGradient8296"
       gradientUnits="userSpaceOnUse"
       gradientTransform="matrix(1.005663,0,0,0.9964367,-30.13889,-29.755481)"
       spreadMethod="reflect"
       x1="0.13810679"
       y1="14.808252"
       x2="15.05364"
       y2="14.808252" />
    <linearGradient
       inkscape:collect="always"
       xlink:href="#linearGradient7228"
       id="linearGradient8298"
       gradientUnits="userSpaceOnUse"
       gradientTransform="matrix(1.005663,0,0,0.9964367,-0.13889,-29.755481)"
       spreadMethod="reflect"
       x1="0.13810679"
       y1="14.808252"
       x2="15.053641"
       y2="14.808252" />
    <radialGradient
       inkscape:collect="always"
       xlink:href="#linearGradient14338"
       id="radialGradient2344"
       gradientUnits="userSpaceOnUse"
       gradientTransform="matrix(1.1969336,3.8575316e-8,-4.3296458e-8,1.3794701,3.3901275,6.091477)"
       cx="-16.657145"
       cy="-16.075825"
       fx="-16.657145"
       fy="-16.075825"
       r="14.051131" />
    <radialGradient
       inkscape:collect="always"
       xlink:href="#linearGradient14338"
       id="radialGradient2347"
       gradientUnits="userSpaceOnUse"
       gradientTransform="matrix(1.1969336,3.8575316e-8,-4.3296458e-8,1.3794701,33.518858,36.006659)"
       cx="-16.657145"
       cy="-16.075825"
       fx="-16.657145"
       fy="-16.075825"
       r="14.051131" />
    <radialGradient
       inkscape:collect="always"
       xlink:href="#linearGradient36692"
       id="radialGradient2350"
       gradientUnits="userSpaceOnUse"
       gradientTransform="matrix(1.1969336,3.8575316e-8,-4.3296458e-8,1.3794701,33.518858,36.006659)"
       cx="-17.173395"
       cy="-16.166603"
       fx="-17.173395"
       fy="-16.166603"
       r="14.051131" />
    <linearGradient
       y2="14.808252"
       x2="15.053641"
       y1="14.808252"
       x1="0.13810679"
       spreadMethod="reflect"
       gradientTransform="matrix(0.8380525,0,0,0.830364,29.884262,-26.796238)"
       gradientUnits="userSpaceOnUse"
       id="linearGradient2298"
       xlink:href="#linearGradient7228"
       inkscape:collect="always" />
    <linearGradient
       y2="14.808252"
       x2="15.05364"
       y1="14.808252"
       x1="0.13810679"
       spreadMethod="reflect"
       gradientTransform="matrix(0.8380525,0,0,0.8303639,-27.115743,-54.796237)"
       gradientUnits="userSpaceOnUse"
       id="linearGradient2296"
       xlink:href="#linearGradient4291"
       inkscape:collect="always" />
    <linearGradient
       y2="14.808252"
       x2="15.05364"
       y1="14.808252"
       x1="0.13810679"
       spreadMethod="reflect"
       gradientTransform="matrix(0.8380525,0,0,0.8303639,-27.115743,-54.796237)"
       gradientUnits="userSpaceOnUse"
       id="linearGradient2295"
       xlink:href="#linearGradient4291"
       inkscape:collect="always" />
    <linearGradient
       y2="14.808252"
       x2="15.053641"
       y1="14.808252"
       x1="0.13810679"
       spreadMethod="reflect"
       gradientTransform="matrix(0.8380525,0,0,0.830364,29.884262,-26.796238)"
       gradientUnits="userSpaceOnUse"
       id="linearGradient2292"
       xlink:href="#linearGradient7228"
       inkscape:collect="always" />
    <radialGradient
       r="14.051131"
       fy="-16.075825"
       fx="-16.657145"
       cy="-16.075825"
       cx="-16.657145"
       gradientTransform="matrix(1.2106494,3.8998741e-8,-4.3792597e-8,1.394612,3.691684,6.27557)"
       gradientUnits="userSpaceOnUse"
       id="radialGradient2308"
       xlink:href="#linearGradient14338"
       inkscape:collect="always" />
    <radialGradient
       r="14.051131"
       fy="-16.075825"
       fx="-16.657145"
       cy="-16.075825"
       cx="-16.657145"
       gradientTransform="matrix(1.2106494,3.8998741e-8,-4.3792597e-8,1.394612,33.640247,36.284658)"
       gradientUnits="userSpaceOnUse"
       id="radialGradient2306"
       xlink:href="#linearGradient14338"
       inkscape:collect="always" />
    <radialGradient
       r="14.051131"
       fy="-16.166603"
       fx="-17.173395"
       cy="-16.166603"
       cx="-17.173395"
       gradientTransform="matrix(1.2106494,3.8998741e-8,-4.3792597e-8,1.394612,33.640247,36.284658)"
       gradientUnits="userSpaceOnUse"
       id="radialGradient2304"
       xlink:href="#linearGradient36692"
       inkscape:collect="always" />
    <linearGradient
       spreadMethod="reflect"
       gradientUnits="userSpaceOnUse"
       y2="-71.671875"
       x2="-52.539062"
       y1="-71.671875"
       x1="-63.18594"
       id="linearGradient7200"
       xlink:href="#linearGradient7194"
       inkscape:collect="always" />
    <linearGradient
       y2="14.808252"
       x2="15.053641"
       y1="14.808252"
       x1="0.13810679"
       spreadMethod="reflect"
       gradientTransform="matrix(1.005663,0,0,0.9964367,-0.13889,-29.755481)"
       gradientUnits="userSpaceOnUse"
       id="linearGradient2826"
       xlink:href="#linearGradient7228"
       inkscape:collect="always" />
    <linearGradient
       y2="14.808252"
       x2="15.05364"
       y1="14.808252"
       x1="0.13810679"
       spreadMethod="reflect"
       gradientTransform="matrix(1.005663,0,0,0.9964367,-30.13889,-29.755481)"
       gradientUnits="userSpaceOnUse"
       id="linearGradient2824"
       xlink:href="#linearGradient4291"
       inkscape:collect="always" />
    <radialGradient
       r="14.051131"
       fy="-16.075825"
       fx="-16.657145"
       cy="-16.075825"
       cx="-16.657145"
       gradientTransform="matrix(1.2106494,3.8998741e-8,-4.3792597e-8,1.394612,3.691684,6.27557)"
       gradientUnits="userSpaceOnUse"
       id="radialGradient2822"
       xlink:href="#linearGradient14338"
       inkscape:collect="always" />
    <radialGradient
       r="14.051131"
       fy="-16.075825"
       fx="-16.657145"
       cy="-16.075825"
       cx="-16.657145"
       gradientTransform="matrix(1.2106494,3.8998741e-8,-4.3792597e-8,1.394612,33.640247,36.284658)"
       gradientUnits="userSpaceOnUse"
       id="radialGradient2820"
       xlink:href="#linearGradient14338"
       inkscape:collect="always" />
    <radialGradient
       r="14.051131"
       fy="-16.166603"
       fx="-17.173395"
       cy="-16.166603"
       cx="-17.173395"
       gradientTransform="matrix(1.2106494,3.8998741e-8,-4.3792597e-8,1.394612,33.640247,36.284658)"
       gradientUnits="userSpaceOnUse"
       id="radialGradient2818"
       xlink:href="#linearGradient36692"
       inkscape:collect="always" />
    <linearGradient
       y2="14.808252"
       x2="15.053641"
       y1="14.808252"
       x1="0.13810679"
       spreadMethod="reflect"
       gradientTransform="matrix(1.005663,0,0,0.9964367,-0.13889,-29.755481)"
       gradientUnits="userSpaceOnUse"
       id="linearGradient8264"
       xlink:href="#linearGradient7228"
       inkscape:collect="always" />
    <linearGradient
       y2="14.808252"
       x2="15.05364"
       y1="14.808252"
       x1="0.13810679"
       spreadMethod="reflect"
       gradientTransform="matrix(1.005663,0,0,0.9964367,-30.13889,-29.755481)"
       gradientUnits="userSpaceOnUse"
       id="linearGradient8262"
       xlink:href="#linearGradient4291"
       inkscape:collect="always" />
    <linearGradient
       y2="14.808252"
       x2="15.053641"
       y1="14.808252"
       x1="0.13810679"
       spreadMethod="reflect"
       gradientTransform="matrix(1.005663,0,0,0.9964367,-0.13889,-29.755481)"
       gradientUnits="userSpaceOnUse"
       id="linearGradient2814"
       xlink:href="#linearGradient7228"
       inkscape:collect="always" />
    <linearGradient
       y2="14.808252"
       x2="15.05364"
       y1="14.808252"
       x1="0.13810679"
       spreadMethod="reflect"
       gradientTransform="matrix(1.005663,0,0,0.9964367,-30.13889,-29.755481)"
       gradientUnits="userSpaceOnUse"
       id="linearGradient2812"
       xlink:href="#linearGradient4291"
       inkscape:collect="always" />
    <radialGradient
       r="14.051131"
       fy="-16.075825"
       fx="-16.657145"
       cy="-16.075825"
       cx="-16.657145"
       gradientTransform="matrix(1.2106494,3.8998741e-8,-4.3792597e-8,1.394612,3.691684,6.27557)"
       gradientUnits="userSpaceOnUse"
       id="radialGradient2810"
       xlink:href="#linearGradient14338"
       inkscape:collect="always" />
    <radialGradient
       r="14.051131"
       fy="-16.075825"
       fx="-16.657145"
       cy="-16.075825"
       cx="-16.657145"
       gradientTransform="matrix(1.2106494,3.8998741e-8,-4.3792597e-8,1.394612,33.640247,36.284658)"
       gradientUnits="userSpaceOnUse"
       id="radialGradient2808"
       xlink:href="#linearGradient14338"
       inkscape:collect="always" />
    <radialGradient
       r="14.051131"
       fy="-16.166603"
       fx="-17.173395"
       cy="-16.166603"
       cx="-17.173395"
       gradientTransform="matrix(1.2106494,3.8998741e-8,-4.3792597e-8,1.394612,33.640247,36.284658)"
       gradientUnits="userSpaceOnUse"
       id="radialGradient2806"
       xlink:href="#linearGradient36692"
       inkscape:collect="always" />
    <linearGradient
       y2="14.808252"
       x2="15.053641"
       y1="14.808252"
       x1="0.13810679"
       spreadMethod="reflect"
       gradientTransform="matrix(1.005663,0,0,0.9964367,-0.13889,-29.755481)"
       gradientUnits="userSpaceOnUse"
       id="linearGradient2804"
       xlink:href="#linearGradient7228"
       inkscape:collect="always" />
    <radialGradient
       r="14.051131"
       fy="-16.075825"
       fx="-16.657145"
       cy="-16.075825"
       cx="-16.657145"
       gradientTransform="matrix(1.2106494,3.8998741e-8,-4.3792597e-8,1.394612,3.691684,6.27557)"
       gradientUnits="userSpaceOnUse"
       id="radialGradient2802"
       xlink:href="#linearGradient14338"
       inkscape:collect="always" />
    <radialGradient
       r="14.051131"
       fy="-16.075825"
       fx="-16.657145"
       cy="-16.075825"
       cx="-16.657145"
       gradientTransform="matrix(1.2106494,3.8998741e-8,-4.3792597e-8,1.394612,33.640247,36.284658)"
       gradientUnits="userSpaceOnUse"
       id="radialGradient2800"
       xlink:href="#linearGradient14338"
       inkscape:collect="always" />
    <radialGradient
       r="14.051131"
       fy="-16.166603"
       fx="-17.173395"
       cy="-16.166603"
       cx="-17.173395"
       gradientTransform="matrix(1.2106494,3.8998741e-8,-4.3792597e-8,1.394612,33.640247,36.284658)"
       gradientUnits="userSpaceOnUse"
       id="radialGradient2798"
       xlink:href="#linearGradient36692"
       inkscape:collect="always" />
    <linearGradient
       y2="14.808252"
       x2="15.05364"
       y1="14.808252"
       x1="0.13810679"
       spreadMethod="reflect"
       gradientTransform="matrix(1.005663,0,0,0.9964367,-30.13889,-29.755481)"
       gradientUnits="userSpaceOnUse"
       id="linearGradient2796"
       xlink:href="#linearGradient4291"
       inkscape:collect="always" />
    <linearGradient
       y2="14.808252"
       x2="15.05364"
       y1="14.808252"
       x1="0.13810679"
       spreadMethod="reflect"
       gradientTransform="matrix(1.0128213,0,0,1,-0.3860158,9.7656251e-2)"
       gradientUnits="userSpaceOnUse"
       id="linearGradient2794"
       xlink:href="#linearGradient54487"
       inkscape:collect="always" />
    <linearGradient
       y2="14.808252"
       x2="15.05364"
       y1="14.808252"
       x1="0.13810679"
       spreadMethod="reflect"
       gradientTransform="matrix(1,0,0,1.0128213,-0.2453883,-29.858745)"
       gradientUnits="userSpaceOnUse"
       id="linearGradient2792"
       xlink:href="#linearGradient54487"
       inkscape:collect="always" />
    <radialGradient
       r="14.051131"
       fy="-16.075825"
       fx="-16.657145"
       cy="-16.075825"
       cx="-16.657145"
       gradientTransform="matrix(1.2106494,3.8998741e-8,-4.3792597e-8,1.394612,4.0823089,6.3732263)"
       gradientUnits="userSpaceOnUse"
       id="radialGradient2790"
       xlink:href="#linearGradient14338"
       inkscape:collect="always" />
    <radialGradient
       r="14.051131"
       fy="-16.075825"
       fx="-16.657145"
       cy="-16.075825"
       cx="-16.657145"
       gradientTransform="matrix(1.2106494,3.8998741e-8,-4.3792597e-8,1.394612,33.249622,36.187002)"
       gradientUnits="userSpaceOnUse"
       id="radialGradient2788"
       xlink:href="#linearGradient14338"
       inkscape:collect="always" />
    <radialGradient
       r="14.051131"
       fy="-16.166603"
       fx="-17.173395"
       cy="-16.166603"
       cx="-17.173395"
       gradientTransform="matrix(1.2106494,3.8998741e-8,-4.3792597e-8,1.394612,33.249622,36.187002)"
       gradientUnits="userSpaceOnUse"
       id="radialGradient2786"
       xlink:href="#linearGradient36692"
       inkscape:collect="always" />
    <radialGradient
       r="14.051131"
       fy="-16.166603"
       fx="-17.173395"
       cy="-16.166603"
       cx="-17.173395"
       gradientTransform="matrix(1.2106494,3.8998741e-8,-4.3792597e-8,1.394612,33.249622,36.187002)"
       gradientUnits="userSpaceOnUse"
       id="radialGradient2784"
       xlink:href="#linearGradient36692"
       inkscape:collect="always" />
    <radialGradient
       r="14.051131"
       fy="-16.075825"
       fx="-16.657145"
       cy="-16.075825"
       cx="-16.657145"
       gradientTransform="matrix(1.2106494,3.8998741e-8,-4.3792597e-8,1.394612,4.0823089,6.3732263)"
       gradientUnits="userSpaceOnUse"
       id="radialGradient2782"
       xlink:href="#linearGradient14338"
       inkscape:collect="always" />
    <radialGradient
       r="14.051131"
       fy="-16.075825"
       fx="-16.657145"
       cy="-16.075825"
       cx="-16.657145"
       gradientTransform="matrix(1.2106494,3.8998741e-8,-4.3792597e-8,1.394612,33.249622,36.187002)"
       gradientUnits="userSpaceOnUse"
       id="radialGradient2780"
       xlink:href="#linearGradient14338"
       inkscape:collect="always" />
    <linearGradient
       y2="14.808252"
       x2="15.05364"
       y1="14.808252"
       x1="0.13810679"
       spreadMethod="reflect"
       gradientTransform="matrix(1.0128213,0,0,1,-0.3860158,9.7656251e-2)"
       gradientUnits="userSpaceOnUse"
       id="linearGradient2778"
       xlink:href="#linearGradient54487"
       inkscape:collect="always" />
    <linearGradient
       y2="14.808252"
       x2="15.05364"
       y1="14.808252"
       x1="0.13810679"
       spreadMethod="reflect"
       gradientTransform="matrix(1,0,0,1.0128213,-0.2453883,-29.858745)"
       gradientUnits="userSpaceOnUse"
       id="linearGradient2776"
       xlink:href="#linearGradient54487"
       inkscape:collect="always" />
    <linearGradient
       y2="14.808252"
       x2="15.05364"
       y1="14.808252"
       x1="0.13810679"
       spreadMethod="reflect"
       gradientTransform="matrix(1,0,0,1.0128213,-0.2453883,-29.858745)"
       gradientUnits="userSpaceOnUse"
       id="linearGradient2774"
       xlink:href="#linearGradient54487"
       inkscape:collect="always" />
    <linearGradient
       y2="14.808252"
       x2="15.05364"
       y1="14.808252"
       x1="0.13810679"
       spreadMethod="reflect"
       gradientTransform="matrix(1.0128213,0,0,1,-0.3860158,0)"
       gradientUnits="userSpaceOnUse"
       id="linearGradient2772"
       xlink:href="#linearGradient54487"
       inkscape:collect="always" />
    <radialGradient
       r="14.051131"
       fy="-16.075825"
       fx="-16.657145"
       cy="-16.075825"
       cx="-16.657145"
       gradientTransform="matrix(1.2106494,3.8998741e-8,-4.3792597e-8,1.394612,33.249622,36.187002)"
       gradientUnits="userSpaceOnUse"
       id="radialGradient2770"
       xlink:href="#linearGradient14338"
       inkscape:collect="always" />
    <radialGradient
       r="14.051131"
       fy="-16.075825"
       fx="-16.657145"
       cy="-16.075825"
       cx="-16.657145"
       gradientTransform="matrix(1.2106494,3.8998741e-8,-4.3792597e-8,1.394612,4.0823089,6.3732263)"
       gradientUnits="userSpaceOnUse"
       id="radialGradient2768"
       xlink:href="#linearGradient14338"
       inkscape:collect="always" />
    <radialGradient
       r="14.051131"
       fy="-16.166603"
       fx="-17.173395"
       cy="-16.166603"
       cx="-17.173395"
       gradientTransform="matrix(1.2106494,3.8998741e-8,-4.3792597e-8,1.394612,33.249622,36.187002)"
       gradientUnits="userSpaceOnUse"
       id="radialGradient2766"
       xlink:href="#linearGradient36692"
       inkscape:collect="always" />
    <linearGradient
       gradientTransform="matrix(1,0,0,1.0128213,-0.2453883,-29.858745)"
       y2="14.808252"
       x2="15.05364"
       y1="14.808252"
       x1="0.13810679"
       spreadMethod="reflect"
       gradientUnits="userSpaceOnUse"
       id="linearGradient2764"
       xlink:href="#linearGradient54487"
       inkscape:collect="always" />
    <linearGradient
       gradientTransform="matrix(1.0128213,0,0,1,-0.3860158,0)"
       spreadMethod="reflect"
       gradientUnits="userSpaceOnUse"
       y2="14.808252"
       x2="15.05364"
       y1="14.808252"
       x1="0.13810679"
       id="linearGradient2762"
       xlink:href="#linearGradient54487"
       inkscape:collect="always" />
    <radialGradient
       r="14.051131"
       fy="-16.075825"
       fx="-16.657145"
       cy="-16.075825"
       cx="-16.657145"
       gradientTransform="matrix(1.2106494,3.8998741e-8,-4.3792597e-8,1.394612,33.249622,36.187002)"
       gradientUnits="userSpaceOnUse"
       id="radialGradient2760"
       xlink:href="#linearGradient14338"
       inkscape:collect="always" />
    <radialGradient
       r="14.051131"
       fy="-16.166603"
       fx="-17.173395"
       cy="-16.166603"
       cx="-17.173395"
       gradientTransform="matrix(1.2106494,3.8998741e-8,-4.3792597e-8,1.394612,33.249622,36.187002)"
       gradientUnits="userSpaceOnUse"
       id="radialGradient2758"
       xlink:href="#linearGradient36692"
       inkscape:collect="always" />
    <radialGradient
       r="14.051131"
       fy="-16.075825"
       fx="-16.657145"
       cy="-16.075825"
       cx="-16.657145"
       gradientTransform="matrix(1.2106494,3.8998741e-8,-4.3792597e-8,1.394612,4.0823089,6.3732263)"
       gradientUnits="userSpaceOnUse"
       id="radialGradient2756"
       xlink:href="#linearGradient14338"
       inkscape:collect="always" />
    <radialGradient
       r="14.010153"
       fy="20.024515"
       fx="23.082907"
       cy="20.024515"
       cx="23.082907"
       gradientTransform="matrix(1.518724,1.408519,-1.4502012,1.6006237,-5.1837474,-89.174314)"
       gradientUnits="userSpaceOnUse"
       id="radialGradient2754"
       xlink:href="#linearGradient12924"
       inkscape:collect="always" />
    <radialGradient
       gradientUnits="userSpaceOnUse"
       xlink:href="#linearGradient4177"
       id="radialGradient2752"
       fy="15"
       fx="15"
       r="16"
       cy="15"
       cx="15" />
    <radialGradient
       gradientTransform="matrix(1,0,0,0.9895656,0,0.157532)"
       gradientUnits="userSpaceOnUse"
       xlink:href="#linearGradient5165"
       id="radialGradient2750"
       fy="15.097325"
       fx="15.028969"
       r="6.051754"
       cy="15.097325"
       cx="15.028969" />
    <radialGradient
       gradientUnits="userSpaceOnUse"
       xlink:href="#linearGradient4177"
       id="radialGradient2748"
       fy="15"
       fx="15"
       r="16"
       cy="15"
       cx="15" />
    <radialGradient
       gradientUnits="userSpaceOnUse"
       xlink:href="#linearGradient4177"
       id="radialGradient2746"
       fy="15"
       fx="15"
       r="16"
       cy="15"
       cx="15" />
    <radialGradient
       gradientTransform="matrix(1,0,0,0.9895656,0,0.157532)"
       gradientUnits="userSpaceOnUse"
       xlink:href="#linearGradient5165"
       id="radialGradient2744"
       fy="15.097325"
       fx="15.028969"
       r="6.051754"
       cy="15.097325"
       cx="15.028969" />
    <radialGradient
       gradientUnits="userSpaceOnUse"
       xlink:href="#linearGradient4177"
       id="radialGradient2742"
       fy="15"
       fx="15"
       r="16"
       cy="15"
       cx="15" />
    <radialGradient
       gradientTransform="matrix(1,0,0,0.9895656,0,0.157532)"
       gradientUnits="userSpaceOnUse"
       xlink:href="#linearGradient5165"
       id="radialGradient2740"
       fy="15.097325"
       fx="15.028969"
       r="6.051754"
       cy="15.097325"
       cx="15.028969" />
    <radialGradient
       gradientUnits="userSpaceOnUse"
       xlink:href="#linearGradient4177"
       id="radialGradient2738"
       fy="15"
       fx="15"
       r="16"
       cy="15"
       cx="15" />
    <linearGradient
       id="linearGradient2732">
      <stop
         id="stop2734"
         offset="0"
         style="stop-color:#ffffff;stop-opacity:1" />
      <stop
         id="stop2736"
         offset="1"
         style="stop-color:#ffffff;stop-opacity:0" />
    </linearGradient>
    <linearGradient
       id="linearGradient2724">
      <stop
         id="stop2726"
         offset="0"
         style="stop-color:#ffff00;stop-opacity:1" />
      <stop
         id="stop2728"
         offset="0.5"
         style="stop-color:#ffff00;stop-opacity:1" />
      <stop
         id="stop2730"
         offset="1"
         style="stop-color:#ffffff;stop-opacity:0" />
    </linearGradient>
    <linearGradient
       id="linearGradient2718">
      <stop
         id="stop2720"
         offset="0"
         style="stop-color:#ffff80;stop-opacity:1" />
      <stop
         id="stop2722"
         offset="1"
         style="stop-color:#00ffff;stop-opacity:1" />
    </linearGradient>
    <linearGradient
       id="linearGradient2712">
      <stop
         id="stop2714"
         offset="0"
         style="stop-color:#ffff00;stop-opacity:1" />
      <stop
         id="stop2716"
         offset="1"
         style="stop-color:#ffb900;stop-opacity:1" />
    </linearGradient>
    <linearGradient
       id="linearGradient2706">
      <stop
         id="stop2708"
         offset="0"
         style="stop-color:#f0f0f0;stop-opacity:0.32478634;" />
      <stop
         id="stop2710"
         offset="1"
         style="stop-color:#e6e6e6;stop-opacity:1;" />
    </linearGradient>
    <linearGradient
       id="linearGradient2698">
      <stop
         style="stop-color:#000000;stop-opacity:0;"
         offset="0"
         id="stop2700" />
      <stop
         id="stop2702"
         offset="0.5"
         style="stop-color:#00b9ff;stop-opacity:0;" />
      <stop
         style="stop-color:#6687ac;stop-opacity:1;"
         offset="1"
         id="stop2704" />
    </linearGradient>
    <linearGradient
       id="linearGradient2690">
      <stop
         id="stop2692"
         offset="0"
         style="stop-color:#f0f0f0;stop-opacity:0;" />
      <stop
         style="stop-color:#646464;stop-opacity:0;"
         offset="0.5"
         id="stop2694" />
      <stop
         id="stop2696"
         offset="1"
         style="stop-color:#e6e6e6;stop-opacity:1;" />
    </linearGradient>
    <linearGradient
       id="linearGradient2684">
      <stop
         id="stop2686"
         offset="0"
         style="stop-color:#004e83;stop-opacity:0.31623933;" />
      <stop
         id="stop2688"
         offset="1"
         style="stop-color:#2b646d;stop-opacity:0.75213677;" />
    </linearGradient>
    <linearGradient
       id="linearGradient2676">
      <stop
         id="stop2678"
         offset="0"
         style="stop-color:#f0f0f0;stop-opacity:0.63247865;" />
      <stop
         style="stop-color:#ffffff;stop-opacity:0;"
         offset="0.5"
         id="stop2680" />
      <stop
         id="stop2682"
         offset="1"
         style="stop-color:#ffffff;stop-opacity:0;" />
    </linearGradient>
    <linearGradient
       id="linearGradient2666">
      <stop
         style="stop-color:#ffffff;stop-opacity:0;"
         offset="0"
         id="stop2668" />
      <stop
         id="stop2670"
         offset="0.5"
         style="stop-color:#ffffff;stop-opacity:0;" />
      <stop
         style="stop-color:#000000;stop-opacity:0;"
         offset="0.75"
         id="stop2672" />
      <stop
         style="stop-color:#323632;stop-opacity:1;"
         offset="1"
         id="stop2674" />
    </linearGradient>
    <linearGradient
       id="linearGradient2658">
      <stop
         id="stop2660"
         offset="0"
         style="stop-color:#000000;stop-opacity:0;" />
      <stop
         style="stop-color:#fff7ff;stop-opacity:0;"
         offset="0.5"
         id="stop2662" />
      <stop
         id="stop2664"
         offset="1"
         style="stop-color:#c5efff;stop-opacity:1;" />
    </linearGradient>
    <linearGradient
       id="linearGradient2648">
      <stop
         id="stop2650"
         offset="0"
         style="stop-color:#ffffff;stop-opacity:0.28448275;" />
      <stop
         style="stop-color:#ffffff;stop-opacity:0;"
         offset="0.5"
         id="stop2652" />
      <stop
         id="stop2654"
         offset="0.75"
         style="stop-color:#aeaeae;stop-opacity:0;" />
      <stop
         id="stop2656"
         offset="1"
         style="stop-color:#d6ffff;stop-opacity:1;" />
    </linearGradient>
    <linearGradient
       id="linearGradient2642">
      <stop
         style="stop-color:#000000;stop-opacity:0;"
         offset="0"
         id="stop2644" />
      <stop
         style="stop-color:#323232;stop-opacity:0.95689654;"
         offset="1"
         id="stop2646" />
    </linearGradient>
    <linearGradient
       id="linearGradient2630">
      <stop
         id="stop2632"
         offset="0"
         style="stop-color:#ffffff;stop-opacity:0.64957267;" />
      <stop
         style="stop-color:#c4fdff;stop-opacity:0;"
         offset="0.5"
         id="stop2634" />
      <stop
         id="stop2636"
         offset="0.75"
         style="stop-color:#ffffc3;stop-opacity:0;" />
      <stop
         style="stop-color:#ffffc3;stop-opacity:0;"
         offset="0.875"
         id="stop2638" />
      <stop
         id="stop2640"
         offset="1"
         style="stop-color:#ffffc3;stop-opacity:0;" />
    </linearGradient>
    <linearGradient
       id="linearGradient2618">
      <stop
         style="stop-color:#ffffff;stop-opacity:1;"
         offset="0"
         id="stop2620" />
      <stop
         id="stop2622"
         offset="0.5"
         style="stop-color:#00005e;stop-opacity:0.08235294;" />
      <stop
         style="stop-color:#ffffc3;stop-opacity:0;"
         offset="0.75"
         id="stop2624" />
      <stop
         id="stop2626"
         offset="0.875"
         style="stop-color:#ffffc3;stop-opacity:0;" />
      <stop
         style="stop-color:#ffffc3;stop-opacity:0;"
         offset="1"
         id="stop2628" />
    </linearGradient>
    <linearGradient
       id="linearGradient2606">
      <stop
         id="stop2608"
         offset="0"
         style="stop-color:#ffffff;stop-opacity:1;" />
      <stop
         style="stop-color:#00003f;stop-opacity:0.08235294;"
         offset="0.5"
         id="stop2610" />
      <stop
         id="stop2612"
         offset="0.75"
         style="stop-color:#ffffc3;stop-opacity:0;" />
      <stop
         style="stop-color:#ffffc3;stop-opacity:0;"
         offset="0.875"
         id="stop2614" />
      <stop
         id="stop2616"
         offset="1"
         style="stop-color:#ffffc3;stop-opacity:0;" />
    </linearGradient>
    <linearGradient
       id="linearGradient7194">
      <stop
         id="stop7196"
         offset="0"
         style="stop-color:#ff8b00;stop-opacity:1;" />
      <stop
         id="stop7198"
         offset="1"
         style="stop-color:#ffff00;stop-opacity:1;" />
    </linearGradient>
  </defs>
  <rect
     style="opacity:1;fill:#ffff00;fill-opacity:1;fill-rule:nonzero;stroke:#5a0000;stroke-width:0;stroke-linecap:round;stroke-linejoin:bevel;stroke-miterlimit:4;stroke-dasharray:none;stroke-dashoffset:0;stroke-opacity:0"
     id="rect3168"
     width="0.30456853"
     height="0"
     x="27.639593"
     y="2.4365482"
     ry="0" />
  <path
     id="path50607"
     d="M 0.031034304,30 L 0.031034304,29.842941 C 4.661528,29.834406 8.3748448,29.764149 8.3748448,29.654471 C 8.3748448,29.544793 4.661528,29.443126 0.031034304,29.434589 L 0.031034304,27.864005 C 1.5291461,27.890013 3.195092,27.926828 5.218572,27.926828 C 7.7052029,27.926828 9.9397738,27.901644 11.562368,27.864005 C 13.182914,27.823455 14.187386,27.764628 14.187386,27.706946 C 14.187386,27.591586 10.191834,27.487065 5.218572,27.487065 C 3.195092,27.487065 1.5291461,27.52388 0.031034304,27.549887 L 0.031034304,26.670361 C 0.16428127,26.670496 0.24005678,26.670361 0.3747867,26.670361 C 5.348049,26.670361 9.3436023,26.565839 9.3436023,26.450478 C 9.3436023,26.335118 5.348049,26.230597 0.3747867,26.230597 C 0.24005678,26.230597 0.16428127,26.230461 0.031034304,26.230597 L 0.031034304,23.937543 C 1.6487229,23.991714 4.2128637,24.031779 7.2810868,24.031779 C 12.254349,24.031779 16.249902,23.927257 16.249902,23.811896 C 16.249902,23.696536 12.254349,23.623427 7.2810868,23.623427 C 4.2132957,23.623427 1.6487998,23.632093 0.031034304,23.686249 L 0.031034304,22.900958 C 4.3535188,22.885823 7.8435909,22.817105 7.8435909,22.712487 C 7.8435909,22.60787 4.3535188,22.507739 0.031034304,22.492606 L 0.031034304,21.927195 C 0.11577188,21.927249 0.16446225,21.927195 0.24978591,21.927195 C 5.223048,21.927195 9.2186011,21.854086 9.2186011,21.738725 C 9.2186011,21.623364 5.223048,21.518843 0.24978591,21.518843 C 0.16446926,21.518843 0.11576586,21.518788 0.031034304,21.518843 L 0.031034304,20.764962 C 0.20595556,20.876697 4.0761898,20.984845 8.9373488,20.984845 C 13.910611,20.984845 17.906164,20.880323 17.906164,20.764962 C 17.906164,20.649602 13.910611,20.545081 8.9373488,20.545081 C 4.0750528,20.545081 0.20423757,20.653191 0.031034304,20.764962 L 0.031034304,19.854024 C 0.3175913,19.854658 0.48708254,19.854024 0.78103965,19.854024 C 5.7543018,19.854024 9.7811051,19.780914 9.7811051,19.665553 C 9.7811051,19.550193 5.7543018,19.445672 0.78103965,19.445672 C 0.48708254,19.445672 0.3175913,19.445038 0.031034304,19.445672 L 0.031034304,18.723202 C 1.1596434,18.735021 2.08313,18.754614 3.4060585,18.754614 C 8.3793208,18.754614 12.406123,18.650093 12.406123,18.534732 C 12.406123,18.419372 8.3793208,18.346262 3.4060585,18.346262 C 2.08313,18.346262 1.1596434,18.365855 0.031034304,18.377674 L 0.031034304,16.932736 C 4.4369093,16.919294 7.9685918,16.85025 7.9685918,16.744266 C 7.9685918,16.63828 4.4369093,16.537826 0.031034304,16.524384 L 0.031034304,14.733918 C 0.47491841,14.735472 0.75539142,14.733918 1.2185427,14.733918 C 6.191805,14.733918 10.187358,14.629397 10.187358,14.514036 C 10.187358,14.398675 6.191805,14.294154 1.2185427,14.294154 C 0.75539142,14.294154 0.47491841,14.2926 0.031034304,14.294154 L 0.031034304,13.540273 C 1.6497349,13.577259 3.8501947,13.603097 6.3123299,13.603097 C 11.285592,13.603097 15.281144,13.529988 15.281144,13.414626 C 15.281144,13.299267 11.285592,13.194745 6.3123299,13.194745 C 3.8501947,13.194745 1.6497349,13.220583 0.031034304,13.257568 L 0.031034304,11.749807 C 1.6697891,11.791256 3.966723,11.812631 6.593582,11.812631 C 11.566844,11.812631 15.562396,11.708109 15.562396,11.592748 C 15.562396,11.477389 11.566844,11.404279 6.593582,11.404279 C 3.966723,11.404279 1.6697891,11.425653 0.031034304,11.467102 L 0.031034304,10.399104 C 3.0703311,10.365812 5.499824,10.294045 5.499824,10.210634 C 5.499824,10.127225 3.0703311,10.055458 0.031034304,10.022165 L 0.031034304,8.8599327 C 1.2969922,8.8757179 2.4251655,8.8913443 3.968563,8.8913443 C 8.9418249,8.8913443 12.937377,8.7868234 12.937377,8.6714625 C 12.937377,8.5561027 8.9418249,8.4829924 3.968563,8.4829924 C 2.4251655,8.4829924 1.2969922,8.4986188 0.031034304,8.514404 L 0.031034304,7.8861703 C 1.2305589,7.899911 2.2541472,7.9175819 3.6873105,7.9175819 C 8.6605729,7.9175819 12.656125,7.8130609 12.656125,7.6977001 C 12.656125,7.5823403 8.6605729,7.50923 3.6873105,7.50923 C 2.2541472,7.50923 1.2305589,7.5269009 0.031034304,7.5406417 L 0.031034304,4.7764122 C 1.5765084,4.8389441 4.3449078,4.8706473 7.6873398,4.8706473 C 12.660602,4.8706473 16.687405,4.7661262 16.687405,4.6507654 C 16.687407,4.5354057 12.660602,4.4622952 7.6873398,4.4622952 C 4.3449078,4.4622952 1.5765084,4.4939975 0.031034304,4.5565304 L 0.031034304,3.8654731 C 1.0496965,3.8747409 1.8361032,3.8968848 2.9998057,3.8968848 C 7.9730679,3.8968848 11.968621,3.7923638 11.968621,3.677003 C 11.968621,3.5616432 7.9730679,3.4885329 2.9998057,3.4885329 C 1.8361032,3.4885329 1.0496965,3.5106768 0.031034304,3.5199445 L 0.031034304,1.8865366 C 1.6497349,1.923522 3.8501947,1.94936 6.3123299,1.94936 C 11.285592,1.94936 15.281144,1.844839 15.281144,1.7294781 C 15.281144,1.6141183 11.285592,1.541008 6.3123299,1.541008 C 3.8501947,1.541008 1.6497349,1.566846 0.031034304,1.6038314 L 0.031034304,1.1012442 C 1.263625,1.1159701 2.3564819,1.132656 3.8435617,1.132656 C 8.8168239,1.132656 12.812377,1.0281349 12.812377,0.91277411 C 12.812377,0.79741429 8.8168239,0.69289227 3.8435617,0.69289227 C 2.3564819,0.69289227 1.263625,0.70957817 0.031034304,0.72430396 L 0.031034304,0.0018350681 L 30.000001,0.0018350681 L 30.000001,0.78712735 C 28.424432,0.72749238 25.717214,0.69289227 22.468696,0.69289227 C 17.495435,0.69289227 13.499881,0.79741329 13.499881,0.91277411 C 13.499881,1.0281349 17.495435,1.132656 22.468696,1.132656 C 25.717214,1.132656 28.424432,1.0980558 30.000001,1.0384208 L 30.000001,1.4153612 C 28.734041,1.3995759 27.60587,1.3839495 26.062472,1.3839495 C 21.089211,1.3839495 17.093657,1.4884705 17.093657,1.6038314 C 17.093657,1.7191922 21.089211,1.8237133 26.062472,1.8237133 C 27.60587,1.8237133 28.734042,1.8080868 30.000001,1.7923015 L 30.000001,3.9282965 C 28.942557,3.8405951 25.627339,3.7712381 21.49994,3.7712381 C 16.526678,3.7712381 12.531125,3.8443474 12.531125,3.9597083 C 12.531125,4.075069 16.526678,4.1795901 21.49994,4.1795901 C 25.62583,4.1795901 28.941187,4.1101838 30.000001,4.0225316 L 30.000001,4.493707 C 29.062378,4.4860416 28.365949,4.4622952 27.312481,4.4622952 C 22.33922,4.4622952 18.343667,4.5354046 18.343667,4.6507654 C 18.343667,4.7661262 22.33922,4.8706473 27.312481,4.8706473 C 28.365949,4.8706473 29.062378,4.8469011 30.000001,4.8392356 L 30.000001,5.46747 C 27.399813,5.5038633 25.374967,5.5486619 25.374967,5.6245285 C 25.374967,5.700395 27.399813,5.7766043 30.000001,5.8129986 L 30.000001,7.8861703 C 29.604295,7.8701598 29.245925,7.8677122 28.687492,7.8547586 C 28.095772,7.8402509 27.604894,7.8325422 26.843728,7.8233468 C 25.459143,7.8031218 24.10756,7.7919352 22.343695,7.7919352 C 19.857063,7.7919352 17.597009,7.8220613 15.968649,7.8547586 C 15.157352,7.8735774 14.515444,7.8926526 14.062385,7.9175819 C 13.607165,7.9406587 13.343631,7.9515648 13.343631,7.9804053 C 13.343631,8.0380862 14.346055,8.0998261 15.968649,8.1374638 C 17.597009,8.1780145 19.857065,8.2002871 22.343695,8.2002871 C 24.014911,8.2002871 25.54064,8.1846175 26.843728,8.1688754 C 27.411078,8.1605878 28.215867,8.1484041 28.687492,8.1374638 C 29.108773,8.1271346 29.678639,8.119055 30.000001,8.1060521 L 30.000001,8.828521 C 28.356004,8.7824318 25.948237,8.7656976 23.156201,8.7656976 C 18.182939,8.7656976 14.187386,8.8388069 14.187386,8.9541678 C 14.187386,9.0695286 18.18294,9.1740496 23.156201,9.1740496 C 25.948236,9.1740496 28.356004,9.1573144 30.000001,9.1112262 L 30.000001,11.027339 C 28.50189,11.001331 26.835942,10.964515 24.812463,10.964515 C 19.839202,10.964515 15.843648,11.069036 15.843648,11.184396 C 15.843648,11.299757 19.839201,11.404279 24.812463,11.404279 C 26.835942,11.404279 28.501889,11.367463 30.000001,11.341455 L 30.000001,13.131921 C 28.480298,13.104522 26.769902,13.069098 24.687462,13.069098 C 19.714201,13.069098 15.718648,13.142208 15.718648,13.257568 C 15.718648,13.372929 19.714201,13.47745 24.687462,13.47745 C 26.769902,13.47745 28.480298,13.442027 30.000001,13.414626 L 30.000001,18.220616 C 28.734041,18.204831 27.60587,18.189204 26.062472,18.189204 C 21.089211,18.189204 17.093657,18.293725 17.093657,18.409085 C 17.093657,18.524446 21.089211,18.597556 26.062472,18.597556 C 27.60587,18.597556 28.734042,18.581929 30.000001,18.566144 L 30.000001,23.120839 C 28.430155,23.089548 26.522876,23.058016 24.28121,23.058016 C 19.307947,23.058016 15.281144,23.131125 15.281144,23.246486 C 15.281144,23.361847 19.307948,23.466368 24.28121,23.466368 C 26.522876,23.466368 28.430155,23.434837 30.000001,23.403544 L 30.000001,24.220248 C 28.521956,24.195428 26.940919,24.157425 24.968714,24.157425 C 19.995454,24.157425 15.968649,24.261947 15.968649,24.377307 C 15.968649,24.492668 19.995453,24.565777 24.968714,24.565777 C 26.940882,24.565777 28.521971,24.559187 30.000001,24.534365 L 30.000001,26.042126 C 28.356004,25.996038 25.948237,25.979303 23.156201,25.979303 C 18.18294,25.979303 14.187386,26.052413 14.187386,26.167773 C 14.187386,26.283134 18.18294,26.387655 23.156201,26.387655 C 25.948237,26.387655 28.356004,26.370921 30.000001,26.324832 L 30.000001,27.267182 C 28.50189,27.241174 26.835942,27.204359 24.812463,27.204359 C 19.839202,27.204359 15.843648,27.308881 15.843648,27.424241 C 15.843648,27.539602 19.839201,27.644123 24.812463,27.644123 C 26.835942,27.644123 28.501889,27.607308 30.000001,27.581299 L 30.000001,30 L 0.031034304,30 z M 17.906164,29.026238 C 22.879425,29.026238 26.906229,28.921716 26.906229,28.806355 C 26.906229,28.690995 22.879425,28.617886 17.906164,28.617886 C 12.932902,28.617886 8.9373488,28.690995 8.9373488,28.806355 C 8.9373488,28.921716 12.932902,29.026238 17.906164,29.026238 z M 12.124872,25.413893 C 17.098135,25.413893 21.093687,25.309372 21.093687,25.194011 C 21.093687,25.07865 17.098135,25.005541 12.124872,25.005541 C 7.1516099,25.005541 3.1248065,25.07865 3.1248065,25.194011 C 3.1248065,25.309372 7.1516099,25.413893 12.124872,25.413893 z M 18.593669,22.366959 C 23.566932,22.366959 27.593733,22.262438 27.593733,22.147077 C 27.593732,22.031716 23.566931,21.927195 18.593669,21.927195 C 13.620408,21.927195 9.6248543,22.031716 9.6248543,22.147077 C 9.6248543,22.262437 13.620407,22.366959 18.593669,22.366959 z M 19.718677,20.419434 C 24.691939,20.419434 28.687492,20.314913 28.687492,20.199552 C 28.687491,20.084191 24.691938,20.011082 19.718677,20.011082 C 14.745416,20.011082 10.749863,20.084191 10.749863,20.199552 C 10.749863,20.314912 14.745415,20.419434 19.718677,20.419434 z M 19.437424,19.320025 C 24.410687,19.320025 28.406239,19.215504 28.406239,19.100143 C 28.406239,18.984782 24.410687,18.880261 19.437424,18.880261 C 14.464163,18.880261 10.46861,18.984782 10.46861,19.100143 C 10.46861,19.215504 14.464163,19.320025 19.437424,19.320025 z M 10.999864,17.623793 C 15.973126,17.623793 19.999928,17.550684 19.999928,17.435323 C 19.999928,17.319963 15.973126,17.215441 10.999864,17.215441 C 6.0266019,17.215441 2.0310487,17.319963 2.0310487,17.435323 C 2.0310487,17.550684 6.0266019,17.623793 10.999864,17.623793 z M 18.593669,16.241679 C 23.566932,16.241679 27.593733,16.16857 27.593733,16.053208 C 27.593732,15.937848 23.566931,15.833327 18.593669,15.833327 C 13.620408,15.833327 9.6248543,15.937848 9.6248543,16.053208 C 9.6248543,16.16857 13.620407,16.241679 18.593669,16.241679 z M 18.343667,15.267917 C 23.316928,15.267917 27.312481,15.194807 27.312481,15.079446 C 27.312481,14.964086 23.316928,14.859565 18.343667,14.859565 C 13.370405,14.859565 9.3436023,14.964086 9.3436023,15.079446 C 9.3436023,15.194807 13.370405,15.267917 18.343667,15.267917 z M 19.031173,14.294154 C 24.004432,14.294154 27.999987,14.221045 27.999987,14.105684 C 27.999988,13.990323 24.004433,13.885802 19.031173,13.885802 C 14.057909,13.885802 10.031106,13.990323 10.031106,14.105684 C 10.031106,14.221045 14.05791,14.294154 19.031173,14.294154 z M 14.74989,12.378041 C 19.723153,12.378041 23.718706,12.27352 23.718706,12.158159 C 23.718706,12.0428 19.723153,11.938277 14.74989,11.938277 C 9.7766284,11.938277 5.7498259,12.042799 5.7498259,12.158159 C 5.7498259,12.27352 9.7766284,12.378041 14.74989,12.378041 z M 16.531153,10.273458 C 21.504417,10.273458 25.499968,10.200348 25.499968,10.084988 C 25.499967,9.9696289 21.504416,9.8651068 16.531153,9.8651068 C 11.557893,9.8651068 7.5623388,9.9696279 7.5623388,10.084988 C 7.5623388,10.200348 11.557892,10.273458 16.531153,10.273458 z M 16.531153,7.1008779 C 21.504417,7.1008779 25.499968,6.996357 25.499968,6.8809961 C 25.499967,6.7656363 21.504416,6.6611143 16.531153,6.6611143 C 11.557893,6.6611143 7.5623388,6.7656353 7.5623388,6.8809961 C 7.5623388,6.996357 11.557892,7.1008779 16.531153,7.1008779 z M 13.499881,5.8444103 C 18.473144,5.8444103 22.468696,5.7398893 22.468696,5.6245285 C 22.468695,5.5091686 18.473144,5.4360583 13.499881,5.4360583 C 8.5266198,5.4360583 4.531067,5.5091676 4.531067,5.6245285 C 4.531067,5.7398893 8.5266198,5.8444103 13.499881,5.8444103 z M 12.656125,3.0487691 C 17.629388,3.0487691 21.656191,2.9756598 21.656191,2.860299 C 21.656191,2.7449393 17.629388,2.6404172 12.656125,2.6404172 C 7.6828637,2.6404172 3.6873105,2.7449383 3.6873105,2.860299 C 3.6873105,2.9756598 7.6828637,3.0487691 12.656125,3.0487691 z "
     style="opacity:0.45698924;fill:#ffffc3;fill-opacity:0.8064516;fill-rule:nonzero;stroke:#5a0000;stroke-width:0;stroke-linecap:round;stroke-linejoin:bevel;stroke-miterlimit:4;stroke-dasharray:none;stroke-dashoffset:0;stroke-opacity:0" />
  <rect
     style="fill:#0094c0;fill-opacity:1;fill-rule:nonzero;stroke:#5a0000;stroke-width:0;stroke-linecap:round;stroke-linejoin:bevel;stroke-miterlimit:4;stroke-dasharray:none;stroke-dashoffset:0;stroke-opacity:0"
     id="rect2184"
     width="29.909126"
     height="29.862076"
     x="0"
     y="2.0417177e-15" />
  <path
     style="opacity:0.13978493;fill:#ffffff;fill-opacity:0.62365591;fill-rule:nonzero;stroke:#5a0000;stroke-width:0;stroke-linecap:round;stroke-linejoin:bevel;stroke-miterlimit:4;stroke-dasharray:none;stroke-dashoffset:0;stroke-opacity:0"
     d="M 0,0.137925 L 0,0.294271 C 4.6212474,0.302768 8.3271509,0.372705 8.3271509,0.481886 C 8.3271509,0.591066 4.6212474,0.692272 0,0.700771 L 0,2.264231 C 1.495121,2.23834 3.1577409,2.201692 5.1771797,2.201692 C 7.6588455,2.201692 9.888955,2.226763 11.508308,2.264231 C 13.12562,2.304596 14.128087,2.363157 14.128087,2.420577 C 14.128087,2.535413 10.140512,2.639461 5.1771797,2.639461 C 3.1577409,2.639461 1.495121,2.602812 0,2.576922 L 0,3.45246 C 0.1329811,3.452325 0.20860358,3.45246 0.3430662,3.45246 C 5.3063978,3.45246 9.293973,3.556507 9.293973,3.671344 C 9.293973,3.78618 5.3063978,3.890228 0.3430662,3.890228 C 0.20860358,3.890228 0.1329811,3.890362 0,3.890228 L 0,6.172879 C 1.6144589,6.118954 4.1734795,6.079071 7.2355759,6.079071 C 12.198908,6.079071 16.186483,6.183118 16.186483,6.297956 C 16.186483,6.412793 12.198908,6.485571 7.2355759,6.485571 C 4.1739103,6.485571 1.6145356,6.476944 0,6.423033 L 0,7.204762 C 4.3138533,7.219827 7.7969567,7.288234 7.7969567,7.392377 C 7.7969567,7.49652 4.3138533,7.596197 0,7.611262 L 0,8.174107 C 0.08456835,8.174053 0.13316119,8.174107 0.21831458,8.174107 C 5.1816472,8.174107 9.1692225,8.246885 9.1692225,8.361722 C 9.1692225,8.47656 5.1816472,8.580606 0.21831458,8.580606 C 0.13316716,8.580606 0.08456238,8.58066 0,8.580606 L 0,9.331067 C 0.17457227,9.21984 4.0370776,9.112183 8.8885316,9.112183 C 13.851864,9.112183 17.839438,9.21623 17.839438,9.331067 C 17.839438,9.445904 13.851864,9.549951 8.8885316,9.549951 C 4.0359434,9.549951 0.17285692,9.442331 0,9.331067 L 0,10.237874 C 0.2859842,10.237243 0.4551378,10.237874 0.7485077,10.237874 C 5.7118403,10.237874 9.730603,10.310651 9.730603,10.425488 C 9.730603,10.540326 5.7118403,10.644373 0.7485077,10.644373 C 0.4551378,10.644373 0.2859842,10.645005 0,10.644373 L 0,11.363564 C 1.1263555,11.351799 2.0479987,11.332295 3.3682857,11.332295 C 8.3316173,11.332295 12.350381,11.436342 12.350381,11.551179 C 12.350381,11.666017 8.3316173,11.738795 3.3682857,11.738795 C 2.0479987,11.738795 1.1263555,11.719291 0,11.707525 L 0,13.145908 C 4.3970773,13.159289 7.9217083,13.228019 7.9217083,13.333523 C 7.9217083,13.439028 4.3970773,13.539026 0,13.552407 L 0,15.334751 C 0.442998,15.333204 0.7229109,15.334751 1.1851379,15.334751 C 6.1484695,15.334751 10.136045,15.438798 10.136045,15.553635 C 10.136045,15.668473 6.1484695,15.77252 1.1851379,15.77252 C 0.7229109,15.77252 0.442998,15.774067 0,15.77252 L 0,16.52298 C 1.6154688,16.486163 3.8115355,16.460442 6.2687536,16.460442 C 11.232086,16.460442 15.219661,16.533219 15.219661,16.648057 C 15.219661,16.762894 11.232086,16.866941 6.2687536,16.866941 C 3.8115355,16.866941 1.6154688,16.84122 0,16.804403 L 0,18.305324 C 1.6354828,18.264062 3.9278298,18.242785 6.5494445,18.242785 C 11.512776,18.242785 15.500351,18.346832 15.500351,18.461669 C 15.500351,18.576506 11.512776,18.649285 6.5494445,18.649285 C 3.9278298,18.649285 1.6354828,18.628008 0,18.586747 L 0,19.649899 C 3.0332281,19.68304 5.4578696,19.754482 5.4578696,19.837514 C 5.4578696,19.920546 3.0332281,19.991987 0,20.025129 L 0,21.182089 C 1.2634299,21.166375 2.3893505,21.15082 3.9296665,21.15082 C 8.8929981,21.15082 12.880575,21.254866 12.880575,21.369704 C 12.880575,21.484541 8.8929981,21.55732 3.9296665,21.55732 C 2.3893505,21.55732 1.2634299,21.541763 0,21.52605 L 0,22.151433 C 1.1971294,22.137756 2.2186746,22.120165 3.6489766,22.120165 C 8.6123082,22.120165 12.599884,22.224211 12.599884,22.339049 C 12.599884,22.453886 8.6123082,22.526664 3.6489766,22.526664 C 2.2186746,22.526664 1.1971294,22.509074 0,22.495395 L 0,25.247083 C 1.5423886,25.184834 4.3052596,25.153276 7.6410185,25.153276 C 12.604351,25.153276 16.623114,25.257323 16.623114,25.37216 C 16.623115,25.486996 12.604351,25.559775 7.6410185,25.559775 C 4.3052596,25.559775 1.5423886,25.528217 0,25.465967 L 0,26.15389 C 1.0166281,26.144664 1.8014655,26.122621 2.9628442,26.122621 C 7.9261758,26.122621 11.913751,26.226668 11.913751,26.341505 C 11.913751,26.456341 7.9261758,26.52912 2.9628442,26.52912 C 1.8014655,26.52912 1.0166281,26.507077 0,26.49785 L 0,28.123848 C 1.6154688,28.087031 3.8115355,28.06131 6.2687536,28.06131 C 11.232086,28.06131 15.219661,28.165357 15.219661,28.280194 C 15.219661,28.395031 11.232086,28.46781 6.2687536,28.46781 C 3.8115355,28.46781 1.6154688,28.442089 0,28.405272 L 0,28.905579 C 1.2301299,28.89092 2.3208054,28.874309 3.8049149,28.874309 C 8.7682465,28.874309 12.755823,28.978356 12.755823,29.093193 C 12.755823,29.20803 8.7682465,29.312078 3.8049149,29.312078 C 2.3208054,29.312078 1.2301299,29.295468 0,29.280809 L 0,30 L 29.909127,30 L 29.909127,29.218271 C 28.336705,29.277634 25.634891,29.312078 22.392861,29.312078 C 17.42953,29.312078 13.441954,29.208031 13.441954,29.093193 C 13.441954,28.978356 17.42953,28.874309 22.392861,28.874309 C 25.634891,28.874309 28.336705,28.908752 29.909127,28.968117 L 29.909127,28.592886 C 28.645697,28.608601 27.519778,28.624156 25.979462,28.624156 C 21.01613,28.624156 17.028555,28.520109 17.028555,28.405272 C 17.028555,28.290434 21.01613,28.186388 25.979462,28.186388 C 27.519778,28.186388 28.645698,28.201943 29.909127,28.217656 L 29.909127,26.091352 C 28.853794,26.178655 25.545196,26.247698 21.426039,26.247698 C 16.462706,26.247698 12.475131,26.17492 12.475131,26.060082 C 12.475131,25.945245 16.462706,25.841198 21.426039,25.841198 C 25.543691,25.841198 28.852429,25.910289 29.909127,25.997544 L 29.909127,25.528507 C 28.973376,25.536136 28.278338,25.559775 27.226974,25.559775 C 22.263642,25.559775 18.276069,25.486997 18.276069,25.37216 C 18.276069,25.257323 22.263642,25.153276 27.226974,25.153276 C 28.278338,25.153276 28.973376,25.176915 29.909127,25.184545 L 29.909127,24.559162 C 27.314132,24.522932 25.293328,24.478338 25.293328,24.402816 C 25.293328,24.327293 27.314132,24.251429 29.909127,24.2152 L 29.909127,22.151433 C 29.514214,22.167372 29.156558,22.169809 28.59924,22.182703 C 28.008701,22.197145 27.518804,22.204819 26.759157,22.213973 C 25.377338,22.234106 24.028453,22.245241 22.26811,22.245241 C 19.786443,22.245241 17.5309,22.215252 15.905793,22.182703 C 15.096115,22.16397 14.45549,22.144981 14.003336,22.120165 C 13.549023,22.097193 13.286015,22.086336 13.286015,22.057627 C 13.286015,22.000207 14.286438,21.938748 15.905793,21.901281 C 17.5309,21.860913 19.786445,21.838742 22.26811,21.838742 C 23.93599,21.838742 25.458671,21.854341 26.759157,21.870011 C 27.325374,21.878261 28.128556,21.89039 28.59924,21.901281 C 29.019679,21.911562 29.588409,21.919605 29.909127,21.932549 L 29.909127,21.213358 C 28.268414,21.259238 25.865455,21.275896 23.078993,21.275896 C 18.11566,21.275896 14.128087,21.203119 14.128087,21.088282 C 14.128087,20.973444 18.115661,20.869397 23.078993,20.869397 C 25.865454,20.869397 28.268414,20.886057 29.909127,20.931936 L 29.909127,19.024515 C 28.414007,19.050405 26.751388,19.087054 24.731948,19.087054 C 19.768618,19.087054 15.781042,18.983007 15.781042,18.868169 C 15.781042,18.753331 19.768618,18.649285 24.731948,18.649285 C 26.751388,18.649285 28.414007,18.685934 29.909127,18.711823 L 29.909127,16.929479 C 28.39246,16.956755 26.685477,16.992018 24.607198,16.992018 C 19.643865,16.992018 15.65629,16.919241 15.65629,16.804403 C 15.65629,16.689565 19.643865,16.585519 24.607198,16.585519 C 26.685477,16.585519 28.39246,16.620781 29.909127,16.648057 L 29.909127,11.863871 C 28.645697,11.879584 27.519778,11.895141 25.979462,11.895141 C 21.01613,11.895141 17.028555,11.791093 17.028555,11.676257 C 17.028555,11.561419 21.01613,11.488641 25.979462,11.488641 C 27.519778,11.488641 28.645698,11.504196 29.909127,11.51991 L 29.909127,6.985878 C 28.342416,7.017028 26.438946,7.048416 24.201756,7.048416 C 19.238423,7.048416 15.219661,6.975639 15.219661,6.860801 C 15.219661,6.745964 19.238424,6.641917 24.201756,6.641917 C 26.438946,6.641917 28.342416,6.673305 29.909127,6.704455 L 29.909127,5.891456 C 28.434035,5.916164 26.856155,5.953995 24.887888,5.953995 C 19.924557,5.953995 15.905793,5.849947 15.905793,5.73511 C 15.905793,5.620273 19.924556,5.547495 24.887888,5.547495 C 26.856117,5.547495 28.434049,5.554056 29.909127,5.578764 L 29.909127,4.077843 C 28.268414,4.123723 25.865455,4.140382 23.078993,4.140382 C 18.115661,4.140382 14.128087,4.067603 14.128087,3.952767 C 14.128087,3.837929 18.115661,3.733882 23.078993,3.733882 C 25.865455,3.733882 28.268414,3.750541 29.909127,3.796421 L 29.909127,2.858345 C 28.414007,2.884235 26.751388,2.920883 24.731948,2.920883 C 19.768618,2.920883 15.781042,2.816836 15.781042,2.701999 C 15.781042,2.587162 19.768618,2.483115 24.731948,2.483115 C 26.751388,2.483115 28.414007,2.519762 29.909127,2.545653 L 29.909127,0.137925 L 0,0.137925 z M 17.839438,1.10727 C 22.80277,1.10727 26.821533,1.211317 26.821533,1.326155 C 26.821533,1.440991 22.80277,1.51377 17.839438,1.51377 C 12.876107,1.51377 8.8885316,1.440991 8.8885316,1.326155 C 8.8885316,1.211317 12.876107,1.10727 17.839438,1.10727 z M 12.069691,4.703227 C 17.033022,4.703227 21.020597,4.807274 21.020597,4.922112 C 21.020597,5.036949 17.033022,5.109727 12.069691,5.109727 C 7.1063578,5.109727 3.0875958,5.036948 3.0875958,4.922112 C 3.0875958,4.807274 7.1063578,4.703227 12.069691,4.703227 z M 18.525572,7.736338 C 23.488903,7.736338 27.507665,7.840385 27.507665,7.955223 C 27.507663,8.07006 23.488902,8.174107 18.525572,8.174107 C 13.56224,8.174107 9.574663,8.07006 9.574663,7.955223 C 9.574663,7.840386 13.56224,7.736338 18.525572,7.736338 z M 19.648332,9.675028 C 24.611665,9.675028 28.59924,9.779075 28.59924,9.893912 C 28.599239,10.00875 24.611664,10.081527 19.648332,10.081527 C 14.685001,10.081527 10.697426,10.00875 10.697426,9.893912 C 10.697426,9.779076 14.685001,9.675028 19.648332,9.675028 z M 19.367642,10.76945 C 24.330973,10.76945 28.318549,10.873496 28.318549,10.988334 C 28.318549,11.103171 24.330973,11.207218 19.367642,11.207218 C 14.40431,11.207218 10.416735,11.103171 10.416735,10.988334 C 10.416735,10.873496 14.40431,10.76945 19.367642,10.76945 z M 10.946929,12.457986 C 15.91026,12.457986 19.929023,12.530764 19.929023,12.6456 C 19.929023,12.760438 15.91026,12.864485 10.946929,12.864485 C 5.9835962,12.864485 1.9960209,12.760438 1.9960209,12.6456 C 1.9960209,12.530764 5.9835962,12.457986 10.946929,12.457986 z M 18.525572,13.83383 C 23.488903,13.83383 27.507665,13.906608 27.507665,14.021445 C 27.507663,14.136282 23.488902,14.24033 18.525572,14.24033 C 13.56224,14.24033 9.574663,14.136282 9.574663,14.021445 C 9.574663,13.906608 13.56224,13.83383 18.525572,13.83383 z M 18.276069,14.803175 C 23.239401,14.803175 27.226974,14.875953 27.226974,14.99079 C 27.226974,15.105627 23.239401,15.209675 18.276069,15.209675 C 13.312736,15.209675 9.293973,15.105627 9.293973,14.99079 C 9.293973,14.875953 13.312736,14.803175 18.276069,14.803175 z M 18.9622,15.77252 C 23.925531,15.77252 27.913107,15.845297 27.913107,15.960134 C 27.913109,16.074972 23.925532,16.179019 18.9622,16.179019 C 13.998866,16.179019 9.980105,16.074972 9.980105,15.960134 C 9.980105,15.845297 13.998868,15.77252 18.9622,15.77252 z M 14.689466,17.67994 C 19.6528,17.67994 23.640374,17.783987 23.640374,17.898824 C 23.640374,18.013661 19.6528,18.117709 14.689466,18.117709 C 9.726135,18.117709 5.7073729,18.013662 5.7073729,17.898824 C 5.7073729,17.783987 9.726135,17.67994 14.689466,17.67994 z M 16.467174,19.774976 C 21.430508,19.774976 25.41808,19.847754 25.41808,19.962591 C 25.41808,20.077428 21.430507,20.181475 16.467174,20.181475 C 11.503843,20.181475 7.5162668,20.077429 7.5162668,19.962591 C 7.5162668,19.847754 11.503841,19.774976 16.467174,19.774976 z M 16.467174,22.933164 C 21.430508,22.933164 25.41808,23.03721 25.41808,23.152048 C 25.41808,23.266884 21.430507,23.370932 16.467174,23.370932 C 11.503843,23.370932 7.5162668,23.266885 7.5162668,23.152048 C 7.5162668,23.03721 11.503841,22.933164 16.467174,22.933164 z M 13.441954,24.183931 C 18.405286,24.183931 22.392861,24.287978 22.392861,24.402816 C 22.392859,24.517652 18.405286,24.59043 13.441954,24.59043 C 8.4786227,24.59043 4.4910483,24.517653 4.4910483,24.402816 C 4.4910483,24.287978 8.4786227,24.183931 13.441954,24.183931 z M 12.599884,26.966889 C 17.563215,26.966889 21.581978,27.039666 21.581978,27.154504 C 21.581978,27.26934 17.563215,27.373389 12.599884,27.373389 C 7.6365509,27.373389 3.6489766,27.269341 3.6489766,27.154504 C 3.6489766,27.039666 7.6365509,26.966889 12.599884,26.966889 z "
     id="rect47548"
     inkscape:export-xdpi="90"
     inkscape:export-ydpi="90" />
  <path
     id="path46577"
     d="M 29.909127,30 L 29.909127,29.534858 L 26.624129,29.534858 C 24.511757,29.534858 22.807275,29.456172 22.807275,29.348802 C 22.807275,29.241433 24.511757,29.162746 26.624129,29.162746 L 29.909127,29.162746 L 29.909127,27.023096 C 27.865232,27.019205 26.217415,26.910904 26.217415,26.806029 C 26.217415,26.701155 27.865232,26.623862 29.909127,26.619973 L 29.909127,24.387295 C 29.509622,24.394479 29.200681,24.387295 28.751557,24.387295 L 16.643993,24.387295 C 14.53162,24.387295 12.827137,24.308608 12.827137,24.201238 C 12.827137,24.093868 14.53162,24.015181 16.643993,24.015181 L 28.751557,24.015181 C 29.20078,24.015181 29.509546,24.039002 29.909127,24.046191 L 29.909127,20.232032 L 20.554705,20.232032 C 18.442334,20.232032 16.737848,20.153345 16.737848,20.045976 C 16.737848,19.938606 18.442334,19.859919 20.554705,19.859919 L 29.909127,19.859919 L 29.909127,18.681561 L 26.40513,18.681561 C 24.292758,18.681561 22.619559,18.602874 22.619559,18.495504 C 22.619559,18.388134 24.292758,18.309448 26.40513,18.309448 L 29.909127,18.309448 L 29.909127,14.216204 C 29.734062,14.217445 29.621847,14.216204 29.439842,14.216204 L 17.332276,14.216204 C 15.219905,14.216204 13.515421,14.137518 13.515421,14.030148 C 13.515421,13.922777 15.219905,13.844091 17.332276,13.844091 L 29.439842,13.844091 C 29.621847,13.844091 29.734062,13.84285 29.909127,13.844091 L 29.909127,11.301318 L 21.430704,11.301318 C 19.318332,11.301318 17.613849,11.222632 17.613849,11.115262 C 17.613849,11.007893 19.318332,10.929206 21.430704,10.929206 L 29.909127,10.929206 L 29.909127,8.665517 L 19.271991,8.665517 C 17.159619,8.665517 15.455135,8.555821 15.455135,8.448451 C 15.455135,8.341081 17.159619,8.262394 19.271991,8.262394 L 29.909127,8.262394 L 29.909127,7.611196 C 29.572515,7.61611 29.339079,7.642206 28.970557,7.642206 L 16.831705,7.642206 C 14.719334,7.642206 13.014852,7.563519 13.014852,7.456149 C 13.014852,7.348779 14.719334,7.239083 16.831705,7.239083 L 28.970557,7.239083 C 29.339079,7.239083 29.572515,7.265179 29.909127,7.270093 L 29.909127,6.33981 C 29.452647,6.349591 29.091936,6.37082 28.563842,6.37082 L 16.456278,6.37082 C 14.343905,6.37082 12.639424,6.292133 12.639424,6.184763 C 12.639424,6.077393 14.343905,5.998706 16.456278,5.998706 L 28.563842,5.998706 C 29.092007,5.998706 29.452598,6.019932 29.909127,6.029716 L 29.909127,4.448235 L 22.807275,4.448235 C 20.694904,4.448235 18.990418,4.338539 18.990418,4.231169 C 18.990418,4.123799 20.694904,4.045113 22.807275,4.045113 L 29.909127,4.045113 L 29.909127,3.08382 L 20.836275,3.08382 C 18.723904,3.08382 17.019421,3.005133 17.019421,2.897763 C 17.019421,2.790393 18.723904,2.680697 20.836275,2.680697 L 29.909127,2.680697 L 29.909127,0.137925 L 0,0.137925 L 0,0.696095 L 6.663855,0.696095 C 8.776226,0.696095 10.480708,0.805791 10.480708,0.913161 C 10.480708,1.020531 8.776226,1.099217 6.663855,1.099217 L 0,1.099217 L 0,3.362906 L 8.321998,3.362906 C 10.434367,3.362906 12.138851,3.441592 12.138851,3.548962 C 12.138851,3.656332 10.434367,3.766028 8.321998,3.766028 L 0,3.766028 L 0,5.223471 L 9.980138,5.223471 C 12.092509,5.223471 13.796993,5.302157 13.796993,5.409528 C 13.796993,5.516898 12.092509,5.595584 9.980138,5.595584 L 0,5.595584 L 0,10.929206 L 10.073994,10.929206 C 12.186367,10.929206 13.89085,11.007893 13.89085,11.115262 C 13.89085,11.222632 12.186367,11.301318 10.073994,11.301318 L 0,11.301318 L 0,13.596016 L 7.445997,13.596016 C 9.558369,13.596016 11.262851,13.674702 11.262851,13.782072 C 11.262851,13.889442 9.558369,13.968129 7.445997,13.968129 L 0,13.968129 L 0,17.317147 L 9.886282,17.317147 C 11.998651,17.317147 13.703137,17.426842 13.703137,17.534212 C 13.703137,17.641582 11.998651,17.720269 9.886282,17.720269 L 0,17.720269 L 0,20.045976 L 9.886282,20.045976 C 11.998651,20.045976 13.703137,20.124663 13.703137,20.232032 C 13.703137,20.339402 11.998651,20.418088 9.886282,20.418088 L 0,20.418088 L 0,21.286352 C 0.012106,21.286346 0.019152,21.286352 0.031286,21.286352 L 12.138851,21.286352 C 14.251221,21.286352 15.955707,21.396048 15.955707,21.503418 C 15.955707,21.610789 14.251221,21.689475 12.138851,21.689475 L 0.031286,21.689475 C 0.019152,21.689475 0.012106,21.689481 0,21.689475 L 0,23.146918 L 7.633712,23.146918 C 9.746083,23.146918 11.450566,23.225604 11.450566,23.332974 C 11.450566,23.440344 9.746083,23.519031 7.633712,23.519031 L 0,23.519031 L 0,27.085114 C 0.616536,27.063355 1.254162,27.023096 2.064857,27.023096 L 14.203707,27.023096 C 16.316079,27.023096 18.020561,27.101782 18.020561,27.209152 C 18.020561,27.316522 16.316079,27.395209 14.203707,27.395209 L 2.064857,27.395209 C 1.254162,27.395209 0.616536,27.35495 0,27.333189 L 0,30 L 29.909127,30 z M 19.960276,28.666595 L 7.852711,28.666595 C 5.74034,28.666595 4.035856,28.587908 4.035856,28.480538 C 4.035856,28.373168 5.74034,28.263473 7.852711,28.263473 L 19.960276,28.263473 C 22.072647,28.263473 23.777131,28.373168 23.777131,28.480538 C 23.777131,28.587908 22.072647,28.666595 19.960276,28.666595 z M 17.801562,25.751709 L 5.693999,25.751709 C 3.581627,25.751709 1.877143,25.673023 1.877143,25.565653 C 1.877143,25.458283 3.581627,25.379596 5.693999,25.379596 L 17.801562,25.379596 C 19.913934,25.379596 21.618418,25.458283 21.618418,25.565653 C 21.618418,25.673023 19.913934,25.751709 17.801562,25.751709 z M 26.029701,22.464711 L 13.89085,22.464711 C 11.778479,22.464711 10.073994,22.386024 10.073994,22.278654 C 10.073994,22.171284 11.778479,22.061588 13.89085,22.061588 L 26.029701,22.061588 C 28.142073,22.061588 29.846555,22.171284 29.846555,22.278654 C 29.846555,22.386024 28.142073,22.464711 26.029701,22.464711 z M 24.65313,16.262826 L 12.545565,16.262826 C 10.433195,16.262826 8.728711,16.18414 8.728711,16.07677 C 8.728711,15.9694 10.433195,15.859703 12.545565,15.859703 L 24.65313,15.859703 C 26.765502,15.859703 28.469985,15.9694 28.469985,16.07677 C 28.469985,16.18414 26.765502,16.262826 24.65313,16.262826 z M 16.237277,13.161884 L 4.129713,13.161884 C 2.017343,13.161884 0.312858,13.083197 0.312858,12.975827 C 0.312858,12.868457 2.017343,12.758762 4.129713,12.758762 L 16.237277,12.758762 C 18.34965,12.758762 20.054132,12.868457 20.054132,12.975827 C 20.054132,13.083197 18.34965,13.161884 16.237277,13.161884 z M 17.801562,1.99849 L 5.693999,1.99849 C 3.581627,1.99849 1.877143,1.919803 1.877143,1.812434 C 1.877143,1.705063 3.581627,1.626377 5.693999,1.626377 L 17.801562,1.626377 C 19.913934,1.626377 21.618418,1.705063 21.618418,1.812434 C 21.618418,1.919803 19.913934,1.99849 17.801562,1.99849 z "
     style="opacity:0.19892476;fill:#bbffff;fill-opacity:1;fill-rule:nonzero;stroke:#5a0000;stroke-width:0;stroke-linecap:round;stroke-linejoin:bevel;stroke-miterlimit:4;stroke-dasharray:none;stroke-dashoffset:0;stroke-opacity:0" />
  <path
     style="opacity:0.47311826;fill:#ffe4ff;fill-opacity:0.45161288;fill-rule:nonzero;stroke:#5a0000;stroke-width:0;stroke-linecap:round;stroke-linejoin:bevel;stroke-miterlimit:4;stroke-dasharray:none;stroke-dashoffset:0;stroke-opacity:0"
     d="M 0,0.137925 L 0,0.603066 L 3.2849977,0.603066 C 5.3973696,0.603066 7.1018534,0.681752 7.1018534,0.789122 C 7.1018534,0.896492 5.3973696,0.975179 3.2849977,0.975179 L 0,0.975179 L 0,3.114829 C 2.043895,3.118719 3.6917119,3.227019 3.6917119,3.331896 C 3.6917119,3.43677 2.043895,3.514061 0,3.517952 L 0,5.750629 C 0.3995048,5.743443 0.7084469,5.750629 1.1575708,5.750629 L 13.265136,5.750629 C 15.377507,5.750629 17.081991,5.829316 17.081991,5.936687 C 17.081991,6.044056 15.377507,6.122743 13.265136,6.122743 L 1.1575708,6.122743 C 0.7083471,6.122743 0.3995806,6.098921 0,6.091733 L 0,9.905894 L 9.3544232,9.905894 C 11.466794,9.905894 13.171278,9.984579 13.171278,10.09195 C 13.171278,10.19932 11.466794,10.278007 9.3544232,10.278007 L 0,10.278007 L 0,11.456365 L 3.503998,11.456365 C 5.61637,11.456365 7.2895674,11.535052 7.2895674,11.642422 C 7.2895674,11.749792 5.61637,11.828478 3.503998,11.828478 L 0,11.828478 L 0,15.921722 C 0.1750666,15.920481 0.2872807,15.921722 0.4692852,15.921722 L 12.576851,15.921722 C 14.689222,15.921722 16.393707,16.000409 16.393707,16.107778 C 16.393707,16.215149 14.689222,16.293835 12.576851,16.293835 L 0.4692852,16.293835 C 0.2872807,16.293835 0.1750666,16.295076 0,16.293835 L 0,18.836609 L 8.4784247,18.836609 C 10.590796,18.836609 12.295279,18.915295 12.295279,19.022665 C 12.295279,19.130034 10.590796,19.208721 8.4784247,19.208721 L 0,19.208721 L 0,21.472409 L 10.637138,21.472409 C 12.749508,21.472409 14.453991,21.582105 14.453991,21.689475 C 14.453991,21.796845 12.749508,21.875531 10.637138,21.875531 L 0,21.875531 L 0,22.526729 C 0.3366124,22.521815 0.5700468,22.49572 0.9385705,22.49572 L 13.077423,22.49572 C 15.189792,22.49572 16.894277,22.574406 16.894277,22.681776 C 16.894277,22.789147 15.189792,22.898843 13.077423,22.898843 L 0.9385705,22.898843 C 0.5700468,22.898843 0.3366124,22.872747 0,22.867833 L 0,23.798116 C 0.4564802,23.788335 0.8171925,23.767107 1.3452847,23.767107 L 13.452849,23.767107 C 15.565221,23.767107 17.269705,23.845793 17.269705,23.953163 C 17.269705,24.060534 15.565221,24.139219 13.452849,24.139219 L 1.3452847,24.139219 C 0.8171206,24.139219 0.4565291,24.117994 0,24.108211 L 0,25.68969 L 7.1018534,25.68969 C 9.2142244,25.68969 10.918709,25.799388 10.918709,25.906757 C 10.918709,26.014127 9.2142244,26.092813 7.1018534,26.092813 L 0,26.092813 L 0,27.054105 L 9.0728518,27.054105 C 11.185223,27.054105 12.889708,27.132792 12.889708,27.240162 C 12.889708,27.347532 11.185223,27.457227 9.0728518,27.457227 L 0,27.457227 L 0,30 L 29.909127,30 L 29.909127,29.441831 L 23.245274,29.441831 C 21.132902,29.441831 19.428419,29.332136 19.428419,29.224765 C 19.428419,29.117395 21.132902,29.038709 23.245274,29.038709 L 29.909127,29.038709 L 29.909127,26.77502 L 21.587131,26.77502 C 19.47476,26.77502 17.770277,26.696334 17.770277,26.588964 C 17.770277,26.481595 19.47476,26.371898 21.587131,26.371898 L 29.909127,26.371898 L 29.909127,24.914455 L 19.92899,24.914455 C 17.816619,24.914455 16.112134,24.835768 16.112134,24.728398 C 16.112134,24.621029 17.816619,24.542341 19.92899,24.542341 L 29.909127,24.542341 L 29.909127,19.208721 L 19.835132,19.208721 C 17.722761,19.208721 16.018278,19.130034 16.018278,19.022665 C 16.018278,18.915295 17.722761,18.836609 19.835132,18.836609 L 29.909127,18.836609 L 29.909127,16.541911 L 22.46313,16.541911 C 20.350758,16.541911 18.646276,16.463225 18.646276,16.355855 C 18.646276,16.248485 20.350758,16.169798 22.46313,16.169798 L 29.909127,16.169798 L 29.909127,12.82078 L 20.022847,12.82078 C 17.910475,12.82078 16.205993,12.711084 16.205993,12.603715 C 16.205993,12.496344 17.910475,12.417658 20.022847,12.417658 L 29.909127,12.417658 L 29.909127,10.09195 L 20.022847,10.09195 C 17.910475,10.09195 16.205993,10.013264 16.205993,9.905894 C 16.205993,9.798522 17.910475,9.719837 20.022847,9.719837 L 29.909127,9.719837 L 29.909127,8.851572 C 29.897021,8.851577 29.889974,8.851572 29.877841,8.851572 L 17.770277,8.851572 C 15.657904,8.851572 13.953422,8.741876 13.953422,8.634506 C 13.953422,8.527136 15.657904,8.448449 17.770277,8.448449 L 29.877841,8.448449 C 29.889974,8.448449 29.897021,8.448443 29.909127,8.448449 L 29.909127,6.991007 L 22.275418,6.991007 C 20.163045,6.991007 18.458561,6.91232 18.458561,6.804951 C 18.458561,6.697579 20.163045,6.618894 22.275418,6.618894 L 29.909127,6.618894 L 29.909127,3.052811 C 29.292591,3.074571 28.654964,3.114829 27.844271,3.114829 L 15.705421,3.114829 C 13.593049,3.114829 11.888565,3.036143 11.888565,2.928773 C 11.888565,2.821401 13.593049,2.742716 15.705421,2.742716 L 27.844271,2.742716 C 28.654964,2.742716 29.292591,2.782975 29.909127,2.804735 L 29.909127,0.137925 L 0,0.137925 z M 9.9488534,1.47133 L 22.056416,1.47133 C 24.168788,1.47133 25.873273,1.550016 25.873273,1.657387 C 25.873273,1.764756 24.168788,1.874452 22.056416,1.874452 L 9.9488534,1.874452 C 7.8364814,1.874452 6.1319965,1.764756 6.1319965,1.657387 C 6.1319965,1.550016 7.8364814,1.47133 9.9488534,1.47133 z M 12.107566,4.386216 L 24.215129,4.386216 C 26.3275,4.386216 28.031985,4.464901 28.031985,4.572272 C 28.031985,4.679641 26.3275,4.758329 24.215129,4.758329 L 12.107566,4.758329 C 9.9951946,4.758329 8.2907108,4.679641 8.2907108,4.572272 C 8.2907108,4.464901 9.9951946,4.386216 12.107566,4.386216 z M 3.8794268,7.673214 L 16.018278,7.673214 C 18.130649,7.673214 19.835132,7.7519 19.835132,7.859271 C 19.835132,7.966641 18.130649,8.076336 16.018278,8.076336 L 3.8794268,8.076336 C 1.7670558,8.076336 0.062571,7.966641 0.062571,7.859271 C 0.062571,7.7519 1.7670558,7.673214 3.8794268,7.673214 z M 5.255997,13.875101 L 17.363561,13.875101 C 19.475933,13.875101 21.180417,13.953787 21.180417,14.061156 C 21.180417,14.168527 19.475933,14.278224 17.363561,14.278224 L 5.255997,14.278224 C 3.143626,14.278224 1.4391421,14.168527 1.4391421,14.061156 C 1.4391421,13.953787 3.143626,13.875101 5.255997,13.875101 z M 13.67185,16.976043 L 25.779415,16.976043 C 27.891786,16.976043 29.59627,17.05473 29.59627,17.1621 C 29.59627,17.269469 27.891786,17.379165 25.779415,17.379165 L 13.67185,17.379165 C 11.559479,17.379165 9.8549949,17.269469 9.8549949,17.1621 C 9.8549949,17.05473 11.559479,16.976043 13.67185,16.976043 z M 12.107566,28.139435 L 24.215129,28.139435 C 26.3275,28.139435 28.031985,28.218122 28.031985,28.325492 C 28.031985,28.432861 26.3275,28.511549 24.215129,28.511549 L 12.107566,28.511549 C 9.9951946,28.511549 8.2907108,28.432861 8.2907108,28.325492 C 8.2907108,28.218122 9.9951946,28.139435 12.107566,28.139435 z "
     id="rect44549" />
  <g
     id="g3325">
    <rect
       transform="matrix(0,-1,-1,0,0,0)"
       style="opacity:1;fill:#ff0000;fill-opacity:1;fill-rule:nonzero;stroke:#5a0000;stroke-width:0;stroke-linecap:round;stroke-linejoin:bevel;stroke-miterlimit:4;stroke-dasharray:none;stroke-dashoffset:0;stroke-opacity:0"
       id="rect2352"
       width="27.871271"
       height="27.915184"
       x="-29"
       y="-28.915184"
       ry="12.716405"
       rx="12.696403" />
    <text
       id="text2284"
       y="19.453125"
       x="0.88671875"
       style="font-size:12px;font-style:italic;font-weight:normal;fill:#ffffff;fill-opacity:1;stroke:none;stroke-width:1px;stroke-linecap:butt;stroke-linejoin:miter;stroke-opacity:1;font-family:ae_Rasheeq"
       xml:space="preserve"><tspan
         y="19.453125"
         x="0.88671875"
         id="tspan2286"
         sodipodi:role="line">Con</tspan></text>
  </g>
  <rect
     rx="12.696403"
     ry="12.716405"
     y="1"
     x="1.1287289"
     height="27.915184"
     width="27.871271"
     id="rect34740"
     style="opacity:0.14516129;fill:url(#radialGradient2350);fill-opacity:1;fill-rule:nonzero;stroke:#5a0000;stroke-width:0;stroke-linecap:round;stroke-linejoin:bevel;stroke-miterlimit:4;stroke-dasharray:none;stroke-dashoffset:0;stroke-opacity:0"
     transform="matrix(0,1,1,0,0,0)" />
  <rect
     rx="12.696403"
     ry="12.716405"
     y="1"
     x="1.1287289"
     height="27.915184"
     width="27.871271"
     id="rect44545"
     style="opacity:0.33870969;fill:url(#radialGradient2347);fill-opacity:1;fill-rule:nonzero;stroke:#5a0000;stroke-width:0;stroke-linecap:round;stroke-linejoin:bevel;stroke-miterlimit:4;stroke-dasharray:none;stroke-dashoffset:0;stroke-opacity:0"
     transform="matrix(0,1,1,0,0,0)" />
  <rect
     transform="matrix(0,-1,-1,0,0,0)"
     style="opacity:0.33870969;fill:url(#radialGradient2344);fill-opacity:1;fill-rule:nonzero;stroke:#5a0000;stroke-width:0;stroke-linecap:round;stroke-linejoin:bevel;stroke-miterlimit:4;stroke-dasharray:none;stroke-dashoffset:0;stroke-opacity:0"
     id="rect7090"
     width="27.871271"
     height="27.915184"
     x="-29"
     y="-28.915184"
     ry="12.716405"
     rx="12.696403" />
  <g
     id="g2836"
     transform="matrix(1.1999862,0,0,1.1999943,1.720215e-4,-3.9367482e-8)">
    <rect
       ry="0"
       y="2.4365482"
       x="27.639593"
       height="0"
       width="0.30456853"
       id="rect2838"
       style="opacity:1;fill:#ffff00;fill-opacity:1;fill-rule:nonzero;stroke:#5a0000;stroke-width:0;stroke-linecap:round;stroke-linejoin:bevel;stroke-miterlimit:4;stroke-dasharray:none;stroke-dashoffset:0;stroke-opacity:0" />
    <g
       id="g2612">
      <rect
         style="opacity:0.5;fill:#000000;fill-opacity:1;fill-rule:nonzero;stroke:#000000;stroke-width:0.09051152;stroke-linecap:round;stroke-linejoin:bevel;stroke-miterlimit:4;stroke-dasharray:none;stroke-dashoffset:0;stroke-opacity:0"
         id="rect3282"
         width="24.875288"
         height="24.875111"
         x="0.062356647"
         y="0.062509134" />
      <g
         id="g2291"
         transform="translate(-30,-2)">
        <rect
           inkscape:export-ydpi="90"
           inkscape:export-xdpi="90"
           inkscape:export-filename="/home/ian/Vector stuff/FreeDroid/bbb.png"
           transform="matrix(0,-1,-1,0,0,0)"
           style="opacity:0.5;fill:url(#linearGradient2296);fill-opacity:1;fill-rule:nonzero;stroke:#5a0000;stroke-width:0;stroke-linecap:round;stroke-linejoin:bevel;stroke-miterlimit:4;stroke-dasharray:none;stroke-dashoffset:0;stroke-opacity:0"
           id="rect54501"
           width="25"
           height="25"
           x="-27"
           y="-55"
           rx="0"
           ry="0" />
        <rect
           ry="0"
           rx="0"
           y="-27"
           x="30"
           height="25"
           width="25"
           id="rect6255"
           style="opacity:0.47849462;fill:url(#linearGradient2298);fill-opacity:1;fill-rule:nonzero;stroke:#5a0000;stroke-width:0;stroke-linecap:round;stroke-linejoin:bevel;stroke-miterlimit:4;stroke-dasharray:none;stroke-dashoffset:0;stroke-opacity:0"
           transform="scale(1,-1)"
           inkscape:export-filename="/home/ian/Vector stuff/FreeDroid/bbb.png"
           inkscape:export-xdpi="90"
           inkscape:export-ydpi="90" />
      </g>
    </g>
  </g>
</svg>
