<?xml version="1.0" encoding="UTF-8" standalone="no"?>
<!-- Created with Inkscape (http://www.inkscape.org/) -->

<svg
   xmlns:dc="http://purl.org/dc/elements/1.1/"
   xmlns:cc="http://creativecommons.org/ns#"
   xmlns:rdf="http://www.w3.org/1999/02/22-rdf-syntax-ns#"
   xmlns:svg="http://www.w3.org/2000/svg"
   xmlns="http://www.w3.org/2000/svg"
   xmlns:sodipodi="http://sodipodi.sourceforge.net/DTD/sodipodi-0.dtd"
   xmlns:inkscape="http://www.inkscape.org/namespaces/inkscape"
   width="600"
   height="600"
   id="svg2"
   version="1.1"
   inkscape:version="0.47 r22583"
   sodipodi:docname="ccircuit.svg"
   inkscape:export-filename="/home/kompi/stuff/ccircuit.png"
   inkscape:export-xdpi="90"
   inkscape:export-ydpi="90">
  <defs
     id="defs4">
    <inkscape:perspective
       sodipodi:type="inkscape:persp3d"
       inkscape:vp_x="0 : 526.18109 : 1"
       inkscape:vp_y="0 : 1000 : 0"
       inkscape:vp_z="744.09448 : 526.18109 : 1"
       inkscape:persp3d-origin="372.04724 : 350.78739 : 1"
       id="perspective10" />
    <inkscape:perspective
       id="perspective3600"
       inkscape:persp3d-origin="0.5 : 0.33333333 : 1"
       inkscape:vp_z="1 : 0.5 : 1"
       inkscape:vp_y="0 : 1000 : 0"
       inkscape:vp_x="0 : 0.5 : 1"
       sodipodi:type="inkscape:persp3d" />
    <filter
       inkscape:collect="always"
       id="filter3650">
      <feGaussianBlur
         inkscape:collect="always"
         stdDeviation="0.54642857"
         id="feGaussianBlur3652" />
    </filter>
    <inkscape:perspective
       id="perspective3662"
       inkscape:persp3d-origin="0.5 : 0.33333333 : 1"
       inkscape:vp_z="1 : 0.5 : 1"
       inkscape:vp_y="0 : 1000 : 0"
       inkscape:vp_x="0 : 0.5 : 1"
       sodipodi:type="inkscape:persp3d" />
    <filter
       color-interpolation-filters="sRGB"
       inkscape:collect="always"
       id="filter3650-9">
      <feGaussianBlur
         inkscape:collect="always"
         stdDeviation="0.54642857"
         id="feGaussianBlur3652-9" />
    </filter>
    <inkscape:perspective
       id="perspective3742"
       inkscape:persp3d-origin="0.5 : 0.33333333 : 1"
       inkscape:vp_z="1 : 0.5 : 1"
       inkscape:vp_y="0 : 1000 : 0"
       inkscape:vp_x="0 : 0.5 : 1"
       sodipodi:type="inkscape:persp3d" />
    <inkscape:perspective
       id="perspective3742-5"
       inkscape:persp3d-origin="0.5 : 0.33333333 : 1"
       inkscape:vp_z="1 : 0.5 : 1"
       inkscape:vp_y="0 : 1000 : 0"
       inkscape:vp_x="0 : 0.5 : 1"
       sodipodi:type="inkscape:persp3d" />
    <inkscape:perspective
       id="perspective3809"
       inkscape:persp3d-origin="0.5 : 0.33333333 : 1"
       inkscape:vp_z="1 : 0.5 : 1"
       inkscape:vp_y="0 : 1000 : 0"
       inkscape:vp_x="0 : 0.5 : 1"
       sodipodi:type="inkscape:persp3d" />
    <filter
       color-interpolation-filters="sRGB"
       inkscape:collect="always"
       id="filter3650-0">
      <feGaussianBlur
         inkscape:collect="always"
         stdDeviation="0.54642857"
         id="feGaussianBlur3652-3" />
    </filter>
    <inkscape:perspective
       id="perspective4022"
       inkscape:persp3d-origin="0.5 : 0.33333333 : 1"
       inkscape:vp_z="1 : 0.5 : 1"
       inkscape:vp_y="0 : 1000 : 0"
       inkscape:vp_x="0 : 0.5 : 1"
       sodipodi:type="inkscape:persp3d" />
    <inkscape:perspective
       id="perspective4022-8"
       inkscape:persp3d-origin="0.5 : 0.33333333 : 1"
       inkscape:vp_z="1 : 0.5 : 1"
       inkscape:vp_y="0 : 1000 : 0"
       inkscape:vp_x="0 : 0.5 : 1"
       sodipodi:type="inkscape:persp3d" />
    <inkscape:perspective
       id="perspective4060"
       inkscape:persp3d-origin="0.5 : 0.33333333 : 1"
       inkscape:vp_z="1 : 0.5 : 1"
       inkscape:vp_y="0 : 1000 : 0"
       inkscape:vp_x="0 : 0.5 : 1"
       sodipodi:type="inkscape:persp3d" />
    <inkscape:perspective
       id="perspective4082"
       inkscape:persp3d-origin="0.5 : 0.33333333 : 1"
       inkscape:vp_z="1 : 0.5 : 1"
       inkscape:vp_y="0 : 1000 : 0"
       inkscape:vp_x="0 : 0.5 : 1"
       sodipodi:type="inkscape:persp3d" />
    <inkscape:perspective
       id="perspective4241"
       inkscape:persp3d-origin="0.5 : 0.33333333 : 1"
       inkscape:vp_z="1 : 0.5 : 1"
       inkscape:vp_y="0 : 1000 : 0"
       inkscape:vp_x="0 : 0.5 : 1"
       sodipodi:type="inkscape:persp3d" />
    <inkscape:perspective
       id="perspective4278"
       inkscape:persp3d-origin="0.5 : 0.33333333 : 1"
       inkscape:vp_z="1 : 0.5 : 1"
       inkscape:vp_y="0 : 1000 : 0"
       inkscape:vp_x="0 : 0.5 : 1"
       sodipodi:type="inkscape:persp3d" />
    <inkscape:perspective
       id="perspective4401"
       inkscape:persp3d-origin="0.5 : 0.33333333 : 1"
       inkscape:vp_z="1 : 0.5 : 1"
       inkscape:vp_y="0 : 1000 : 0"
       inkscape:vp_x="0 : 0.5 : 1"
       sodipodi:type="inkscape:persp3d" />
    <inkscape:perspective
       id="perspective4429"
       inkscape:persp3d-origin="0.5 : 0.33333333 : 1"
       inkscape:vp_z="1 : 0.5 : 1"
       inkscape:vp_y="0 : 1000 : 0"
       inkscape:vp_x="0 : 0.5 : 1"
       sodipodi:type="inkscape:persp3d" />
    <filter
       inkscape:collect="always"
       id="filter4507">
      <feGaussianBlur
         inkscape:collect="always"
         stdDeviation="2.8326449"
         id="feGaussianBlur4509" />
    </filter>
    <filter
       inkscape:collect="always"
       id="filter4511">
      <feGaussianBlur
         inkscape:collect="always"
         stdDeviation="1.0742806"
         id="feGaussianBlur4513" />
    </filter>
    <filter
       inkscape:collect="always"
       id="filter4515">
      <feGaussianBlur
         inkscape:collect="always"
         stdDeviation="1.0741073"
         id="feGaussianBlur4517" />
    </filter>
    <filter
       inkscape:collect="always"
       id="filter4519">
      <feGaussianBlur
         inkscape:collect="always"
         stdDeviation="0.81557499"
         id="feGaussianBlur4521" />
    </filter>
    <filter
       inkscape:collect="always"
       id="filter4527">
      <feGaussianBlur
         inkscape:collect="always"
         stdDeviation="1.7474578"
         id="feGaussianBlur4529" />
    </filter>
    <filter
       inkscape:collect="always"
       id="filter4531">
      <feGaussianBlur
         inkscape:collect="always"
         stdDeviation="0.52831406"
         id="feGaussianBlur4533" />
    </filter>
    <filter
       inkscape:collect="always"
       id="filter4535">
      <feGaussianBlur
         inkscape:collect="always"
         stdDeviation="1.0742806"
         id="feGaussianBlur4537" />
    </filter>
    <filter
       inkscape:collect="always"
       id="filter4555">
      <feGaussianBlur
         inkscape:collect="always"
         stdDeviation="0.88571426"
         id="feGaussianBlur4557" />
    </filter>
    <filter
       inkscape:collect="always"
       id="filter4571">
      <feGaussianBlur
         inkscape:collect="always"
         stdDeviation="0.2197656"
         id="feGaussianBlur4573" />
    </filter>
    <filter
       inkscape:collect="always"
       id="filter4579">
      <feGaussianBlur
         inkscape:collect="always"
         stdDeviation="0.2197656"
         id="feGaussianBlur4581" />
    </filter>
    <filter
       inkscape:collect="always"
       id="filter4587">
      <feGaussianBlur
         inkscape:collect="always"
         stdDeviation="0.2197656"
         id="feGaussianBlur4589" />
    </filter>
    <filter
       inkscape:collect="always"
       id="filter4635">
      <feGaussianBlur
         inkscape:collect="always"
         stdDeviation="1.5221503"
         id="feGaussianBlur4637" />
    </filter>
    <filter
       inkscape:collect="always"
       id="filter4639">
      <feGaussianBlur
         inkscape:collect="always"
         stdDeviation="1.4353446"
         id="feGaussianBlur4641" />
    </filter>
    <filter
       inkscape:collect="always"
       id="filter4643">
      <feGaussianBlur
         inkscape:collect="always"
         stdDeviation="1.3738536"
         id="feGaussianBlur4645" />
    </filter>
    <filter
       inkscape:collect="always"
       id="filter4651">
      <feGaussianBlur
         inkscape:collect="always"
         stdDeviation="0.44285713"
         id="feGaussianBlur4653" />
    </filter>
    <filter
       inkscape:collect="always"
       id="filter4655">
      <feGaussianBlur
         inkscape:collect="always"
         stdDeviation="1.1153654"
         id="feGaussianBlur4657" />
    </filter>
    <filter
       inkscape:collect="always"
       id="filter4659">
      <feGaussianBlur
         inkscape:collect="always"
         stdDeviation="1.1153654"
         id="feGaussianBlur4661" />
    </filter>
    <filter
       inkscape:collect="always"
       id="filter4663">
      <feGaussianBlur
         inkscape:collect="always"
         stdDeviation="1.1081999"
         id="feGaussianBlur4665" />
    </filter>
    <filter
       inkscape:collect="always"
       id="filter4699">
      <feGaussianBlur
         inkscape:collect="always"
         stdDeviation="1.2936832"
         id="feGaussianBlur4701" />
    </filter>
    <filter
       inkscape:collect="always"
       id="filter4709">
      <feGaussianBlur
         inkscape:collect="always"
         stdDeviation="1.4047"
         id="feGaussianBlur4711" />
    </filter>
    <filter
       inkscape:collect="always"
       id="filter4717">
      <feGaussianBlur
         inkscape:collect="always"
         stdDeviation="1.4928794"
         id="feGaussianBlur4719" />
    </filter>
    <filter
       inkscape:collect="always"
       id="filter4729">
      <feGaussianBlur
         inkscape:collect="always"
         stdDeviation="1.1798286"
         id="feGaussianBlur4731" />
    </filter>
    <filter
       inkscape:collect="always"
       id="filter4741">
      <feGaussianBlur
         inkscape:collect="always"
         stdDeviation="1.2002824"
         id="feGaussianBlur4743" />
    </filter>
    <filter
       inkscape:collect="always"
       id="filter4749">
      <feGaussianBlur
         inkscape:collect="always"
         stdDeviation="1.2722562"
         id="feGaussianBlur4751" />
    </filter>
    <filter
       inkscape:collect="always"
       id="filter4761">
      <feGaussianBlur
         inkscape:collect="always"
         stdDeviation="1.3009357"
         id="feGaussianBlur4763" />
    </filter>
    <filter
       inkscape:collect="always"
       id="filter4773">
      <feGaussianBlur
         inkscape:collect="always"
         stdDeviation="0.42907475"
         id="feGaussianBlur4775" />
    </filter>
    <filter
       inkscape:collect="always"
       id="filter4785">
      <feGaussianBlur
         inkscape:collect="always"
         stdDeviation="0.39228375"
         id="feGaussianBlur4787" />
    </filter>
    <filter
       inkscape:collect="always"
       id="filter4793">
      <feGaussianBlur
         inkscape:collect="always"
         stdDeviation="0.46478925"
         id="feGaussianBlur4795" />
    </filter>
    <filter
       inkscape:collect="always"
       id="filter4805">
      <feGaussianBlur
         inkscape:collect="always"
         stdDeviation="0.39228375"
         id="feGaussianBlur4807" />
    </filter>
    <filter
       inkscape:collect="always"
       id="filter4813">
      <feGaussianBlur
         inkscape:collect="always"
         stdDeviation="0.68194175"
         id="feGaussianBlur4815" />
    </filter>
    <filter
       inkscape:collect="always"
       id="filter4821">
      <feGaussianBlur
         inkscape:collect="always"
         stdDeviation="0.68194175"
         id="feGaussianBlur4823" />
    </filter>
  </defs>
  <sodipodi:namedview
     id="base"
     pagecolor="#333333"
     bordercolor="#666666"
     borderopacity="1.0"
     inkscape:pageopacity="1"
     inkscape:pageshadow="2"
     inkscape:zoom="0.585"
     inkscape:cx="369.38958"
     inkscape:cy="406.24363"
     inkscape:document-units="px"
     inkscape:current-layer="layer1"
     showgrid="false"
     showguides="true"
     inkscape:guide-bbox="true"
     inkscape:window-width="1255"
     inkscape:window-height="944"
     inkscape:window-x="0"
     inkscape:window-y="0"
     inkscape:window-maximized="0" />
  <metadata
     id="metadata7">
    <rdf:RDF>
      <cc:Work
         rdf:about="">
        <dc:format>image/svg+xml</dc:format>
        <dc:type
           rdf:resource="http://purl.org/dc/dcmitype/StillImage" />
        <dc:title></dc:title>
      </cc:Work>
    </rdf:RDF>
  </metadata>
  <g
     inkscape:label="Layer 1"
     inkscape:groupmode="layer"
     id="layer1"
     transform="translate(0,-452.36218)">
    <path
       style="fill:#01e400;fill-opacity:1;stroke:#000000;stroke-width:1px;stroke-linecap:butt;stroke-linejoin:miter;stroke-opacity:0;filter:url(#filter4527)"
       d="m 601.42857,950.9336 -184.28572,0 -80.82593,-139.6587 c -5,6.78571 -18.32556,12.56134 -25.46842,14.7042 l 92.15194,159.27591 199.8567,0 -1.42857,-34.32141 z"
       id="path2816"
       sodipodi:nodetypes="ccccccc" />
    <path
       sodipodi:type="arc"
       style="fill:#01e400;fill-opacity:1;fill-rule:nonzero;stroke:none;filter:url(#filter4535)"
       id="path2818-0"
       sodipodi:cx="322.67856"
       sodipodi:cy="239.82143"
       sodipodi:rx="71.607147"
       sodipodi:ry="71.607147"
       d="m 358.64395,301.74133 a 71.607147,71.607147 0 1 1 0.8244,-0.48624 l -36.78979,-61.43366 z"
       transform="translate(-31.964272,520.04075)"
       sodipodi:start="1.0445862"
       sodipodi:end="7.3144053" />
    <path
       sodipodi:type="arc"
       style="fill:#afffaf;fill-opacity:1;fill-rule:nonzero;stroke:#000000;stroke-width:0.34576273;stroke-linecap:round;stroke-linejoin:miter;stroke-miterlimit:4;stroke-opacity:1;stroke-dasharray:none;filter:url(#filter3650)"
       id="path2818"
       sodipodi:cx="322.67856"
       sodipodi:cy="239.82143"
       sodipodi:rx="27.321428"
       sodipodi:ry="27.321428"
       d="m 349.99999,239.82143 a 27.321428,27.321428 0 1 1 -54.64286,0 27.321428,27.321428 0 1 1 54.64286,0 z"
       transform="matrix(1.1568627,0,0,1.1568627,-82.22337,482.42169)" />
    <path
       style="fill:#01e400;fill-opacity:1;stroke:#000000;stroke-width:1px;stroke-linecap:butt;stroke-linejoin:miter;stroke-opacity:0;filter:url(#filter4507)"
       d="m 86.79675,490.08929 0.0764,182.98163 -8.521388,8.09492 -97.414812,0.0137 0.63488,34.92005 120.58342,-0.15652 23.60878,-25.91542 -0.16303,-182.75993 261.26033,2e-5 80.82593,139.65868 c 5,-6.78571 18.32556,-12.56134 25.46842,-14.7042 l -87.65626,-151.50552 -11.10282,-7.77036 -287.31449,0"
       id="path2816-2"
       sodipodi:nodetypes="cccccccccccccc" />
    <path
       sodipodi:type="arc"
       style="fill:#01e400;fill-opacity:1;fill-rule:nonzero;stroke:none;filter:url(#filter4511)"
       id="path2818-0-5"
       sodipodi:cx="322.67856"
       sodipodi:cy="239.82143"
       sodipodi:rx="71.607147"
       sodipodi:ry="71.607147"
       d="m 358.64395,301.74133 a 71.607147,71.607147 0 1 1 0.8244,-0.48624 l -36.78979,-61.43366 z"
       transform="matrix(-1,0,0,-1,835.96846,938.16057)"
       sodipodi:start="1.0445862"
       sodipodi:end="7.3144053" />
    <path
       sodipodi:type="arc"
       style="fill:#afffaf;fill-opacity:1;fill-rule:nonzero;stroke:#000000;stroke-width:0.34576273;stroke-linecap:round;stroke-linejoin:miter;stroke-miterlimit:4;stroke-opacity:1;stroke-dasharray:none;filter:url(#filter3650-9)"
       id="path2818-3"
       sodipodi:cx="322.67856"
       sodipodi:cy="239.82143"
       sodipodi:rx="27.321428"
       sodipodi:ry="27.321428"
       d="m 349.99999,239.82143 a 27.321428,27.321428 0 1 1 -54.64286,0 27.321428,27.321428 0 1 1 54.64286,0 z"
       transform="matrix(-1.1568627,0,0,-1.1568627,886.22756,975.77967)" />
    <path
       style="fill:none;stroke:#4cff4c;stroke-width:1px;stroke-linecap:butt;stroke-linejoin:miter;stroke-opacity:1;filter:url(#filter4659)"
       d="m -25.714286,769.50504 180.000006,0 49.96933,-186.48808 120.03067,0 145.66104,252.29232 144.33896,0"
       id="path3716" />
    <path
       style="fill:none;stroke:#4cff4c;stroke-width:1px;stroke-linecap:butt;stroke-linejoin:miter;stroke-opacity:1;filter:url(#filter4663)"
       d="m -19.067001,793.23141 187.416011,0 50.62903,-186.22358 93.32053,0 143.97274,246.2314 164.9902,0"
       id="path3716-7"
       sodipodi:nodetypes="cccccc" />
    <path
       style="fill:none;stroke:#4cff4c;stroke-width:1px;stroke-linecap:butt;stroke-linejoin:miter;stroke-opacity:1;filter:url(#filter4655)"
       d="m -27.994125,751.06949 168.888325,0 49.96933,-186.48808 148.31494,0 145.66104,252.29232 127.16637,0"
       id="path3716-3"
       sodipodi:nodetypes="cccccc" />
    <path
       style="fill:#01e400;fill-opacity:1;stroke:#000000;stroke-width:1px;stroke-linecap:butt;stroke-linejoin:miter;stroke-opacity:0;filter:url(#filter4519)"
       d="m -22.342715,984.50504 161.360935,-0.16797 c -3.3766,-7.72298 -1.71566,-26.04844 0,-33.30576 l -184.012935,0.16798 22.652,33.30575 z"
       id="path2816-4"
       sodipodi:nodetypes="ccccc" />
    <path
       sodipodi:type="arc"
       style="fill:#01e400;fill-opacity:1;fill-rule:nonzero;stroke:none;filter:url(#filter4515)"
       id="path2818-0-6"
       sodipodi:cx="322.67856"
       sodipodi:cy="239.82143"
       sodipodi:rx="71.607147"
       sodipodi:ry="71.607147"
       d="m 358.64395,301.74133 a 71.607147,71.607147 0 1 1 0.8244,-0.48624 l -36.78979,-61.43366 z"
       transform="matrix(-0.5,0.8660254,-0.8660254,-0.5,575.37489,807.11591)"
       sodipodi:start="1.0445862"
       sodipodi:end="7.3144053" />
    <path
       sodipodi:type="arc"
       style="fill:#afffaf;fill-opacity:1;fill-rule:nonzero;stroke:#000000;stroke-width:0.34576273;stroke-linecap:round;stroke-linejoin:miter;stroke-miterlimit:4;stroke-opacity:1;stroke-dasharray:none;filter:url(#filter3650-0)"
       id="path2818-36"
       sodipodi:cx="322.67856"
       sodipodi:cy="239.82143"
       sodipodi:rx="27.321428"
       sodipodi:ry="27.321428"
       d="m 349.99999,239.82143 a 27.321428,27.321428 0 1 1 -54.64286,0 27.321428,27.321428 0 1 1 54.64286,0 z"
       transform="matrix(-0.57843135,1.0018725,-1.0018725,-0.57843135,633.08359,782.39978)" />
    <path
       style="fill:none;stroke:#4cff4c;stroke-width:1px;stroke-linecap:butt;stroke-linejoin:miter;stroke-opacity:1;filter:url(#filter4639)"
       d="m -15.714286,835.17938 222.857146,0 100.56638,58.06203 0,192.65229"
       id="path3837" />
    <path
       style="fill:none;stroke:#4cff4c;stroke-width:1px;stroke-linecap:butt;stroke-linejoin:miter;stroke-opacity:1;filter:url(#filter4635)"
       d="m -20,816.7441 233.57143,0 109.5744,63.2628 0,202.4515"
       id="path3839" />
    <path
       style="fill:none;stroke:#4cff4c;stroke-width:1px;stroke-linecap:butt;stroke-linejoin:miter;stroke-opacity:1"
       d="m 607.85714,418.57143 -177.14285,0"
       id="path3988"
       transform="translate(0,452.36218)" />
    <path
       sodipodi:type="arc"
       style="fill:#4cff4c;fill-opacity:1;stroke:none"
       id="path3990"
       sodipodi:cx="432.21902"
       sodipodi:cy="429.66302"
       sodipodi:rx="10.985409"
       sodipodi:ry="10.985409"
       d="m 442.37146,433.85914 a 10.985409,10.985409 0 1 1 0.0149,-0.0362"
       transform="matrix(0.68973646,0,0,0.68973646,125.13669,574.55928)"
       sodipodi:start="0.39192847"
       sodipodi:end="6.671551"
       sodipodi:open="true" />
    <path
       style="fill:none;stroke:#4cff4c;stroke-width:1px;stroke-linecap:butt;stroke-linejoin:miter;stroke-opacity:1"
       d="m 622.63568,895.80861 -177.14285,0"
       id="path3988-4" />
    <path
       sodipodi:type="arc"
       style="fill:#4cff4c;fill-opacity:1;stroke:none"
       id="path3990-9"
       sodipodi:cx="432.21902"
       sodipodi:cy="429.66302"
       sodipodi:rx="10.985409"
       sodipodi:ry="10.985409"
       d="m 442.37146,433.85914 a 10.985409,10.985409 0 1 1 0.0149,-0.0362"
       transform="matrix(0.68973646,0,0,0.68973646,139.91523,599.43428)"
       sodipodi:start="0.39192847"
       sodipodi:end="6.671551"
       sodipodi:open="true" />
    <path
       style="fill:none;stroke:#4cff4c;stroke-width:1px;stroke-linecap:butt;stroke-linejoin:miter;stroke-opacity:1"
       d="m 642.83873,917.02182 -177.14285,0"
       id="path3988-1" />
    <path
       sodipodi:type="arc"
       style="fill:#4cff4c;fill-opacity:1;stroke:none"
       id="path3990-6"
       sodipodi:cx="432.21902"
       sodipodi:cy="429.66302"
       sodipodi:rx="10.985409"
       sodipodi:ry="10.985409"
       d="m 442.37146,433.85914 a 10.985409,10.985409 0 1 1 0.0149,-0.0362"
       transform="matrix(0.68973646,0,0,0.68973646,160.11828,620.64749)"
       sodipodi:start="0.39192847"
       sodipodi:end="6.671551"
       sodipodi:open="true" />
    <path
       style="fill:none;stroke:#4cff4c;stroke-width:1px;stroke-linecap:butt;stroke-linejoin:miter;stroke-opacity:1;filter:url(#filter4643)"
       d="m -19.211765,853.07121 225.892865,0 82.53067,48.46558 0,192.65231"
       id="path3837-3"
       sodipodi:nodetypes="cccs" />
    <path
       style="fill:#01e400;fill-opacity:1;stroke:#000000;stroke-width:1px;stroke-linecap:butt;stroke-linejoin:miter;stroke-opacity:0;filter:url(#filter4531)"
       d="m 682.87708,681.41133 -105.9362,0.0275 0.63488,34.92005 104.79624,-0.31305 0.50508,-34.6345 z"
       id="path2816-2-1"
       sodipodi:nodetypes="ccccc" />
    <path
       style="fill:none;stroke:#4cff4c;stroke-width:1px;stroke-linecap:butt;stroke-linejoin:miter;stroke-opacity:1;filter:url(#filter4651)"
       d="m -7.7720933,870.93361 177.1428533,0"
       id="path3988-36" />
    <path
       sodipodi:type="arc"
       style="fill:#4cff4c;fill-opacity:1;stroke:none;filter:url(#filter4571)"
       id="path3990-1"
       sodipodi:cx="432.21902"
       sodipodi:cy="429.66302"
       sodipodi:rx="10.985409"
       sodipodi:ry="10.985409"
       d="m 442.37146,433.85914 a 10.985409,10.985409 0 1 1 0.0149,-0.0362"
       transform="matrix(-0.68973646,0,0,0.68973646,474.94836,574.55928)"
       sodipodi:start="0.39192847"
       sodipodi:end="6.671551"
       sodipodi:open="true" />
    <path
       style="fill:none;stroke:#4cff4c;stroke-width:1px;stroke-linecap:butt;stroke-linejoin:miter;stroke-opacity:1;filter:url(#filter4555)"
       d="m -46.396902,895.80861 177.142852,0"
       id="path3988-4-05" />
    <path
       sodipodi:type="arc"
       style="fill:#4cff4c;fill-opacity:1;stroke:none;filter:url(#filter4579)"
       id="path3990-9-7"
       sodipodi:cx="432.21902"
       sodipodi:cy="429.66302"
       sodipodi:rx="10.985409"
       sodipodi:ry="10.985409"
       d="m 442.37146,433.85914 a 10.985409,10.985409 0 1 1 0.0149,-0.0362"
       transform="matrix(-0.68973646,0,0,0.68973646,436.32355,599.43428)"
       sodipodi:start="0.39192847"
       sodipodi:end="6.671551"
       sodipodi:open="true" />
    <path
       style="fill:none;stroke:#4cff4c;stroke-width:1px;stroke-linecap:butt;stroke-linejoin:miter;stroke-opacity:1"
       d="m -77.71163,917.02182 177.142852,0"
       id="path3988-1-42" />
    <path
       sodipodi:type="arc"
       style="fill:#4cff4c;fill-opacity:1;stroke:none;filter:url(#filter4587)"
       id="path3990-6-0"
       sodipodi:cx="432.21902"
       sodipodi:cy="429.66302"
       sodipodi:rx="10.985409"
       sodipodi:ry="10.985409"
       d="m 442.37146,433.85914 a 10.985409,10.985409 0 1 1 0.0149,-0.0362"
       transform="matrix(-0.68973646,0,0,0.68973646,405.00882,620.64749)"
       sodipodi:start="0.39192847"
       sodipodi:end="6.671551"
       sodipodi:open="true" />
    <path
       style="fill:none;stroke:#4cff4c;stroke-width:1px;stroke-linecap:butt;stroke-linejoin:miter;stroke-opacity:1;filter:url(#filter4709)"
       d="m 508.57143,769.50504 180.00001,0 36.9466,-63.99339"
       id="path3716-2"
       sodipodi:nodetypes="cc" />
    <path
       style="fill:none;stroke:#4cff4c;stroke-width:1px;stroke-linecap:butt;stroke-linejoin:miter;stroke-opacity:1;filter:url(#filter4717)"
       d="m 501.18667,768.92721 14.03204,24.3042 187.416,0 35.55126,-61.57658"
       id="path3716-7-6"
       sodipodi:nodetypes="ccc" />
    <path
       style="fill:none;stroke:#4cff4c;stroke-width:0.99999994000000003px;stroke-linecap:butt;stroke-linejoin:miter;stroke-opacity:1;filter:url(#filter4699)"
       d="m 562.19006,751.06949 113.15484,0 34.3458,-59.48867"
       id="path3716-3-4"
       sodipodi:nodetypes="cc" />
    <path
       style="fill:none;stroke:#4cff4c;stroke-width:0.99999994px;stroke-linecap:butt;stroke-linejoin:miter;stroke-opacity:1"
       d="m 481.61764,612.46371 136.38835,0"
       id="path3716-3-4-0"
       sodipodi:nodetypes="cc" />
    <path
       id="path4469"
       d="m 556.84368,612.36218 0,-29.72093 -66.91971,0 0,-103.03556 70.18713,0 0,-57.24351"
       style="fill:none;stroke:#4cff4c;stroke-width:1px;stroke-linecap:butt;stroke-linejoin:miter;stroke-opacity:0.94117647000000004;filter:url(#filter4761)"
       sodipodi:nodetypes="cccc" />
    <path
       style="fill:none;stroke:#4cff4c;stroke-width:1px;stroke-linecap:butt;stroke-linejoin:miter;stroke-opacity:0.94117647000000004;filter:url(#filter4749)"
       d="m 579.57887,422.36218 0,78.45671 -64.45125,0 0,60.60916 61.00801,0 0,50.93413"
       id="path4473"
       sodipodi:nodetypes="cccc" />
    <path
       id="path4475"
       d="m 307.70924,284.66998 0,192.65229"
       style="fill:none;stroke:#4cff4c;stroke-width:1px;stroke-linecap:butt;stroke-linejoin:miter;stroke-opacity:1"
       sodipodi:nodetypes="cc" />
    <path
       id="path4477"
       d="m 323.14583,271.43547 0,202.4515"
       style="fill:none;stroke:#4cff4c;stroke-width:1px;stroke-linecap:butt;stroke-linejoin:miter;stroke-opacity:1"
       sodipodi:nodetypes="cc" />
    <path
       sodipodi:nodetypes="cs"
       id="path4479"
       d="m 289.21177,280.84353 0,192.65231"
       style="fill:none;stroke:#4cff4c;stroke-width:1px;stroke-linecap:butt;stroke-linejoin:miter;stroke-opacity:1" />
    <path
       sodipodi:nodetypes="cc"
       id="path4485"
       d="m 481.61764,612.46371 136.38835,0"
       style="fill:none;stroke:#4cff4c;stroke-width:0.99999994000000003px;stroke-linecap:butt;stroke-linejoin:miter;stroke-opacity:1;filter:url(#filter4821)" />
    <path
       style="fill:none;stroke:#4cff4c;stroke-width:0.99999994000000003px;stroke-linecap:butt;stroke-linejoin:miter;stroke-opacity:1;filter:url(#filter4813)"
       d="m -49.217522,612.46371 136.38835,0"
       id="path4487"
       sodipodi:nodetypes="cc" />
    <path
       sodipodi:nodetypes="cccc"
       style="fill:none;stroke:#4cff4c;stroke-width:1px;stroke-linecap:butt;stroke-linejoin:miter;stroke-opacity:0.94117647000000004;filter:url(#filter4741)"
       d="m 26.138388,612.36218 0,-29.72093 47.726195,0 0,-103.03556 -50.056473,0 0,-57.24351"
       id="path4491" />
    <path
       sodipodi:nodetypes="cccc"
       id="path4493"
       d="m 9.9239691,422.36218 0,78.45671 45.9657249,0 0,60.60916 -43.510054,0 0,50.93413"
       style="fill:none;stroke:#4cff4c;stroke-width:1px;stroke-linecap:butt;stroke-linejoin:miter;stroke-opacity:0.94117647000000004;filter:url(#filter4729)" />
    <path
       sodipodi:nodetypes="cc"
       style="fill:none;stroke:#4cff4c;stroke-width:1px;stroke-linecap:butt;stroke-linejoin:miter;stroke-opacity:0.94117647000000004;filter:url(#filter4773)"
       d="m 560.1111,1069.6057 0,-85.81495"
       id="path4495" />
    <path
       sodipodi:nodetypes="cc"
       id="path4497"
       d="m 579.57887,983.79075 0,78.45675"
       style="fill:none;stroke:#4cff4c;stroke-width:1px;stroke-linecap:butt;stroke-linejoin:miter;stroke-opacity:0.94117647000000004;filter:url(#filter4785)" />
    <path
       id="path4499"
       d="m 23.80811,1076.7486 0,-92.95785"
       style="fill:none;stroke:#4cff4c;stroke-width:1px;stroke-linecap:butt;stroke-linejoin:miter;stroke-opacity:0.94117647000000004;filter:url(#filter4793)"
       sodipodi:nodetypes="cc" />
    <path
       style="fill:none;stroke:#4cff4c;stroke-width:1px;stroke-linecap:butt;stroke-linejoin:miter;stroke-opacity:0.94117647000000004;filter:url(#filter4805)"
       d="m 9.9239691,983.79075 0,78.45675"
       id="path4501"
       sodipodi:nodetypes="cc" />
  </g>
</svg>
