<?xml version="1.0" encoding="UTF-8" standalone="no"?>
<!-- Created with Inkscape (http://www.inkscape.org/) -->
<svg
   xmlns:dc="http://purl.org/dc/elements/1.1/"
   xmlns:cc="http://web.resource.org/cc/"
   xmlns:rdf="http://www.w3.org/1999/02/22-rdf-syntax-ns#"
   xmlns:svg="http://www.w3.org/2000/svg"
   xmlns="http://www.w3.org/2000/svg"
   xmlns:sodipodi="http://sodipodi.sourceforge.net/DTD/sodipodi-0.dtd"
   xmlns:inkscape="http://www.inkscape.org/namespaces/inkscape"
   width="744.09448819"
   height="1052.3622047"
   id="svg2"
   sodipodi:version="0.32"
   inkscape:version="0.45"
   sodipodi:docbase="/home/basse/blender/scenes/freedroid/textures"
   sodipodi:docname="symbol.svg"
   inkscape:output_extension="org.inkscape.output.svg.inkscape"
   sodipodi:modified="TRUE">
  <defs
     id="defs4" />
  <sodipodi:namedview
     id="base"
     pagecolor="#ffffff"
     bordercolor="#666666"
     borderopacity="1.0"
     gridtolerance="50"
     guidetolerance="10"
     objecttolerance="10"
     inkscape:pageopacity="0.0"
     inkscape:pageshadow="2"
     inkscape:zoom="1.4"
     inkscape:cx="321.71061"
     inkscape:cy="566.9654"
     inkscape:document-units="px"
     inkscape:current-layer="layer1"
     inkscape:window-width="968"
     inkscape:window-height="982"
     inkscape:window-x="118"
     inkscape:window-y="24"
     showgrid="true"
     gridspacingx="10px"
     gridspacingy="10px"
     gridcolor="#3fd0ff"
     gridopacity="0.34117647"
     inkscape:object-points="false"
     inkscape:object-paths="false"
     inkscape:grid-points="false"
     inkscape:grid-bbox="false" />
  <metadata
     id="metadata7">
    <rdf:RDF>
      <cc:Work
         rdf:about="">
        <dc:format>image/svg+xml</dc:format>
        <dc:type
           rdf:resource="http://purl.org/dc/dcmitype/StillImage" />
      </cc:Work>
    </rdf:RDF>
  </metadata>
  <g
     inkscape:label="Layer 1"
     inkscape:groupmode="layer"
     id="layer1">
    <path
       style="fill:#82ffff;fill-opacity:1;fill-rule:evenodd;stroke:none;stroke-width:49.20000076;stroke-linecap:round;stroke-linejoin:miter;stroke-miterlimit:4;stroke-dasharray:590.40000916, 49.20000076;stroke-dashoffset:319.80000496;stroke-opacity:1"
       d="M 347.09375,128.09375 C 329.82449,131.76163 319.80985,148.95493 306.71447,159.67742 C 249.39548,216.77129 199.15258,281.10076 158.16336,350.82598 C 146.98717,370.16204 170.8588,394.47621 190.37049,383.77613 C 205.53526,374.7483 210.22614,355.85316 221.03835,342.6108 C 258.01489,286.065 301.12967,233.35814 349.71875,186.40625 C 409.32038,245.7029 459.18439,314.23406 501.52313,386.77136 C 512.86536,406.02045 545.79048,397.18684 546.04742,374.91805 C 545.54281,357.00429 531.10762,343.38392 523.36948,327.99492 C 478.31494,256.15771 425.61185,188.29214 362.6875,131.28125 C 357.8921,128.80581 352.50519,127.31397 347.09375,128.09375 z M 131.71429,413.27232 C 115.01419,422.97785 111.14849,444.13726 101.49882,459.68836 C 56.829708,551.96381 36.841245,618.74241 22.28125,720.5 C 119.39958,747.54246 208.26054,764.61213 309.13835,766.32781 C 331.47525,766.70561 341.18882,734.00614 322.28778,722.17245 C 306.77038,713.20606 287.58675,718.5724 270.47753,715.66995 C 201.83837,711.46748 145.02093,700.77989 78.28125,684.25 C 97.932782,589.37611 119.5805,529.72093 164.23555,444.16825 C 172.19284,424.67764 150.80327,404.87151 131.71429,413.27232 z M 547.51339,415.52232 C 531.52942,423.04151 530.48707,444.2311 540.51763,457.07327 C 580.63239,536.23393 599.56811,598.26342 620.84375,684.4375 C 537.6905,705.24704 469.22725,717.44524 383.61764,719.35846 C 361.32725,719.94921 353.06469,752.98983 372.37675,764.02352 C 388.41921,772.38501 407.48915,766.17326 424.83036,766.95982 C 516.54179,762.58608 590.26765,744.9981 678.625,720.25 C 657.89312,610.28869 631.04194,525.82742 580.07589,426.42857 C 573.98024,414.87636 559.34457,409.99092 547.51339,415.52232 z "
       id="path3138"
       sodipodi:nodetypes="ccccccccccccccccccccccccccccc"
       inkscape:export-xdpi="70.870003"
       inkscape:export-ydpi="70.870003"
       inkscape:export-filename="/home/basse/blender/scenes/freedroid/textures/symbol.png" />
    <path
       style="fill:#82ffff;fill-opacity:1;fill-rule:nonzero;stroke:none;stroke-width:81.14663696;stroke-linecap:round;stroke-linejoin:miter;stroke-miterlimit:4;stroke-dasharray:973.75963093, 81.14663591;stroke-dashoffset:32.45865436;stroke-opacity:1"
       d="M 391.28571,369.86161 C 366.23384,368.55289 364.61836,403.0947 387.73661,415.60715 C 410.002,427.658 439.6086,449.99548 452.0625,478.34375 C 471.05286,519.25768 461.70001,570.97125 429.90625,602.875 C 399.52614,634.75973 349.67018,645.68793 308.78125,629.25 C 266.95022,613.79569 237.18541,571.37672 236.71875,526.8125 C 235.21753,482.10232 264.95411,434.90602 300.26786,422.40179 C 336.94914,409.41333 328.86596,363.10655 300.90179,371.01786 C 247.25069,386.19624 211.24221,414.87508 192.71875,467.71875 C 173.1359,520.33259 183.07182,582.43145 217.84375,626.46875 C 253.89247,673.71233 316.57526,698.52195 375.1875,688.75 C 431.07444,680.38025 481.09388,641.38985 502.59375,589.09375 C 521.11697,545.89681 520.05129,495.13953 499.65625,452.78125 C 475.91199,401.81829 417.04995,371.20755 391.28571,369.86161 z "
       id="path2164"
       sodipodi:nodetypes="czccccsscccccz"
       inkscape:export-filename="/home/basse/blender/scenes/freedroid/textures/symbol.png"
       inkscape:export-xdpi="70.870003"
       inkscape:export-ydpi="70.870003" />
  </g>
</svg>
