<?xml version="1.0" encoding="UTF-8" standalone="no"?>
<!-- Created with Inkscape (http://www.inkscape.org/) -->
<svg
   xmlns:dc="http://purl.org/dc/elements/1.1/"
   xmlns:cc="http://creativecommons.org/ns#"
   xmlns:rdf="http://www.w3.org/1999/02/22-rdf-syntax-ns#"
   xmlns:svg="http://www.w3.org/2000/svg"
   xmlns="http://www.w3.org/2000/svg"
   xmlns:xlink="http://www.w3.org/1999/xlink"
   xmlns:sodipodi="http://sodipodi.sourceforge.net/DTD/sodipodi-0.dtd"
   xmlns:inkscape="http://www.inkscape.org/namespaces/inkscape"
   sodipodi:docname="iso_mini_square_0004.svg"
   inkscape:version="0.46"
   version="1.1"
   id="svg2893"
   height="67"
   width="133"
   inkscape:export-filename="E:\not-important\freedroid-2\tiles\set3\rendered\iso_mini_square_0004.png"
   inkscape:export-xdpi="90"
   inkscape:export-ydpi="90"
   sodipodi:version="0.32"
   inkscape:output_extension="org.inkscape.output.svg.inkscape">
  <defs
     id="defs2895">
    <inkscape:perspective
       sodipodi:type="inkscape:persp3d"
       inkscape:vp_x="0 : 526.18109 : 1"
       inkscape:vp_y="0 : 1000 : 0"
       inkscape:vp_z="744.09448 : 526.18109 : 1"
       inkscape:persp3d-origin="372.04724 : 350.78739 : 1"
       id="perspective2901" />
    <inkscape:perspective
       id="perspective3719"
       inkscape:persp3d-origin="0.5 : 0.33333333 : 1"
       inkscape:vp_z="1 : 0.5 : 1"
       inkscape:vp_y="0 : 1000 : 0"
       inkscape:vp_x="0 : 0.5 : 1"
       sodipodi:type="inkscape:persp3d" />
    <inkscape:perspective
       id="perspective3753"
       inkscape:persp3d-origin="0.5 : 0.33333333 : 1"
       inkscape:vp_z="1 : 0.5 : 1"
       inkscape:vp_y="0 : 1000 : 0"
       inkscape:vp_x="0 : 0.5 : 1"
       sodipodi:type="inkscape:persp3d" />
    <inkscape:perspective
       id="perspective3776"
       inkscape:persp3d-origin="0.5 : 0.33333333 : 1"
       inkscape:vp_z="1 : 0.5 : 1"
       inkscape:vp_y="0 : 1000 : 0"
       inkscape:vp_x="0 : 0.5 : 1"
       sodipodi:type="inkscape:persp3d" />
    <inkscape:perspective
       id="perspective3809"
       inkscape:persp3d-origin="0.5 : 0.33333333 : 1"
       inkscape:vp_z="1 : 0.5 : 1"
       inkscape:vp_y="0 : 1000 : 0"
       inkscape:vp_x="0 : 0.5 : 1"
       sodipodi:type="inkscape:persp3d" />
    <inkscape:perspective
       id="perspective2857"
       inkscape:persp3d-origin="0.5 : 0.33333333 : 1"
       inkscape:vp_z="1 : 0.5 : 1"
       inkscape:vp_y="0 : 1000 : 0"
       inkscape:vp_x="0 : 0.5 : 1"
       sodipodi:type="inkscape:persp3d" />
    <inkscape:perspective
       id="perspective2861"
       inkscape:persp3d-origin="0.5 : 0.33333333 : 1"
       inkscape:vp_z="1 : 0.5 : 1"
       inkscape:vp_y="0 : 1000 : 0"
       inkscape:vp_x="0 : 0.5 : 1"
       sodipodi:type="inkscape:persp3d" />
    <inkscape:perspective
       id="perspective2910"
       inkscape:persp3d-origin="0.5 : 0.33333333 : 1"
       inkscape:vp_z="1 : 0.5 : 1"
       inkscape:vp_y="0 : 1000 : 0"
       inkscape:vp_x="0 : 0.5 : 1"
       sodipodi:type="inkscape:persp3d" />
    <filter
       id="filter4957">
      <feGaussianBlur
         stdDeviation="8.6228164e-17"
         id="feGaussianBlur4959" />
    </filter>
    <filter
       id="filter4975">
      <feGaussianBlur
         stdDeviation="1.4858925e-16"
         id="feGaussianBlur4977" />
    </filter>
    <filter
       id="filter4983">
      <feGaussianBlur
         stdDeviation="3.0414218e-17"
         id="feGaussianBlur4985" />
    </filter>
    <filter
       id="filter4989">
      <feGaussianBlur
         stdDeviation="4.8287687e-17"
         id="feGaussianBlur4991" />
    </filter>
    <filter
       id="filter4995">
      <feGaussianBlur
         stdDeviation="5.4701808e-17"
         id="feGaussianBlur4997" />
    </filter>
    <filter
       id="filter5001">
      <feGaussianBlur
         stdDeviation="3.6479705e-16"
         id="feGaussianBlur5003" />
    </filter>
    <filter
       id="filter5009">
      <feGaussianBlur
         stdDeviation="9.3845685e-17"
         id="feGaussianBlur5011" />
    </filter>
    <filter
       id="filter5015">
      <feGaussianBlur
         stdDeviation="2.7797923e-16"
         id="feGaussianBlur5017" />
    </filter>
    <filter
       id="filter5021">
      <feGaussianBlur
         stdDeviation="3.540764e-16"
         id="feGaussianBlur5023" />
    </filter>
    <filter
       id="filter5029">
      <feGaussianBlur
         stdDeviation="9.5450992e-17"
         id="feGaussianBlur5031" />
    </filter>
    <filter
       id="filter5037">
      <feGaussianBlur
         stdDeviation="2.719479e-16"
         id="feGaussianBlur5039" />
    </filter>
    <filter
       id="filter5047">
      <feGaussianBlur
         stdDeviation="7.0629428e-17"
         id="feGaussianBlur5049" />
    </filter>
    <filter
       id="filter5053">
      <feGaussianBlur
         stdDeviation="8.542732e-17"
         id="feGaussianBlur5055" />
    </filter>
    <filter
       id="filter5065">
      <feGaussianBlur
         stdDeviation="3.6846147e-16"
         id="feGaussianBlur5067" />
    </filter>
    <filter
       id="filter5071">
      <feGaussianBlur
         stdDeviation="7.1304694e-17"
         id="feGaussianBlur5073" />
    </filter>
    <filter
       id="filter5081">
      <feGaussianBlur
         stdDeviation="5.1533033e-17"
         id="feGaussianBlur5083" />
    </filter>
    <filter
       id="filter5087">
      <feGaussianBlur
         stdDeviation="8.9923924e-17"
         id="feGaussianBlur5089" />
    </filter>
    <filter
       id="filter5093">
      <feGaussianBlur
         stdDeviation="9.347894e-17"
         id="feGaussianBlur5095" />
    </filter>
    <filter
       id="filter5101">
      <feGaussianBlur
         stdDeviation="2.5833789e-16"
         id="feGaussianBlur5103" />
    </filter>
    <filter
       id="filter5109">
      <feGaussianBlur
         stdDeviation="3.7825131e-16"
         id="feGaussianBlur5111" />
    </filter>
    <filter
       id="filter5115">
      <feGaussianBlur
         stdDeviation="3.4628185e-16"
         id="feGaussianBlur5117" />
    </filter>
    <filter
       id="filter5121">
      <feGaussianBlur
         stdDeviation="3.5516116e-16"
         id="feGaussianBlur5123" />
    </filter>
    <filter
       id="filter5127">
      <feGaussianBlur
         stdDeviation="3.7191417e-16"
         id="feGaussianBlur5129" />
    </filter>
    <filter
       id="filter5133">
      <feGaussianBlur
         stdDeviation="2.0203362e-17"
         id="feGaussianBlur5135" />
    </filter>
    <filter
       id="filter5141">
      <feGaussianBlur
         stdDeviation="3.7364289e-17"
         id="feGaussianBlur5143" />
    </filter>
    <filter
       id="filter5147">
      <feGaussianBlur
         stdDeviation="1.870553e-16"
         id="feGaussianBlur5149" />
    </filter>
    <filter
       id="filter5163">
      <feGaussianBlur
         stdDeviation="1.7343334e-16"
         id="feGaussianBlur5165" />
    </filter>
    <filter
       id="filter5179">
      <feGaussianBlur
         stdDeviation="2.6844836e-16"
         id="feGaussianBlur5181" />
    </filter>
    <filter
       id="filter5191">
      <feGaussianBlur
         stdDeviation="2.9392208e-16"
         id="feGaussianBlur5193" />
    </filter>
    <filter
       id="filter5197">
      <feGaussianBlur
         stdDeviation="3.0754805e-16"
         id="feGaussianBlur5199" />
    </filter>
    <filter
       id="filter7835">
      <feGaussianBlur
         stdDeviation="1.6761411e-16"
         id="feGaussianBlur7837" />
    </filter>
    <filter
       id="filter7847">
      <feGaussianBlur
         stdDeviation="5.8891999e-17"
         id="feGaussianBlur7849" />
    </filter>
    <filter
       id="filter7853">
      <feGaussianBlur
         stdDeviation="7.6445309e-17"
         id="feGaussianBlur7855" />
    </filter>
    <filter
       id="filter7861">
      <feGaussianBlur
         stdDeviation="7.349094e-17"
         id="feGaussianBlur7863" />
    </filter>
    <filter
       id="filter7867">
      <feGaussianBlur
         stdDeviation="1.825907e-16"
         id="feGaussianBlur7869" />
    </filter>
    <filter
       id="filter7873">
      <feGaussianBlur
         stdDeviation="2.2199202e-16"
         id="feGaussianBlur7875" />
    </filter>
    <filter
       id="filter7881">
      <feGaussianBlur
         stdDeviation="3.0824404e-17"
         id="feGaussianBlur7883" />
    </filter>
    <filter
       id="filter7887">
      <feGaussianBlur
         stdDeviation="3.718779e-17"
         id="feGaussianBlur7889" />
    </filter>
    <filter
       id="filter7895">
      <feGaussianBlur
         stdDeviation="1.8918549e-16"
         id="feGaussianBlur7897" />
    </filter>
    <filter
       id="filter7903">
      <feGaussianBlur
         stdDeviation="1.6255994e-16"
         id="feGaussianBlur7905" />
    </filter>
    <filter
       id="filter7917">
      <feGaussianBlur
         stdDeviation="1.4599034e-16"
         id="feGaussianBlur7919" />
    </filter>
    <filter
       id="filter7925">
      <feGaussianBlur
         stdDeviation="1.6050267e-16"
         id="feGaussianBlur7927" />
    </filter>
    <filter
       id="filter7931">
      <feGaussianBlur
         stdDeviation="2.3263627e-16"
         id="feGaussianBlur7933" />
    </filter>
    <filter
       id="filter7937">
      <feGaussianBlur
         stdDeviation="3.3110599e-17"
         id="feGaussianBlur7939" />
    </filter>
    <filter
       id="filter7943">
      <feGaussianBlur
         stdDeviation="1.1153854e-16"
         id="feGaussianBlur7945" />
    </filter>
    <filter
       id="filter7949">
      <feGaussianBlur
         stdDeviation="1.3299926e-17"
         id="feGaussianBlur7951" />
    </filter>
    <filter
       id="filter7955">
      <feGaussianBlur
         stdDeviation="3.7185412e-17"
         id="feGaussianBlur7957" />
    </filter>
    <filter
       id="filter7961">
      <feGaussianBlur
         stdDeviation="1.7042575e-18"
         id="feGaussianBlur7963" />
    </filter>
    <filter
       id="filter7967">
      <feGaussianBlur
         stdDeviation="1.6500527e-16"
         id="feGaussianBlur7969" />
    </filter>
    <filter
       id="filter7973">
      <feGaussianBlur
         stdDeviation="2.226038e-16"
         id="feGaussianBlur7975" />
    </filter>
    <filter
       id="filter7979">
      <feGaussianBlur
         stdDeviation="1.8599148e-16"
         id="feGaussianBlur7981" />
    </filter>
    <filter
       id="filter7989">
      <feGaussianBlur
         stdDeviation="3.5439575e-17"
         id="feGaussianBlur7991" />
    </filter>
    <filter
       id="filter7995">
      <feGaussianBlur
         stdDeviation="1.653928e-16"
         id="feGaussianBlur7997" />
    </filter>
    <filter
       id="filter8003">
      <feGaussianBlur
         stdDeviation="2.5005466e-17"
         id="feGaussianBlur8005" />
    </filter>
    <filter
       id="filter8011">
      <feGaussianBlur
         stdDeviation="3.3333716e-17"
         id="feGaussianBlur8013" />
    </filter>
    <filter
       id="filter8039">
      <feGaussianBlur
         stdDeviation="2.316329e-16"
         id="feGaussianBlur8041" />
    </filter>
    <filter
       id="filter8051">
      <feGaussianBlur
         stdDeviation="2.304031e-16"
         id="feGaussianBlur8053" />
    </filter>
    <filter
       id="filter8061">
      <feGaussianBlur
         stdDeviation="4.4868739e-17"
         id="feGaussianBlur8063" />
    </filter>
    <filter
       id="filter8067">
      <feGaussianBlur
         stdDeviation="1.6050413e-16"
         id="feGaussianBlur8069" />
    </filter>
    <filter
       id="filter8075">
      <feGaussianBlur
         stdDeviation="2.0808203e-16"
         id="feGaussianBlur8077" />
    </filter>
  </defs>
  <sodipodi:namedview
     id="base"
     pagecolor="#ffffff"
     bordercolor="#666666"
     borderopacity="1.0"
     inkscape:pageopacity="0.0"
     inkscape:pageshadow="2"
     inkscape:zoom="2.0000001"
     inkscape:cx="-87.15404"
     inkscape:cy="40.695573"
     inkscape:document-units="px"
     inkscape:current-layer="layer1"
     showgrid="false"
     inkscape:window-width="1018"
     inkscape:window-height="667"
     inkscape:window-x="177"
     inkscape:window-y="36"
     inkscape:window-maximized="0"
     showborder="false" />
  <metadata
     id="metadata2898">
    <rdf:RDF>
      <cc:Work
         rdf:about="">
        <dc:format>image/svg+xml</dc:format>
        <dc:type
           rdf:resource="http://purl.org/dc/dcmitype/StillImage" />
        <dc:title />
      </cc:Work>
    </rdf:RDF>
  </metadata>
  <g
     inkscape:label="Transform"
     inkscape:groupmode="layer"
     id="layer1"
     style="display:inline"
     transform="matrix(1.4142136,0.7071068,-1.4142136,0.7071068,66.5,0)">
    <g
       inkscape:label="Scale"
       inkscape:groupmode="layer"
       id="scale"
       style="display:inline"
       transform="scale(0.47,0.47)">
      <rect
         style="fill-rule:evenodd;stroke:#9a8b6e;stroke-width:0.5px"
         id="rect2700"
         width="12.5"
         height="12.5"
         x="-26.162951"
         y="-14.494053"
         inkscape:tile-cx="-19.912951"
         inkscape:tile-cy="-8.2440529"
         inkscape:tile-w="12.5"
         inkscape:tile-h="12.5"
         inkscape:tile-x0="-26.162951"
         inkscape:tile-y0="-14.494053" />
      <use
         x="0"
         y="0"
         inkscape:tiled-clone-of="#rect2700"
         xlink:href="#rect2700"
         id="use7996"
         style="fill:#3c5d58;stroke:#3c5d58"
         width="133"
         height="67" />
      <use
         x="0"
         y="0"
         inkscape:tiled-clone-of="#rect2700"
         xlink:href="#rect2700"
         transform="translate(0,12.5)"
         id="use7998"
         style="fill:#435a59;stroke:#435a59"
         width="133"
         height="67" />
      <use
         x="0"
         y="0"
         inkscape:tiled-clone-of="#rect2700"
         xlink:href="#rect2700"
         transform="translate(0,25)"
         id="use8000"
         style="fill:#46635f;stroke:#46635f"
         width="133"
         height="67" />
      <use
         x="0"
         y="0"
         inkscape:tiled-clone-of="#rect2700"
         xlink:href="#rect2700"
         transform="translate(0,37.5)"
         id="use8002"
         style="fill:#476865;stroke:#476865"
         width="133"
         height="67" />
      <use
         x="0"
         y="0"
         inkscape:tiled-clone-of="#rect2700"
         xlink:href="#rect2700"
         transform="translate(0,50)"
         id="use8004"
         style="fill:#526c65;stroke:#526c65"
         width="133"
         height="67" />
      <use
         x="0"
         y="0"
         inkscape:tiled-clone-of="#rect2700"
         xlink:href="#rect2700"
         transform="translate(0,62.5)"
         id="use8006"
         style="fill:#3d635a;stroke:#3d635a"
         width="133"
         height="67" />
      <use
         x="0"
         y="0"
         inkscape:tiled-clone-of="#rect2700"
         xlink:href="#rect2700"
         transform="translate(0,75)"
         id="use8008"
         style="fill:#406057;stroke:#406057"
         width="133"
         height="67" />
      <use
         x="0"
         y="0"
         inkscape:tiled-clone-of="#rect2700"
         xlink:href="#rect2700"
         transform="translate(0,87.5)"
         id="use8010"
         style="fill:#526c66;stroke:#526c66"
         width="133"
         height="67" />
      <use
         x="0"
         y="0"
         inkscape:tiled-clone-of="#rect2700"
         xlink:href="#rect2700"
         transform="translate(12.5,0)"
         id="use8012"
         style="fill:#475e5c;stroke:#475e5c"
         width="133"
         height="67" />
      <use
         x="0"
         y="0"
         inkscape:tiled-clone-of="#rect2700"
         xlink:href="#rect2700"
         transform="translate(12.5,12.5)"
         id="use8014"
         style="fill:#4e6c66;stroke:#4e6c66"
         width="133"
         height="67" />
      <use
         x="0"
         y="0"
         inkscape:tiled-clone-of="#rect2700"
         xlink:href="#rect2700"
         transform="translate(12.5,25)"
         id="use8016"
         style="fill:#4b7370;stroke:#4b7370"
         width="133"
         height="67" />
      <use
         x="0"
         y="0"
         inkscape:tiled-clone-of="#rect2700"
         xlink:href="#rect2700"
         transform="translate(12.5,37.5)"
         id="use8018"
         style="fill:#4b7970;stroke:#4b7970"
         width="133"
         height="67" />
      <use
         x="0"
         y="0"
         inkscape:tiled-clone-of="#rect2700"
         xlink:href="#rect2700"
         transform="translate(12.5,50)"
         id="use8020"
         style="fill:#415a53;stroke:#415a53"
         width="133"
         height="67" />
      <use
         x="0"
         y="0"
         inkscape:tiled-clone-of="#rect2700"
         xlink:href="#rect2700"
         transform="translate(12.5,62.5)"
         id="use8022"
         style="fill:#4e7373;stroke:#4e7373"
         width="133"
         height="67" />
      <use
         x="0"
         y="0"
         inkscape:tiled-clone-of="#rect2700"
         xlink:href="#rect2700"
         transform="translate(12.5,75)"
         id="use8024"
         style="fill:#4d6a68;stroke:#4d6a68"
         width="133"
         height="67" />
      <use
         x="0"
         y="0"
         inkscape:tiled-clone-of="#rect2700"
         xlink:href="#rect2700"
         transform="translate(12.5,87.5)"
         id="use8026"
         style="fill:#4b6e68;stroke:#4b6e68"
         width="133"
         height="67" />
      <use
         x="0"
         y="0"
         inkscape:tiled-clone-of="#rect2700"
         xlink:href="#rect2700"
         transform="translate(25,0)"
         id="use8028"
         style="fill:#506f69;stroke:#506f69"
         width="133"
         height="67" />
      <use
         x="0"
         y="0"
         inkscape:tiled-clone-of="#rect2700"
         xlink:href="#rect2700"
         transform="translate(25,12.5)"
         id="use8030"
         style="fill:#4f6966;stroke:#4f6966"
         width="133"
         height="67" />
      <use
         x="0"
         y="0"
         inkscape:tiled-clone-of="#rect2700"
         xlink:href="#rect2700"
         transform="translate(25,25)"
         id="use8032"
         style="fill:#415954;stroke:#415954"
         width="133"
         height="67" />
      <use
         x="0"
         y="0"
         inkscape:tiled-clone-of="#rect2700"
         xlink:href="#rect2700"
         transform="translate(25,37.5)"
         id="use8034"
         style="fill:#455d57;stroke:#455d57"
         width="133"
         height="67" />
      <use
         x="0"
         y="0"
         inkscape:tiled-clone-of="#rect2700"
         xlink:href="#rect2700"
         transform="translate(25,50)"
         id="use8036"
         style="fill:#405952;stroke:#405952"
         width="133"
         height="67" />
      <use
         x="0"
         y="0"
         inkscape:tiled-clone-of="#rect2700"
         xlink:href="#rect2700"
         transform="translate(25,62.5)"
         id="use8038"
         style="fill:#4b6a64;stroke:#4b6a64"
         width="133"
         height="67" />
      <use
         x="0"
         y="0"
         inkscape:tiled-clone-of="#rect2700"
         xlink:href="#rect2700"
         transform="translate(25,75)"
         id="use8040"
         style="fill:#537068;stroke:#537068"
         width="133"
         height="67" />
      <use
         x="0"
         y="0"
         inkscape:tiled-clone-of="#rect2700"
         xlink:href="#rect2700"
         transform="translate(25,87.5)"
         id="use8042"
         style="fill:#45625a;stroke:#45625a"
         width="133"
         height="67" />
      <use
         x="0"
         y="0"
         inkscape:tiled-clone-of="#rect2700"
         xlink:href="#rect2700"
         transform="translate(37.5,0)"
         id="use8044"
         style="fill:#57746d;stroke:#57746d"
         width="133"
         height="67" />
      <use
         x="0"
         y="0"
         inkscape:tiled-clone-of="#rect2700"
         xlink:href="#rect2700"
         transform="translate(37.5,12.5)"
         id="use8046"
         style="fill:#466c68;stroke:#466c68"
         width="133"
         height="67" />
      <use
         x="0"
         y="0"
         inkscape:tiled-clone-of="#rect2700"
         xlink:href="#rect2700"
         transform="translate(37.5,25)"
         id="use8048"
         style="fill:#455b57;stroke:#455b57"
         width="133"
         height="67" />
      <use
         x="0"
         y="0"
         inkscape:tiled-clone-of="#rect2700"
         xlink:href="#rect2700"
         transform="translate(37.5,37.5)"
         id="use8050"
         style="fill:#467270;stroke:#467270"
         width="133"
         height="67" />
      <use
         x="0"
         y="0"
         inkscape:tiled-clone-of="#rect2700"
         xlink:href="#rect2700"
         transform="translate(37.5,50)"
         id="use8052"
         style="fill:#577473;stroke:#577473"
         width="133"
         height="67" />
      <use
         x="0"
         y="0"
         inkscape:tiled-clone-of="#rect2700"
         xlink:href="#rect2700"
         transform="translate(37.5,62.5)"
         id="use8054"
         style="fill:#486560;stroke:#486560"
         width="133"
         height="67" />
      <use
         x="0"
         y="0"
         inkscape:tiled-clone-of="#rect2700"
         xlink:href="#rect2700"
         transform="translate(37.5,75)"
         id="use8056"
         style="fill:#465c5b;stroke:#465c5b"
         width="133"
         height="67" />
      <use
         x="0"
         y="0"
         inkscape:tiled-clone-of="#rect2700"
         xlink:href="#rect2700"
         transform="translate(37.5,87.5)"
         id="use8058"
         style="fill:#4a6460;stroke:#4a6460"
         width="133"
         height="67" />
      <use
         x="0"
         y="0"
         inkscape:tiled-clone-of="#rect2700"
         xlink:href="#rect2700"
         transform="translate(50,0)"
         id="use8060"
         style="fill:#517367;stroke:#517367"
         width="133"
         height="67" />
      <use
         x="0"
         y="0"
         inkscape:tiled-clone-of="#rect2700"
         xlink:href="#rect2700"
         transform="translate(50,12.5)"
         id="use8062"
         style="fill:#52756b;stroke:#52756b"
         width="133"
         height="67" />
      <use
         x="0"
         y="0"
         inkscape:tiled-clone-of="#rect2700"
         xlink:href="#rect2700"
         transform="translate(50,25)"
         id="use8064"
         style="fill:#415d53;stroke:#415d53"
         width="133"
         height="67" />
      <use
         x="0"
         y="0"
         inkscape:tiled-clone-of="#rect2700"
         xlink:href="#rect2700"
         transform="translate(50,37.5)"
         id="use8066"
         style="fill:#445a58;stroke:#445a58"
         width="133"
         height="67" />
      <use
         x="0"
         y="0"
         inkscape:tiled-clone-of="#rect2700"
         xlink:href="#rect2700"
         transform="translate(50,50)"
         id="use8068"
         style="fill:#41665c;stroke:#41665c"
         width="133"
         height="67" />
      <use
         x="0"
         y="0"
         inkscape:tiled-clone-of="#rect2700"
         xlink:href="#rect2700"
         transform="translate(50,62.5)"
         id="use8070"
         style="fill:#486460;stroke:#486460"
         width="133"
         height="67" />
      <use
         x="0"
         y="0"
         inkscape:tiled-clone-of="#rect2700"
         xlink:href="#rect2700"
         transform="translate(50,75)"
         id="use8072"
         style="fill:#49615d;stroke:#49615d"
         width="133"
         height="67" />
      <use
         x="0"
         y="0"
         inkscape:tiled-clone-of="#rect2700"
         xlink:href="#rect2700"
         transform="translate(50,87.5)"
         id="use8074"
         style="fill:#496461;stroke:#496461"
         width="133"
         height="67" />
      <use
         x="0"
         y="0"
         inkscape:tiled-clone-of="#rect2700"
         xlink:href="#rect2700"
         transform="translate(62.5,0)"
         id="use8076"
         style="fill:#4d7067;stroke:#4d7067"
         width="133"
         height="67" />
      <use
         x="0"
         y="0"
         inkscape:tiled-clone-of="#rect2700"
         xlink:href="#rect2700"
         transform="translate(62.5,12.5)"
         id="use8078"
         style="fill:#406565;stroke:#406565"
         width="133"
         height="67" />
      <use
         x="0"
         y="0"
         inkscape:tiled-clone-of="#rect2700"
         xlink:href="#rect2700"
         transform="translate(62.5,25)"
         id="use8080"
         style="fill:#3f6158;stroke:#3f6158"
         width="133"
         height="67" />
      <use
         x="0"
         y="0"
         inkscape:tiled-clone-of="#rect2700"
         xlink:href="#rect2700"
         transform="translate(62.5,37.5)"
         id="use8082"
         style="fill:#466b66;stroke:#466b66"
         width="133"
         height="67" />
      <use
         x="0"
         y="0"
         inkscape:tiled-clone-of="#rect2700"
         xlink:href="#rect2700"
         transform="translate(62.5,50)"
         id="use8084"
         style="fill:#3e5e55;stroke:#3e5e55"
         width="133"
         height="67" />
      <use
         x="0"
         y="0"
         inkscape:tiled-clone-of="#rect2700"
         xlink:href="#rect2700"
         transform="translate(62.5,62.5)"
         id="use8086"
         style="fill:#48615e;stroke:#48615e"
         width="133"
         height="67" />
      <use
         x="0"
         y="0"
         inkscape:tiled-clone-of="#rect2700"
         xlink:href="#rect2700"
         transform="translate(62.5,75)"
         id="use8088"
         style="fill:#41615e;stroke:#41615e"
         width="133"
         height="67" />
      <use
         x="0"
         y="0"
         inkscape:tiled-clone-of="#rect2700"
         xlink:href="#rect2700"
         transform="translate(62.5,87.5)"
         id="use8090"
         style="fill:#3f6666;stroke:#3f6666"
         width="133"
         height="67" />
      <use
         x="0"
         y="0"
         inkscape:tiled-clone-of="#rect2700"
         xlink:href="#rect2700"
         transform="translate(75,0)"
         id="use8092"
         style="fill:#44655d;stroke:#44655d"
         width="133"
         height="67" />
      <use
         x="0"
         y="0"
         inkscape:tiled-clone-of="#rect2700"
         xlink:href="#rect2700"
         transform="translate(75,12.5)"
         id="use8094"
         style="fill:#53726a;stroke:#53726a"
         width="133"
         height="67" />
      <use
         x="0"
         y="0"
         inkscape:tiled-clone-of="#rect2700"
         xlink:href="#rect2700"
         transform="translate(75,25)"
         id="use8096"
         style="fill:#3f6055;stroke:#3f6055"
         width="133"
         height="67" />
      <use
         x="0"
         y="0"
         inkscape:tiled-clone-of="#rect2700"
         xlink:href="#rect2700"
         transform="translate(75,37.5)"
         id="use8098"
         style="fill:#51736f;stroke:#51736f"
         width="133"
         height="67" />
      <use
         x="0"
         y="0"
         inkscape:tiled-clone-of="#rect2700"
         xlink:href="#rect2700"
         transform="translate(75,50)"
         id="use8100"
         style="fill:#445b57;stroke:#445b57"
         width="133"
         height="67" />
      <use
         x="0"
         y="0"
         inkscape:tiled-clone-of="#rect2700"
         xlink:href="#rect2700"
         transform="translate(75,62.5)"
         id="use8102"
         style="fill:#507a70;stroke:#507a70"
         width="133"
         height="67" />
      <use
         x="0"
         y="0"
         inkscape:tiled-clone-of="#rect2700"
         xlink:href="#rect2700"
         transform="translate(75,75)"
         id="use8104"
         style="fill:#465b55;stroke:#465b55"
         width="133"
         height="67" />
      <use
         x="0"
         y="0"
         inkscape:tiled-clone-of="#rect2700"
         xlink:href="#rect2700"
         transform="translate(75,87.5)"
         id="use8106"
         style="fill:#40605b;stroke:#40605b"
         width="133"
         height="67" />
      <use
         x="0"
         y="0"
         inkscape:tiled-clone-of="#rect2700"
         xlink:href="#rect2700"
         transform="translate(87.5,0)"
         id="use8108"
         style="fill:#537875;stroke:#537875"
         width="133"
         height="67" />
      <use
         x="0"
         y="0"
         inkscape:tiled-clone-of="#rect2700"
         xlink:href="#rect2700"
         transform="translate(87.5,12.5)"
         id="use8110"
         style="fill:#508177;stroke:#508177"
         width="133"
         height="67" />
      <use
         x="0"
         y="0"
         inkscape:tiled-clone-of="#rect2700"
         xlink:href="#rect2700"
         transform="translate(87.5,25)"
         id="use8112"
         style="fill:#405c56;stroke:#405c56"
         width="133"
         height="67" />
      <use
         x="0"
         y="0"
         inkscape:tiled-clone-of="#rect2700"
         xlink:href="#rect2700"
         transform="translate(87.5,37.5)"
         id="use8114"
         style="fill:#496761;stroke:#496761"
         width="133"
         height="67" />
      <use
         x="0"
         y="0"
         inkscape:tiled-clone-of="#rect2700"
         xlink:href="#rect2700"
         transform="translate(87.5,50)"
         id="use8116"
         style="fill:#4c6865;stroke:#4c6865"
         width="133"
         height="67" />
      <use
         x="0"
         y="0"
         inkscape:tiled-clone-of="#rect2700"
         xlink:href="#rect2700"
         transform="translate(87.5,62.5)"
         id="use8118"
         style="fill:#40655d;stroke:#40655d"
         width="133"
         height="67" />
      <use
         x="0"
         y="0"
         inkscape:tiled-clone-of="#rect2700"
         xlink:href="#rect2700"
         transform="translate(87.5,75)"
         id="use8120"
         style="fill:#517b72;stroke:#517b72"
         width="133"
         height="67" />
      <use
         x="0"
         y="0"
         inkscape:tiled-clone-of="#rect2700"
         xlink:href="#rect2700"
         transform="translate(87.5,87.5)"
         id="use8122"
         style="fill:#496e6b;stroke:#496e6b"
         width="133"
         height="67" />
    </g>
  </g>
</svg>
