<?xml version="1.0" encoding="UTF-8" standalone="no"?>
<!-- Created with Inkscape (http://www.inkscape.org/) -->

<svg
   xmlns:dc="http://purl.org/dc/elements/1.1/"
   xmlns:cc="http://creativecommons.org/ns#"
   xmlns:rdf="http://www.w3.org/1999/02/22-rdf-syntax-ns#"
   xmlns:svg="http://www.w3.org/2000/svg"
   xmlns="http://www.w3.org/2000/svg"
   xmlns:sodipodi="http://sodipodi.sourceforge.net/DTD/sodipodi-0.dtd"
   xmlns:inkscape="http://www.inkscape.org/namespaces/inkscape"
   sodipodi:docname="iso_square_tile_0003.svg"
   inkscape:version="0.47pre4 r22446"
   version="1.1"
   id="svg2893"
   height="71"
   width="141">
  <defs
     id="defs2895">
    <inkscape:perspective
       sodipodi:type="inkscape:persp3d"
       inkscape:vp_x="0 : 526.18109 : 1"
       inkscape:vp_y="0 : 1000 : 0"
       inkscape:vp_z="744.09448 : 526.18109 : 1"
       inkscape:persp3d-origin="372.04724 : 350.78739 : 1"
       id="perspective2901" />
    <inkscape:perspective
       id="perspective3719"
       inkscape:persp3d-origin="0.5 : 0.33333333 : 1"
       inkscape:vp_z="1 : 0.5 : 1"
       inkscape:vp_y="0 : 1000 : 0"
       inkscape:vp_x="0 : 0.5 : 1"
       sodipodi:type="inkscape:persp3d" />
    <inkscape:perspective
       id="perspective3753"
       inkscape:persp3d-origin="0.5 : 0.33333333 : 1"
       inkscape:vp_z="1 : 0.5 : 1"
       inkscape:vp_y="0 : 1000 : 0"
       inkscape:vp_x="0 : 0.5 : 1"
       sodipodi:type="inkscape:persp3d" />
    <inkscape:perspective
       id="perspective3776"
       inkscape:persp3d-origin="0.5 : 0.33333333 : 1"
       inkscape:vp_z="1 : 0.5 : 1"
       inkscape:vp_y="0 : 1000 : 0"
       inkscape:vp_x="0 : 0.5 : 1"
       sodipodi:type="inkscape:persp3d" />
    <inkscape:perspective
       id="perspective3809"
       inkscape:persp3d-origin="0.5 : 0.33333333 : 1"
       inkscape:vp_z="1 : 0.5 : 1"
       inkscape:vp_y="0 : 1000 : 0"
       inkscape:vp_x="0 : 0.5 : 1"
       sodipodi:type="inkscape:persp3d" />
  </defs>
  <sodipodi:namedview
     id="base"
     pagecolor="#ffffff"
     bordercolor="#666666"
     borderopacity="1.0"
     inkscape:pageopacity="0.0"
     inkscape:pageshadow="2"
     inkscape:zoom="2.0000001"
     inkscape:cx="-39.10876"
     inkscape:cy="12.168509"
     inkscape:document-units="px"
     inkscape:current-layer="layer4"
     showgrid="false"
     inkscape:window-width="1024"
     inkscape:window-height="575"
     inkscape:window-x="0"
     inkscape:window-y="2"
     inkscape:window-maximized="1" />
  <metadata
     id="metadata2898">
    <rdf:RDF>
      <cc:Work
         rdf:about="">
        <dc:format>image/svg+xml</dc:format>
        <dc:type
           rdf:resource="http://purl.org/dc/dcmitype/StillImage" />
        <dc:title></dc:title>
      </cc:Work>
    </rdf:RDF>
  </metadata>
  <g
     inkscape:label="Transform"
     inkscape:groupmode="layer"
     id="layer1"
     style="display:inline"
     transform="matrix(1.4142136,0.7071068,-1.4142136,0.7071068,70.5,0)">
    <g
       inkscape:label="Scale"
       inkscape:groupmode="layer"
       id="scale"
       style="display:inline"
       transform="scale(0.47,0.47)">
      <g
         inkscape:groupmode="layer"
         id="layer3"
         inkscape:label="Color1"
         style="display:inline"
         sodipodi:insensitive="true">
        <rect
           y="-1.7382812e-05"
           x="0"
           height="100"
           width="100"
           id="rect3707"
           style="fill:#bddbaf;fill-opacity:0.94117647;stroke:none;display:inline" />
      </g>
      <g
         inkscape:groupmode="layer"
         id="layer4"
         inkscape:label="Color2"
         style="display:inline">
        <rect
           style="fill:#e7eec0;fill-opacity:1;stroke:none"
           id="rect3693"
           width="50"
           height="50"
           x="0"
           y="-1.7382812e-05" />
        <rect
           y="50"
           x="50"
           height="50"
           width="50"
           id="rect3699"
           style="fill:#e7eec0;fill-opacity:1;stroke:none" />
      </g>
      <g
         inkscape:groupmode="layer"
         id="layer6"
         inkscape:label="grout"
         style="display:inline"
         sodipodi:insensitive="true">
        <rect
           style="fill:#9a8b6e;fill-opacity:1;stroke-opacity:1"
           id="rect3470"
           width="100"
           height="0.5"
           x="0"
           y="99.5" />
        <rect
           y="0"
           x="99.5"
           height="100"
           width="0.5"
           id="rect3472"
           style="fill:#9a8b6e;fill-opacity:1;stroke-opacity:1" />
        <rect
           y="0"
           x="0"
           height="100"
           width="0.5"
           id="rect3474"
           style="fill:#9a8b6e;fill-opacity:1;stroke-opacity:1" />
        <rect
           style="fill:#9a8b6e;fill-opacity:1;stroke-opacity:1"
           id="rect3476"
           width="100"
           height="0.5"
           x="0"
           y="0" />
        <rect
           style="fill:#9a8b6e;fill-opacity:1;stroke-opacity:1"
           id="rect3751"
           width="1"
           height="100"
           x="49.5"
           y="0" />
        <rect
           y="49.5"
           x="0"
           height="1"
           width="100"
           id="rect3755"
           style="fill:#9a8b6e;fill-opacity:1;stroke-opacity:1" />
        <g
           inkscape:groupmode="layer"
           id="layer2"
           inkscape:label="small-tiles"
           style="display:inline">
          <path
             style="fill:#9a8b6e;fill-opacity:1;stroke:none"
             d="M 7.75,0 0,7.75 0,0 z"
             id="path3703" />
          <path
             id="path3706"
             d="M 92.25,100 100,92.25 100,100 z"
             style="fill:#9a8b6e;fill-opacity:1;stroke:none" />
          <path
             style="fill:#9a8b6e;fill-opacity:1;stroke:none"
             d="M 92.25,0 100,7.75 100,0 z"
             id="path3712" />
          <path
             id="path3715"
             d="M 0,92.25 7.75,100 0,100 z"
             style="fill:#9a8b6e;fill-opacity:1;stroke:none" />
          <path
             sodipodi:nodetypes="cccc"
             id="path3719"
             d="M 100,57.75 92.25,50 100,42.25 z"
             style="fill:#9a8b6e;fill-opacity:1;stroke:#5c4611;stroke-opacity:0" />
          <path
             style="fill:#9a8b6e;fill-opacity:1;stroke:#5c4611;stroke-opacity:0"
             d="M 0,42.25 7.75,50 0,57.75 0,42.25 z"
             id="path3736"
             sodipodi:nodetypes="cccc" />
          <path
             sodipodi:nodetypes="cccc"
             id="path3549"
             d="M 42.25,0 50,7.75 57.75,0 z"
             style="fill:#9a8b6e;fill-opacity:1;stroke:#5c4611;stroke-opacity:0" />
          <path
             sodipodi:nodetypes="cccc"
             id="path3748"
             d="M 57.75,100 50,92.25 42.25,100 z"
             style="fill:#9a8b6e;fill-opacity:1;stroke:#5c4611;stroke-opacity:0" />
          <path
             style="fill:#9a8b6e;fill-opacity:1;stroke:none"
             d="M 57.75,50 50,57.75 42.25,50 50,42.25 57.75,50 z"
             id="path3791" />
        </g>
      </g>
      <g
         inkscape:groupmode="layer"
         id="layer5"
         inkscape:label="Color3"
         style="display:inline"
         sodipodi:insensitive="true">
        <path
           id="path3697"
           d="M 56.75,50 50,56.75 43.25,50 50,43.25 56.75,50 z"
           style="fill:#58a8af;fill-opacity:1;stroke:none" />
        <path
           id="path2917"
           d="M 6.75,0 0,6.75 0,0 z"
           style="fill:#58a8af;fill-opacity:1;stroke:none" />
        <path
           style="fill:#58a8af;fill-opacity:1;stroke:none"
           d="M 93.25,100 100,93.25 100,100 z"
           id="path3691" />
        <path
           id="path3693"
           d="M 93.25,0 100,6.75 100,0 z"
           style="fill:#58a8af;fill-opacity:1;stroke:none" />
        <path
           style="fill:#58a8af;fill-opacity:1;stroke:none"
           d="M 0,93.25 6.75,100 0,100 z"
           id="path3695" />
        <path
           style="fill:#58a8af;fill-opacity:1;stroke:#5c4611;stroke-opacity:0"
           d="M 100,56.75 93.25,50 100,43.25 l 0,13.5 z"
           id="path3478"
           sodipodi:nodetypes="cccc" />
        <path
           sodipodi:nodetypes="cccc"
           id="path3553"
           d="M 0,43.25 6.75,50 0,56.75 0,43.25 z"
           style="fill:#58a8af;fill-opacity:1;stroke:#5c4611;stroke-opacity:0" />
        <path
           style="fill:#58a8af;fill-opacity:1;stroke:#5c4611;stroke-opacity:0"
           d="m 43.266927,-4.0917709e-4 6.75,6.75000007709 6.75,-6.75000007709 -13.5,0 z"
           id="path3742"
           sodipodi:nodetypes="cccc" />
        <path
           style="fill:#58a8af;fill-opacity:1;stroke:#5c4611;stroke-opacity:0"
           d="m 56.751303,99.971433 -6.75,-6.749738 -6.75,6.749738 13.5,0 z"
           id="path3551"
           sodipodi:nodetypes="cccc" />
      </g>
    </g>
  </g>
</svg>
