<?xml version="1.0" encoding="UTF-8" standalone="no"?>
<!-- Created with Inkscape (http://www.inkscape.org/) -->

<svg
   xmlns:dc="http://purl.org/dc/elements/1.1/"
   xmlns:cc="http://creativecommons.org/ns#"
   xmlns:rdf="http://www.w3.org/1999/02/22-rdf-syntax-ns#"
   xmlns:svg="http://www.w3.org/2000/svg"
   xmlns="http://www.w3.org/2000/svg"
   xmlns:xlink="http://www.w3.org/1999/xlink"
   xmlns:sodipodi="http://sodipodi.sourceforge.net/DTD/sodipodi-0.dtd"
   xmlns:inkscape="http://www.inkscape.org/namespaces/inkscape"
   sodipodi:docname="iso_carpet_tile_0003 (copy).svg"
   inkscape:version="0.47pre4 r22446"
   version="1.1"
   id="svg2893"
   height="70.710678"
   width="141.42136"
   inkscape:export-filename="/media/MILES-TRAVE/not-important/freedroid-2/tiles/set2/rendered/iso_carpet_tile_0003.png"
   inkscape:export-xdpi="90"
   inkscape:export-ydpi="90">
  <defs
     id="defs2895">
    <linearGradient
       id="linearGradient3780">
      <stop
         id="stop3802"
         offset="0"
         style="stop-color:#ffffff;stop-opacity:0.99667406;" />
      <stop
         style="stop-color:#ffffff;stop-opacity:0.89578712;"
         offset="0.25"
         id="stop3806" />
      <stop
         style="stop-color:#ffffff;stop-opacity:0.63414633;"
         offset="0.47"
         id="stop3804" />
      <stop
         style="stop-color:#ffffff;stop-opacity:0.77827048;"
         offset="1"
         id="stop3784" />
    </linearGradient>
    <linearGradient
       inkscape:collect="always"
       id="linearGradient3762">
      <stop
         style="stop-color:#000000;stop-opacity:1;"
         offset="0"
         id="stop3764" />
      <stop
         style="stop-color:#000000;stop-opacity:0;"
         offset="1"
         id="stop3766" />
    </linearGradient>
    <linearGradient
       inkscape:collect="always"
       id="linearGradient5230">
      <stop
         style="stop-color:#000000;stop-opacity:1;"
         offset="0"
         id="stop5232" />
      <stop
         style="stop-color:#000000;stop-opacity:0;"
         offset="1"
         id="stop5234" />
    </linearGradient>
    <linearGradient
       id="linearGradient5087">
      <stop
         id="stop5142"
         offset="0"
         style="stop-color:#ffffff;stop-opacity:0.84313726;" />
      <stop
         style="stop-color:#ffffff;stop-opacity:0.842511;"
         offset="0.62"
         id="stop5146" />
      <stop
         style="stop-color:#ffffff;stop-opacity:0;"
         offset="1"
         id="stop5091" />
    </linearGradient>
    <linearGradient
       inkscape:collect="always"
       id="linearGradient5097">
      <stop
         style="stop-color:#edf9f8;stop-opacity:1;"
         offset="0"
         id="stop5099" />
      <stop
         style="stop-color:#edf9f8;stop-opacity:0;"
         offset="1"
         id="stop5101" />
    </linearGradient>
    <inkscape:perspective
       sodipodi:type="inkscape:persp3d"
       inkscape:vp_x="0 : 526.18109 : 1"
       inkscape:vp_y="0 : 1000 : 0"
       inkscape:vp_z="744.09448 : 526.18109 : 1"
       inkscape:persp3d-origin="372.04724 : 350.78739 : 1"
       id="perspective2901" />
    <inkscape:perspective
       id="perspective3719"
       inkscape:persp3d-origin="0.5 : 0.33333333 : 1"
       inkscape:vp_z="1 : 0.5 : 1"
       inkscape:vp_y="0 : 1000 : 0"
       inkscape:vp_x="0 : 0.5 : 1"
       sodipodi:type="inkscape:persp3d" />
    <inkscape:perspective
       id="perspective3753"
       inkscape:persp3d-origin="0.5 : 0.33333333 : 1"
       inkscape:vp_z="1 : 0.5 : 1"
       inkscape:vp_y="0 : 1000 : 0"
       inkscape:vp_x="0 : 0.5 : 1"
       sodipodi:type="inkscape:persp3d" />
    <inkscape:perspective
       id="perspective3776"
       inkscape:persp3d-origin="0.5 : 0.33333333 : 1"
       inkscape:vp_z="1 : 0.5 : 1"
       inkscape:vp_y="0 : 1000 : 0"
       inkscape:vp_x="0 : 0.5 : 1"
       sodipodi:type="inkscape:persp3d" />
    <inkscape:perspective
       id="perspective3809"
       inkscape:persp3d-origin="0.5 : 0.33333333 : 1"
       inkscape:vp_z="1 : 0.5 : 1"
       inkscape:vp_y="0 : 1000 : 0"
       inkscape:vp_x="0 : 0.5 : 1"
       sodipodi:type="inkscape:persp3d" />
    <inkscape:perspective
       id="perspective2879"
       inkscape:persp3d-origin="0.5 : 0.33333333 : 1"
       inkscape:vp_z="1 : 0.5 : 1"
       inkscape:vp_y="0 : 1000 : 0"
       inkscape:vp_x="0 : 0.5 : 1"
       sodipodi:type="inkscape:persp3d" />
    <radialGradient
       inkscape:collect="always"
       xlink:href="#linearGradient5097"
       id="radialGradient5127"
       cx="72.831985"
       cy="54.44722"
       fx="72.831985"
       fy="54.44722"
       r="22.239553"
       gradientTransform="matrix(1,0,0,1.0875332,0,-4.7659369)"
       gradientUnits="userSpaceOnUse" />
    <radialGradient
       inkscape:collect="always"
       xlink:href="#linearGradient5097"
       id="radialGradient5129"
       cx="25.455843"
       cy="73.539093"
       fx="25.455843"
       fy="73.539093"
       r="22.239553"
       gradientTransform="matrix(0.43117412,0,0,0.46891617,-1.3867812,29.130092)"
       gradientUnits="userSpaceOnUse" />
    <radialGradient
       inkscape:collect="always"
       xlink:href="#linearGradient5097"
       id="radialGradient5131"
       cx="37.123104"
       cy="24.39517"
       fx="37.123104"
       fy="24.39517"
       r="22.239553"
       gradientTransform="matrix(1,0,0,1.0875332,0,-2.1353863)"
       gradientUnits="userSpaceOnUse" />
    <radialGradient
       inkscape:collect="always"
       xlink:href="#linearGradient5097"
       id="radialGradient5146"
       gradientUnits="userSpaceOnUse"
       gradientTransform="matrix(0.71862323,0,0,0.78152662,10.232132,82.004951)"
       cx="72.831985"
       cy="54.44722"
       fx="72.831985"
       fy="54.44722"
       r="22.239553" />
    <radialGradient
       inkscape:collect="always"
       xlink:href="#linearGradient5087"
       id="radialGradient5125"
       cx="61.452"
       cy="58.52"
       fx="61.452"
       fy="58.52"
       r="10.556"
       gradientTransform="matrix(1,0,0,1.0875332,0,-5.1224405)"
       gradientUnits="userSpaceOnUse" />
    <radialGradient
       inkscape:collect="always"
       xlink:href="#linearGradient5087"
       id="radialGradient5128"
       cx="86.452003"
       cy="33.52"
       fx="86.452003"
       fy="33.52"
       r="10.556"
       gradientTransform="matrix(1,0,0,1.0875332,0,-2.9341113)"
       gradientUnits="userSpaceOnUse" />
    <radialGradient
       inkscape:collect="always"
       xlink:href="#linearGradient5087"
       id="radialGradient5130"
       cx="86.452003"
       cy="-16.48"
       fx="86.452003"
       fy="-16.48"
       r="10.556"
       gradientTransform="matrix(1,0,0,1.0875332,0,1.4425465)"
       gradientUnits="userSpaceOnUse" />
    <radialGradient
       inkscape:collect="always"
       xlink:href="#linearGradient5087"
       id="radialGradient5132"
       cx="11.452"
       cy="58.52"
       fx="11.452"
       fy="58.52"
       r="10.556"
       gradientTransform="matrix(1,0,0,1.0875332,0,-5.1224405)"
       gradientUnits="userSpaceOnUse" />
    <radialGradient
       inkscape:collect="always"
       xlink:href="#linearGradient5087"
       id="radialGradient5134"
       cx="36.452"
       cy="33.52"
       fx="36.452"
       fy="33.52"
       r="10.556"
       gradientTransform="matrix(1,0,0,1.0875332,0,-2.9341113)"
       gradientUnits="userSpaceOnUse" />
    <radialGradient
       inkscape:collect="always"
       xlink:href="#linearGradient5087"
       id="radialGradient5136"
       cx="61.452"
       cy="8.5199995"
       fx="61.452"
       fy="8.5199995"
       r="10.556"
       gradientTransform="matrix(1,0,0,1.0875332,0,-0.74578246)"
       gradientUnits="userSpaceOnUse" />
    <radialGradient
       inkscape:collect="always"
       xlink:href="#linearGradient5087"
       id="radialGradient5138"
       cx="36.452"
       cy="-16.48"
       fx="36.452"
       fy="-16.48"
       r="10.556"
       gradientTransform="matrix(1,0,0,1.0875332,0,1.4425465)"
       gradientUnits="userSpaceOnUse" />
    <radialGradient
       inkscape:collect="always"
       xlink:href="#linearGradient5087"
       id="radialGradient5140"
       cx="11.452"
       cy="8.5199995"
       fx="11.452"
       fy="8.5199995"
       r="10.556"
       gradientTransform="matrix(1,0,0,1.0875332,0,-0.74578246)"
       gradientUnits="userSpaceOnUse" />
    <linearGradient
       inkscape:collect="always"
       xlink:href="#linearGradient5230"
       id="linearGradient5236"
       x1="75.396"
       y1="-16.48"
       x2="97.508"
       y2="-16.48"
       gradientUnits="userSpaceOnUse" />
    <linearGradient
       inkscape:collect="always"
       xlink:href="#linearGradient5230"
       id="linearGradient5238"
       x1="25.396"
       y1="-16.48"
       x2="47.508"
       y2="-16.48"
       gradientUnits="userSpaceOnUse" />
    <linearGradient
       inkscape:collect="always"
       xlink:href="#linearGradient5230"
       id="linearGradient5240"
       x1="50.396"
       y1="8.5199996"
       x2="72.508"
       y2="8.5199996"
       gradientUnits="userSpaceOnUse" />
    <linearGradient
       inkscape:collect="always"
       xlink:href="#linearGradient5230"
       id="linearGradient5242"
       x1="75.396"
       y1="33.519999"
       x2="97.508"
       y2="33.519999"
       gradientUnits="userSpaceOnUse" />
    <linearGradient
       inkscape:collect="always"
       xlink:href="#linearGradient5230"
       id="linearGradient5244"
       x1="50.396"
       y1="58.520002"
       x2="72.508"
       y2="58.520002"
       gradientUnits="userSpaceOnUse" />
    <linearGradient
       inkscape:collect="always"
       xlink:href="#linearGradient5230"
       id="linearGradient5246"
       x1="0.396"
       y1="58.520002"
       x2="22.508"
       y2="58.520002"
       gradientUnits="userSpaceOnUse" />
    <linearGradient
       inkscape:collect="always"
       xlink:href="#linearGradient5230"
       id="linearGradient5248"
       x1="25.396"
       y1="33.519999"
       x2="47.508"
       y2="33.519999"
       gradientUnits="userSpaceOnUse" />
    <linearGradient
       inkscape:collect="always"
       xlink:href="#linearGradient5230"
       id="linearGradient5250"
       x1="0.396"
       y1="8.5199996"
       x2="22.508"
       y2="8.5199996"
       gradientUnits="userSpaceOnUse" />
    <inkscape:perspective
       sodipodi:type="inkscape:persp3d"
       inkscape:vp_x="0 : 0.5 : 1"
       inkscape:vp_y="0 : 1000 : 0"
       inkscape:vp_z="1 : 0.5 : 1"
       inkscape:persp3d-origin="0.5 : 0.33333333 : 1"
       id="perspective2832-1" />
    <inkscape:perspective
       sodipodi:type="inkscape:persp3d"
       inkscape:vp_x="0 : 0.5 : 1"
       inkscape:vp_y="0 : 1000 : 0"
       inkscape:vp_z="1 : 0.5 : 1"
       inkscape:persp3d-origin="0.5 : 0.33333333 : 1"
       id="perspective2832" />
    <inkscape:perspective
       id="perspective10"
       inkscape:persp3d-origin="372.04724 : 350.78739 : 1"
       inkscape:vp_z="744.09448 : 526.18109 : 1"
       inkscape:vp_y="0 : 1000 : 0"
       inkscape:vp_x="0 : 526.18109 : 1"
       sodipodi:type="inkscape:persp3d" />
    <linearGradient
       id="linearGradient3607">
      <stop
         id="stop3609"
         offset="0"
         style="stop-color:#000000;stop-opacity:1;" />
      <stop
         id="stop3611"
         offset="1"
         style="stop-color:#000000;stop-opacity:0;" />
    </linearGradient>
    <inkscape:perspective
       id="perspective2967"
       inkscape:persp3d-origin="0.5 : 0.33333333 : 1"
       inkscape:vp_z="1 : 0.5 : 1"
       inkscape:vp_y="0 : 1000 : 0"
       inkscape:vp_x="0 : 0.5 : 1"
       sodipodi:type="inkscape:persp3d" />
    <radialGradient
       inkscape:collect="always"
       xlink:href="#linearGradient3762"
       id="radialGradient3768"
       cx="93.494292"
       cy="304.26092"
       fx="93.494292"
       fy="304.26092"
       r="120.50401"
       gradientTransform="matrix(1,0,0,0.63411375,0,111.32489)"
       gradientUnits="userSpaceOnUse" />
    <linearGradient
       inkscape:collect="always"
       xlink:href="#linearGradient3780"
       id="linearGradient3790"
       x1="-27.009716"
       y1="304.26093"
       x2="213.99831"
       y2="304.26093"
       gradientUnits="userSpaceOnUse" />
    <linearGradient
       inkscape:collect="always"
       xlink:href="#linearGradient3780"
       id="linearGradient3800"
       gradientUnits="userSpaceOnUse"
       x1="-27.009716"
       y1="304.26093"
       x2="213.99831"
       y2="304.26093" />
  </defs>
  <sodipodi:namedview
     id="base"
     pagecolor="#ffffff"
     bordercolor="#666666"
     borderopacity="1.0"
     inkscape:pageopacity="0.0"
     inkscape:pageshadow="2"
     inkscape:zoom="2.3900709"
     inkscape:cx="34.820436"
     inkscape:cy="36.843594"
     inkscape:document-units="px"
     inkscape:current-layer="svg2893"
     showgrid="false"
     inkscape:window-width="1024"
     inkscape:window-height="575"
     inkscape:window-x="0"
     inkscape:window-y="2"
     inkscape:window-maximized="1"
     showguides="false"
     inkscape:guide-bbox="true"
     inkscape:snap-global="true"
     showborder="true"
     inkscape:showpageshadow="false">
    <sodipodi:guide
       orientation="1,0"
       position="-20.295417,-10.542369"
       id="guide2876" />
    <sodipodi:guide
       orientation="1,0"
       position="4.7045828,-10.542369"
       id="guide2898" />
    <sodipodi:guide
       id="guide2900"
       position="29.704583,-10.542369"
       orientation="1,0" />
    <sodipodi:guide
       orientation="1,0"
       position="54.704583,-10.542369"
       id="guide2902" />
    <sodipodi:guide
       id="guide2904"
       position="79.704583,-10.542369"
       orientation="1,0" />
    <sodipodi:guide
       orientation="0,1"
       position="-20.295417,-10.542369"
       id="guide2906" />
    <sodipodi:guide
       id="guide2908"
       position="-20.295417,14.457631"
       orientation="0,1" />
    <sodipodi:guide
       orientation="0,1"
       position="-20.295417,39.457631"
       id="guide2910" />
    <sodipodi:guide
       id="guide2912"
       position="-20.295417,64.457631"
       orientation="0,1" />
    <sodipodi:guide
       orientation="0,1"
       position="-20.295417,89.457631"
       id="guide2914" />
    <inkscape:grid
       type="xygrid"
       id="grid2976"
       empspacing="5"
       visible="true"
       enabled="true"
       snapvisiblegridlinesonly="true" />
  </sodipodi:namedview>
  <metadata
     id="metadata2898">
    <rdf:RDF>
      <cc:Work
         rdf:about="">
        <dc:format>image/svg+xml</dc:format>
        <dc:type
           rdf:resource="http://purl.org/dc/dcmitype/StillImage" />
        <dc:title></dc:title>
      </cc:Work>
    </rdf:RDF>
  </metadata>
  <g
     inkscape:label="Transform"
     inkscape:groupmode="layer"
     id="layer1"
     style="display:inline"
     transform="matrix(1.4142136,0.7071068,-1.4142136,0.7071068,50.204583,10.253049)">
    <g
       inkscape:label="Scale"
       inkscape:groupmode="layer"
       id="scale"
       style="display:inline"
       transform="scale(0.47,0.47)">
      <g
         inkscape:groupmode="layer"
         id="layer4"
         inkscape:label="background">
        <rect
           style="fill:#b0222c;fill-opacity:1"
           id="rect2974"
           width="100"
           height="100"
           x="0"
           y="-29" />
      </g>
      <g
         inkscape:groupmode="layer"
         id="layer7"
         inkscape:label="fleur"
         style="display:inline"
         sodipodi:insensitive="true">
        <text
           id="text2940"
           y="-9.0600004"
           x="75"
           style="font-size:40px;font-style:normal;font-weight:normal;fill:url(#radialGradient5130);fill-opacity:1;stroke:none;font-family:Bitstream Vera Sans"
           xml:space="preserve"><tspan
             style="font-size:28px;font-style:normal;font-variant:normal;font-weight:normal;font-stretch:normal;fill:url(#radialGradient5130);fill-opacity:1;stroke:none;font-family:FreeSerif;-inkscape-font-specification:FreeSerif"
             y="-9.0600004"
             x="75"
             id="tspan2942"
             sodipodi:role="line">⚜</tspan></text>
        <text
           xml:space="preserve"
           style="font-size:40px;font-style:normal;font-weight:normal;fill:url(#radialGradient5138);fill-opacity:1;stroke:none;font-family:Bitstream Vera Sans"
           x="25"
           y="-9.0600004"
           id="text2936"><tspan
             sodipodi:role="line"
             id="tspan2938"
             x="25"
             y="-9.0600004"
             style="font-size:28px;font-style:normal;font-variant:normal;font-weight:normal;font-stretch:normal;fill:url(#radialGradient5138);fill-opacity:1;stroke:none;font-family:FreeSerif;-inkscape-font-specification:FreeSerif">⚜</tspan></text>
        <text
           xml:space="preserve"
           style="font-size:40px;font-style:normal;font-weight:normal;fill:url(#radialGradient5125);fill-opacity:1;stroke:none;font-family:Bitstream Vera Sans"
           x="50"
           y="65.940002"
           id="text2924"><tspan
             sodipodi:role="line"
             id="tspan2926"
             x="50"
             y="65.940002"
             style="font-size:28px;font-style:normal;font-variant:normal;font-weight:normal;font-stretch:normal;fill:url(#radialGradient5125);fill-opacity:1;stroke:none;font-family:FreeSerif;-inkscape-font-specification:FreeSerif">⚜</tspan></text>
        <text
           xml:space="preserve"
           style="font-size:40px;font-style:normal;font-weight:normal;fill:url(#radialGradient5132);fill-opacity:1;stroke:none;font-family:Bitstream Vera Sans"
           x="0"
           y="65.940002"
           id="text2916"><tspan
             sodipodi:role="line"
             id="tspan2918"
             x="0"
             y="65.940002"
             style="font-size:28px;font-style:normal;font-variant:normal;font-weight:normal;font-stretch:normal;fill:url(#radialGradient5132);fill-opacity:1;stroke:none;font-family:FreeSerif;-inkscape-font-specification:FreeSerif">⚜</tspan></text>
      </g>
      <g
         inkscape:groupmode="layer"
         id="layer2"
         inkscape:label="logo">
        <g
           transform="matrix(0.3923888,0,0,0.31009213,13.848009,-71.845958)"
           id="layer1-2"
           inkscape:label="logo"
           style="fill:url(#linearGradient3790);fill-opacity:1;stroke:none">
          <path
             sodipodi:nodetypes="czczscccsccssczcccsssccsccccczcszsccczzz"
             id="path2882"
             d="m 83.955952,227.84906 c -7.75941,0.47377 -115.174073,102.76844 -110.83789,106.9375 4.336183,4.16906 59.694541,2.03046 59.694541,2.03046 0,0 35.96581,-87.17278 40.528764,-86.06171 4.087797,0.99537 -2.872397,81.75054 6.001499,84.09375 8.873949,2.34321 63.131914,-69.6875 63.131914,-69.6875 l -8.57009,43.28125 0.0625,0 c -0.9487,5.18068 -0.73429,3.27128 -1.05015,5.40625 -0.31835,2.15165 -0.1477,1.24108 0.0773,7.03125 0.59033,4.12502 1.95441,7.45313 4.09548,9.9375 2.18792,2.48437 4.83978,4.35937 7.98683,5.625 3.14701,1.26562 6.72995,1.875 10.71436,1.875 6.04683,0 12.23115,-1.3125 18.58422,-3.9375 6.37182,-2.67187 9.91564,-3.57653 17.577,-9.53125 7.66135,-5.95473 13.51338,-15.1149 14.0755,-26.90625 0.17057,-11.93916 -10.9229,-22.06955 -19.44183,-28.84375 -6.08481,-2.97615 -10.24335,-8.09876 -9.29178,-14.1875 0.99329,-4.31964 1.50339,-8.89723 5.70602,-11.25 4.24723,-2.37773 6.23108,-2.59375 10.44983,-2.59375 4.21875,0 8.24497,2.10947 10.6399,4.3125 2.39475,2.20321 7.05581,10.66903 6.85852,14.88769 l 3.04991,-23.82519 c -3.81676,-3.56239 -9.37109,-5.71864 -15.51161,-5.71875 -7.73446,1.1e-4 -12.7725,0.74083 -20.21825,5.125 -8.30693,5.20144 -14.29435,15.10695 -14.37445,25.125 0.61135,3.14069 3.99289,9.68756 6.10708,11.65625 7.00375,6.04663 11.82567,11.25192 13.39885,21.84375 0.81878,2.62503 0.52411,9.68754 -0.87144,13.15625 -3.53588,8.29132 -16.8877,19.48157 -25.69636,18.46875 -8.80866,-1.01282 -13.08822,-9.36356 -11.11881,-18.65625 1.68576,-5.37327 24.07239,-77.2585 16.15496,-79.53125 -8.22197,-2.36017 -63.875562,80.42264 -71.004087,79.15625 -7.128525,-1.26639 -2.587324,-76.61972 -6.620858,-79.15625 -0.07432,-0.0468 -0.164196,-0.07 -0.287353,-0.0625 l -2e-5,0 z m -62.320098,80.35137 c 4.932295,0.88172 4.904897,15.25542 3.391607,18.99811 -1.51329,3.74269 -29.0180084,3.21553 -31.8022136,1.32848 -2.7842049,-1.88705 23.4783116,-21.20832 28.4106066,-20.32659 z"
             style="font-size:144px;font-variant:normal;font-weight:bold;font-stretch:normal;fill:url(#linearGradient3790);fill-opacity:1;stroke:none;font-family:Sawasdee;-inkscape-font-specification:Sawasdee Bold" />
          <text
             sodipodi:linespacing="125%"
             transform="scale(1.2164576,0.82205907)"
             id="text2884"
             y="449.50467"
             x="-20.677538"
             style="font-size:48.65829849px;font-style:normal;font-variant:normal;font-weight:normal;font-stretch:normal;line-height:125%;fill:url(#linearGradient3790);fill-opacity:1;stroke:none;font-family:DejaVu Sans Mono;-inkscape-font-specification:DejaVu Sans Mono"
             xml:space="preserve"><tspan
               dy="0 1.3887074 0 0 -1.3887074 3.4717681 -1.3887074"
               dx="0 -1.3887074 -4.166122 -4.8604755 6.9435368 -3.4717681 -4.8604755"
               style="font-size:48.65829849px;font-style:normal;font-variant:normal;font-weight:normal;font-stretch:normal;text-align:start;line-height:125%;writing-mode:lr-tb;text-anchor:start;fill:url(#linearGradient3790);fill-opacity:1;stroke:none;font-family:Liberation Mono;-inkscape-font-specification:Liberation Mono"
               y="449.50467"
               x="-20.677538"
               id="tspan2886"
               sodipodi:role="line">MegaSys</tspan></text>
        </g>
      </g>
    </g>
  </g>
</svg>
