<?xml version="1.0" encoding="UTF-8" standalone="no"?>
<!-- Created with Inkscape (http://www.inkscape.org/) -->
<svg
   xmlns:dc="http://purl.org/dc/elements/1.1/"
   xmlns:cc="http://creativecommons.org/ns#"
   xmlns:rdf="http://www.w3.org/1999/02/22-rdf-syntax-ns#"
   xmlns:svg="http://www.w3.org/2000/svg"
   xmlns="http://www.w3.org/2000/svg"
   xmlns:xlink="http://www.w3.org/1999/xlink"
   xmlns:sodipodi="http://sodipodi.sourceforge.net/DTD/sodipodi-0.dtd"
   xmlns:inkscape="http://www.inkscape.org/namespaces/inkscape"
   sodipodi:docname="iso_mini_square_0004.svg"
   inkscape:version="0.46"
   version="1.0"
   id="svg2893"
   height="66.800377"
   width="133.26842"
   inkscape:export-filename="/media/MILES-TRAVE/not-important/freedroid-2/tiles/set3/iso_large_square_abc.png"
   inkscape:export-xdpi="90"
   inkscape:export-ydpi="90"
   sodipodi:version="0.32"
   inkscape:output_extension="org.inkscape.output.svg.inkscape">
  <defs
     id="defs2895">
    <inkscape:perspective
       sodipodi:type="inkscape:persp3d"
       inkscape:vp_x="0 : 526.18109 : 1"
       inkscape:vp_y="0 : 1000 : 0"
       inkscape:vp_z="744.09448 : 526.18109 : 1"
       inkscape:persp3d-origin="372.04724 : 350.78739 : 1"
       id="perspective2901" />
    <inkscape:perspective
       id="perspective3719"
       inkscape:persp3d-origin="0.5 : 0.33333333 : 1"
       inkscape:vp_z="1 : 0.5 : 1"
       inkscape:vp_y="0 : 1000 : 0"
       inkscape:vp_x="0 : 0.5 : 1"
       sodipodi:type="inkscape:persp3d" />
    <inkscape:perspective
       id="perspective3753"
       inkscape:persp3d-origin="0.5 : 0.33333333 : 1"
       inkscape:vp_z="1 : 0.5 : 1"
       inkscape:vp_y="0 : 1000 : 0"
       inkscape:vp_x="0 : 0.5 : 1"
       sodipodi:type="inkscape:persp3d" />
    <inkscape:perspective
       id="perspective3776"
       inkscape:persp3d-origin="0.5 : 0.33333333 : 1"
       inkscape:vp_z="1 : 0.5 : 1"
       inkscape:vp_y="0 : 1000 : 0"
       inkscape:vp_x="0 : 0.5 : 1"
       sodipodi:type="inkscape:persp3d" />
    <inkscape:perspective
       id="perspective3809"
       inkscape:persp3d-origin="0.5 : 0.33333333 : 1"
       inkscape:vp_z="1 : 0.5 : 1"
       inkscape:vp_y="0 : 1000 : 0"
       inkscape:vp_x="0 : 0.5 : 1"
       sodipodi:type="inkscape:persp3d" />
    <inkscape:perspective
       id="perspective2857"
       inkscape:persp3d-origin="0.5 : 0.33333333 : 1"
       inkscape:vp_z="1 : 0.5 : 1"
       inkscape:vp_y="0 : 1000 : 0"
       inkscape:vp_x="0 : 0.5 : 1"
       sodipodi:type="inkscape:persp3d" />
    <inkscape:perspective
       id="perspective2861"
       inkscape:persp3d-origin="0.5 : 0.33333333 : 1"
       inkscape:vp_z="1 : 0.5 : 1"
       inkscape:vp_y="0 : 1000 : 0"
       inkscape:vp_x="0 : 0.5 : 1"
       sodipodi:type="inkscape:persp3d" />
    <inkscape:perspective
       id="perspective2910"
       inkscape:persp3d-origin="0.5 : 0.33333333 : 1"
       inkscape:vp_z="1 : 0.5 : 1"
       inkscape:vp_y="0 : 1000 : 0"
       inkscape:vp_x="0 : 0.5 : 1"
       sodipodi:type="inkscape:persp3d" />
    <filter
       id="filter4957">
      <feGaussianBlur
         stdDeviation="8.6228164e-17"
         id="feGaussianBlur4959" />
    </filter>
    <filter
       id="filter4975">
      <feGaussianBlur
         stdDeviation="1.4858925e-16"
         id="feGaussianBlur4977" />
    </filter>
    <filter
       id="filter4983">
      <feGaussianBlur
         stdDeviation="3.0414218e-17"
         id="feGaussianBlur4985" />
    </filter>
    <filter
       id="filter4989">
      <feGaussianBlur
         stdDeviation="4.8287687e-17"
         id="feGaussianBlur4991" />
    </filter>
    <filter
       id="filter4995">
      <feGaussianBlur
         stdDeviation="5.4701808e-17"
         id="feGaussianBlur4997" />
    </filter>
    <filter
       id="filter5001">
      <feGaussianBlur
         stdDeviation="3.6479705e-16"
         id="feGaussianBlur5003" />
    </filter>
    <filter
       id="filter5009">
      <feGaussianBlur
         stdDeviation="9.3845685e-17"
         id="feGaussianBlur5011" />
    </filter>
    <filter
       id="filter5015">
      <feGaussianBlur
         stdDeviation="2.7797923e-16"
         id="feGaussianBlur5017" />
    </filter>
    <filter
       id="filter5021">
      <feGaussianBlur
         stdDeviation="3.540764e-16"
         id="feGaussianBlur5023" />
    </filter>
    <filter
       id="filter5029">
      <feGaussianBlur
         stdDeviation="9.5450992e-17"
         id="feGaussianBlur5031" />
    </filter>
    <filter
       id="filter5037">
      <feGaussianBlur
         stdDeviation="2.719479e-16"
         id="feGaussianBlur5039" />
    </filter>
    <filter
       id="filter5047">
      <feGaussianBlur
         stdDeviation="7.0629428e-17"
         id="feGaussianBlur5049" />
    </filter>
    <filter
       id="filter5053">
      <feGaussianBlur
         stdDeviation="8.542732e-17"
         id="feGaussianBlur5055" />
    </filter>
    <filter
       id="filter5065">
      <feGaussianBlur
         stdDeviation="3.6846147e-16"
         id="feGaussianBlur5067" />
    </filter>
    <filter
       id="filter5071">
      <feGaussianBlur
         stdDeviation="7.1304694e-17"
         id="feGaussianBlur5073" />
    </filter>
    <filter
       id="filter5081">
      <feGaussianBlur
         stdDeviation="5.1533033e-17"
         id="feGaussianBlur5083" />
    </filter>
    <filter
       id="filter5087">
      <feGaussianBlur
         stdDeviation="8.9923924e-17"
         id="feGaussianBlur5089" />
    </filter>
    <filter
       id="filter5093">
      <feGaussianBlur
         stdDeviation="9.347894e-17"
         id="feGaussianBlur5095" />
    </filter>
    <filter
       id="filter5101">
      <feGaussianBlur
         stdDeviation="2.5833789e-16"
         id="feGaussianBlur5103" />
    </filter>
    <filter
       id="filter5109">
      <feGaussianBlur
         stdDeviation="3.7825131e-16"
         id="feGaussianBlur5111" />
    </filter>
    <filter
       id="filter5115">
      <feGaussianBlur
         stdDeviation="3.4628185e-16"
         id="feGaussianBlur5117" />
    </filter>
    <filter
       id="filter5121">
      <feGaussianBlur
         stdDeviation="3.5516116e-16"
         id="feGaussianBlur5123" />
    </filter>
    <filter
       id="filter5127">
      <feGaussianBlur
         stdDeviation="3.7191417e-16"
         id="feGaussianBlur5129" />
    </filter>
    <filter
       id="filter5133">
      <feGaussianBlur
         stdDeviation="2.0203362e-17"
         id="feGaussianBlur5135" />
    </filter>
    <filter
       id="filter5141">
      <feGaussianBlur
         stdDeviation="3.7364289e-17"
         id="feGaussianBlur5143" />
    </filter>
    <filter
       id="filter5147">
      <feGaussianBlur
         stdDeviation="1.870553e-16"
         id="feGaussianBlur5149" />
    </filter>
    <filter
       id="filter5163">
      <feGaussianBlur
         stdDeviation="1.7343334e-16"
         id="feGaussianBlur5165" />
    </filter>
    <filter
       id="filter5179">
      <feGaussianBlur
         stdDeviation="2.6844836e-16"
         id="feGaussianBlur5181" />
    </filter>
    <filter
       id="filter5191">
      <feGaussianBlur
         stdDeviation="2.9392208e-16"
         id="feGaussianBlur5193" />
    </filter>
    <filter
       id="filter5197">
      <feGaussianBlur
         stdDeviation="3.0754805e-16"
         id="feGaussianBlur5199" />
    </filter>
    <filter
       id="filter8347">
      <feGaussianBlur
         stdDeviation="2.4279878e-17"
         id="feGaussianBlur8349" />
    </filter>
    <filter
       id="filter8353">
      <feGaussianBlur
         stdDeviation="2.8224319e-17"
         id="feGaussianBlur8355" />
    </filter>
    <filter
       id="filter8359">
      <feGaussianBlur
         stdDeviation="7.7952012e-18"
         id="feGaussianBlur8361" />
    </filter>
    <filter
       id="filter8365">
      <feGaussianBlur
         stdDeviation="2.0559178e-16"
         id="feGaussianBlur8367" />
    </filter>
    <filter
       id="filter8371">
      <feGaussianBlur
         stdDeviation="6.4661188e-17"
         id="feGaussianBlur8373" />
    </filter>
    <filter
       id="filter8379">
      <feGaussianBlur
         stdDeviation="7.7758262e-17"
         id="feGaussianBlur8381" />
    </filter>
    <filter
       id="filter8385">
      <feGaussianBlur
         stdDeviation="7.4333293e-17"
         id="feGaussianBlur8387" />
    </filter>
    <filter
       id="filter8391">
      <feGaussianBlur
         stdDeviation="8.0652818e-17"
         id="feGaussianBlur8393" />
    </filter>
    <filter
       id="filter8397">
      <feGaussianBlur
         stdDeviation="2.748675e-17"
         id="feGaussianBlur8399" />
    </filter>
    <filter
       id="filter8409">
      <feGaussianBlur
         stdDeviation="5.1758349e-17"
         id="feGaussianBlur8411" />
    </filter>
    <filter
       id="filter8415">
      <feGaussianBlur
         stdDeviation="1.5202565e-16"
         id="feGaussianBlur8417" />
    </filter>
    <filter
       id="filter8423">
      <feGaussianBlur
         stdDeviation="1.3069859e-16"
         id="feGaussianBlur8425" />
    </filter>
    <filter
       id="filter8429">
      <feGaussianBlur
         stdDeviation="6.2544935e-17"
         id="feGaussianBlur8431" />
    </filter>
    <filter
       id="filter8435">
      <feGaussianBlur
         stdDeviation="1.1184613e-16"
         id="feGaussianBlur8437" />
    </filter>
    <filter
       id="filter8443">
      <feGaussianBlur
         stdDeviation="1.6261981e-17"
         id="feGaussianBlur8445" />
    </filter>
    <filter
       id="filter8453">
      <feGaussianBlur
         stdDeviation="1.5923081e-16"
         id="feGaussianBlur8455" />
    </filter>
    <filter
       id="filter8459">
      <feGaussianBlur
         stdDeviation="4.3175813e-17"
         id="feGaussianBlur8461" />
    </filter>
    <filter
       id="filter8467">
      <feGaussianBlur
         stdDeviation="4.1483271e-18"
         id="feGaussianBlur8469" />
    </filter>
    <filter
       id="filter8473">
      <feGaussianBlur
         stdDeviation="1.3392206e-16"
         id="feGaussianBlur8475" />
    </filter>
    <filter
       id="filter8479">
      <feGaussianBlur
         stdDeviation="1.0776088e-16"
         id="feGaussianBlur8481" />
    </filter>
    <filter
       id="filter8485">
      <feGaussianBlur
         stdDeviation="6.7175463e-17"
         id="feGaussianBlur8487" />
    </filter>
    <filter
       id="filter8491">
      <feGaussianBlur
         stdDeviation="1.4656314e-16"
         id="feGaussianBlur8493" />
    </filter>
    <filter
       id="filter8503">
      <feGaussianBlur
         stdDeviation="1.4290537e-16"
         id="feGaussianBlur8505" />
    </filter>
    <filter
       id="filter8509">
      <feGaussianBlur
         stdDeviation="2.220098e-16"
         id="feGaussianBlur8511" />
    </filter>
    <filter
       id="filter8531">
      <feGaussianBlur
         stdDeviation="1.860931e-16"
         id="feGaussianBlur8533" />
    </filter>
    <filter
       id="filter8539">
      <feGaussianBlur
         stdDeviation="2.0474213e-16"
         id="feGaussianBlur8541" />
    </filter>
    <filter
       id="filter8553">
      <feGaussianBlur
         stdDeviation="2.2052214e-16"
         id="feGaussianBlur8555" />
    </filter>
    <filter
       id="filter8559">
      <feGaussianBlur
         stdDeviation="3.0038603e-17"
         id="feGaussianBlur8561" />
    </filter>
    <filter
       id="filter8567">
      <feGaussianBlur
         stdDeviation="2.2907622e-16"
         id="feGaussianBlur8569" />
    </filter>
    <filter
       id="filter8573">
      <feGaussianBlur
         stdDeviation="9.8321825e-17"
         id="feGaussianBlur8575" />
    </filter>
    <filter
       id="filter8581">
      <feGaussianBlur
         stdDeviation="7.5812744e-17"
         id="feGaussianBlur8583" />
    </filter>
    <filter
       id="filter8589">
      <feGaussianBlur
         stdDeviation="1.0347718e-16"
         id="feGaussianBlur8591" />
    </filter>
    <filter
       id="filter8595">
      <feGaussianBlur
         stdDeviation="1.8826036e-16"
         id="feGaussianBlur8597" />
    </filter>
    <filter
       id="filter8601">
      <feGaussianBlur
         stdDeviation="1.2378585e-16"
         id="feGaussianBlur8603" />
    </filter>
  </defs>
  <sodipodi:namedview
     id="base"
     pagecolor="#ffffff"
     bordercolor="#666666"
     borderopacity="1.0"
     inkscape:pageopacity="0.0"
     inkscape:pageshadow="2"
     inkscape:zoom="1.4142136"
     inkscape:cx="87.353791"
     inkscape:cy="-12.63213"
     inkscape:document-units="px"
     inkscape:current-layer="scale"
     showgrid="false"
     inkscape:window-width="1024"
     inkscape:window-height="575"
     inkscape:window-x="-3"
     inkscape:window-y="2"
     inkscape:window-maximized="1"
     showborder="true" />
  <metadata
     id="metadata2898">
    <rdf:RDF>
      <cc:Work
         rdf:about="">
        <dc:format>image/svg+xml</dc:format>
        <dc:type
           rdf:resource="http://purl.org/dc/dcmitype/StillImage" />
        <dc:title />
      </cc:Work>
    </rdf:RDF>
  </metadata>
  <g
     inkscape:label="Transform"
     inkscape:groupmode="layer"
     id="layer1"
     style="display:inline"
     transform="matrix(1.4142136,0.7071068,-1.4142136,0.7071068,59.821238,3.5726558)">
    <g
       inkscape:label="Scale"
       inkscape:groupmode="layer"
       id="scale"
       style="display:inline"
       transform="scale(0.47,0.47)">
      <rect
         style="fill-opacity:1;stroke:#9a8b6e;stroke-width:0.5"
         id="rect6231"
         width="12.5"
         height="12.5"
         x="0"
         y="-10.249996"
         inkscape:tile-cx="6.25"
         inkscape:tile-cy="-3.9999962"
         inkscape:tile-w="12.5"
         inkscape:tile-h="12.5"
         inkscape:tile-x0="0"
         inkscape:tile-y0="-10.249996"
         inkscape:export-filename="E:\not-important\freedroid-2\tiles\set3\iso_mini_square_0004.png"
         inkscape:export-xdpi="90"
         inkscape:export-ydpi="90" />
      <use
         x="0"
         y="0"
         inkscape:tiled-clone-of="#rect6231"
         xlink:href="#rect6231"
         id="use3013"
         style="fill:#3dbcbb;stroke:#3dbcbb"
         width="133"
         height="67"
         inkscape:export-filename="E:\not-important\freedroid-2\tiles\set3\iso_mini_square_0004.png"
         inkscape:export-xdpi="90"
         inkscape:export-ydpi="90" />
      <use
         x="0"
         y="0"
         inkscape:tiled-clone-of="#rect6231"
         xlink:href="#rect6231"
         transform="translate(0,12.5)"
         id="use3015"
         style="fill:#4ab6c3;stroke:#4ab6c3"
         width="133"
         height="67"
         inkscape:export-filename="E:\not-important\freedroid-2\tiles\set3\iso_mini_square_0004.png"
         inkscape:export-xdpi="90"
         inkscape:export-ydpi="90" />
      <use
         x="0"
         y="0"
         inkscape:tiled-clone-of="#rect6231"
         xlink:href="#rect6231"
         transform="translate(0,25)"
         id="use3017"
         style="fill:#37c1bd;stroke:#37c1bd"
         width="133"
         height="67"
         inkscape:export-filename="E:\not-important\freedroid-2\tiles\set3\iso_mini_square_0004.png"
         inkscape:export-xdpi="90"
         inkscape:export-ydpi="90" />
      <use
         x="0"
         y="0"
         inkscape:tiled-clone-of="#rect6231"
         xlink:href="#rect6231"
         transform="translate(0,37.5)"
         id="use3019"
         style="fill:#39b9c4;stroke:#39b9c4"
         width="133"
         height="67"
         inkscape:export-filename="E:\not-important\freedroid-2\tiles\set3\iso_mini_square_0004.png"
         inkscape:export-xdpi="90"
         inkscape:export-ydpi="90" />
      <use
         x="0"
         y="0"
         inkscape:tiled-clone-of="#rect6231"
         xlink:href="#rect6231"
         transform="translate(0,50)"
         id="use3021"
         style="fill:#4ac2b7;stroke:#4ac2b7"
         width="133"
         height="67"
         inkscape:export-filename="E:\not-important\freedroid-2\tiles\set3\iso_mini_square_0004.png"
         inkscape:export-xdpi="90"
         inkscape:export-ydpi="90" />
      <use
         x="0"
         y="0"
         inkscape:tiled-clone-of="#rect6231"
         xlink:href="#rect6231"
         transform="translate(0,62.5)"
         id="use3023"
         style="fill:#3bb7b7;stroke:#3bb7b7"
         width="133"
         height="67"
         inkscape:export-filename="E:\not-important\freedroid-2\tiles\set3\iso_mini_square_0004.png"
         inkscape:export-xdpi="90"
         inkscape:export-ydpi="90" />
      <use
         x="0"
         y="0"
         inkscape:tiled-clone-of="#rect6231"
         xlink:href="#rect6231"
         transform="translate(0,75)"
         id="use3025"
         style="fill:#3ba1b2;stroke:#3ba1b2"
         width="133"
         height="67"
         inkscape:export-filename="E:\not-important\freedroid-2\tiles\set3\iso_mini_square_0004.png"
         inkscape:export-xdpi="90"
         inkscape:export-ydpi="90" />
      <use
         x="0"
         y="0"
         inkscape:tiled-clone-of="#rect6231"
         xlink:href="#rect6231"
         transform="translate(0,87.5)"
         id="use3027"
         style="fill:#40b0b9;stroke:#40b0b9"
         width="133"
         height="67"
         inkscape:export-filename="E:\not-important\freedroid-2\tiles\set3\iso_mini_square_0004.png"
         inkscape:export-xdpi="90"
         inkscape:export-ydpi="90" />
      <use
         x="0"
         y="0"
         inkscape:tiled-clone-of="#rect6231"
         xlink:href="#rect6231"
         transform="translate(12.5,0)"
         id="use3029"
         style="fill:#45a7be;stroke:#45a7be"
         width="133"
         height="67"
         inkscape:export-filename="E:\not-important\freedroid-2\tiles\set3\iso_mini_square_0004.png"
         inkscape:export-xdpi="90"
         inkscape:export-ydpi="90" />
      <use
         x="0"
         y="0"
         inkscape:tiled-clone-of="#rect6231"
         xlink:href="#rect6231"
         transform="translate(12.5,12.5)"
         id="use3031"
         style="fill:#3da4c6;stroke:#3da4c6"
         width="133"
         height="67"
         inkscape:export-filename="E:\not-important\freedroid-2\tiles\set3\iso_mini_square_0004.png"
         inkscape:export-xdpi="90"
         inkscape:export-ydpi="90" />
      <use
         x="0"
         y="0"
         inkscape:tiled-clone-of="#rect6231"
         xlink:href="#rect6231"
         transform="translate(12.5,25)"
         id="use3033"
         style="fill:#4ebece;stroke:#4ebece"
         width="133"
         height="67"
         inkscape:export-filename="E:\not-important\freedroid-2\tiles\set3\iso_mini_square_0004.png"
         inkscape:export-xdpi="90"
         inkscape:export-ydpi="90" />
      <use
         x="0"
         y="0"
         inkscape:tiled-clone-of="#rect6231"
         xlink:href="#rect6231"
         transform="translate(12.5,37.5)"
         id="use3035"
         style="fill:#4eb8c5;stroke:#4eb8c5"
         width="133"
         height="67"
         inkscape:export-filename="E:\not-important\freedroid-2\tiles\set3\iso_mini_square_0004.png"
         inkscape:export-xdpi="90"
         inkscape:export-ydpi="90" />
      <use
         x="0"
         y="0"
         inkscape:tiled-clone-of="#rect6231"
         xlink:href="#rect6231"
         transform="translate(12.5,50)"
         id="use3037"
         style="fill:#49b0bf;stroke:#49b0bf"
         width="133"
         height="67"
         inkscape:export-filename="E:\not-important\freedroid-2\tiles\set3\iso_mini_square_0004.png"
         inkscape:export-xdpi="90"
         inkscape:export-ydpi="90" />
      <use
         x="0"
         y="0"
         inkscape:tiled-clone-of="#rect6231"
         xlink:href="#rect6231"
         transform="translate(12.5,62.5)"
         id="use3039"
         style="fill:#35b0be;stroke:#35b0be"
         width="133"
         height="67"
         inkscape:export-filename="E:\not-important\freedroid-2\tiles\set3\iso_mini_square_0004.png"
         inkscape:export-xdpi="90"
         inkscape:export-ydpi="90" />
      <use
         x="0"
         y="0"
         inkscape:tiled-clone-of="#rect6231"
         xlink:href="#rect6231"
         transform="translate(12.5,75)"
         id="use3041"
         style="fill:#57c5c7;stroke:#57c5c7"
         width="133"
         height="67"
         inkscape:export-filename="E:\not-important\freedroid-2\tiles\set3\iso_mini_square_0004.png"
         inkscape:export-xdpi="90"
         inkscape:export-ydpi="90" />
      <use
         x="0"
         y="0"
         inkscape:tiled-clone-of="#rect6231"
         xlink:href="#rect6231"
         transform="translate(12.5,87.5)"
         id="use3043"
         style="fill:#41c0c5;stroke:#41c0c5"
         width="133"
         height="67"
         inkscape:export-filename="E:\not-important\freedroid-2\tiles\set3\iso_mini_square_0004.png"
         inkscape:export-xdpi="90"
         inkscape:export-ydpi="90" />
      <use
         x="0"
         y="0"
         inkscape:tiled-clone-of="#rect6231"
         xlink:href="#rect6231"
         transform="translate(25,0)"
         id="use3045"
         style="fill:#4eb7c2;stroke:#4eb7c2"
         width="133"
         height="67"
         inkscape:export-filename="E:\not-important\freedroid-2\tiles\set3\iso_mini_square_0004.png"
         inkscape:export-xdpi="90"
         inkscape:export-ydpi="90" />
      <use
         x="0"
         y="0"
         inkscape:tiled-clone-of="#rect6231"
         xlink:href="#rect6231"
         transform="translate(25,12.5)"
         id="use3047"
         style="fill:#53b9ca;stroke:#53b9ca"
         width="133"
         height="67"
         inkscape:export-filename="E:\not-important\freedroid-2\tiles\set3\iso_mini_square_0004.png"
         inkscape:export-xdpi="90"
         inkscape:export-ydpi="90" />
      <use
         x="0"
         y="0"
         inkscape:tiled-clone-of="#rect6231"
         xlink:href="#rect6231"
         transform="translate(25,25)"
         id="use3049"
         style="fill:#42a8b8;stroke:#42a8b8"
         width="133"
         height="67"
         inkscape:export-filename="E:\not-important\freedroid-2\tiles\set3\iso_mini_square_0004.png"
         inkscape:export-xdpi="90"
         inkscape:export-ydpi="90" />
      <use
         x="0"
         y="0"
         inkscape:tiled-clone-of="#rect6231"
         xlink:href="#rect6231"
         transform="translate(25,37.5)"
         id="use3051"
         style="fill:#40adbd;stroke:#40adbd"
         width="133"
         height="67"
         inkscape:export-filename="E:\not-important\freedroid-2\tiles\set3\iso_mini_square_0004.png"
         inkscape:export-xdpi="90"
         inkscape:export-ydpi="90" />
      <use
         x="0"
         y="0"
         inkscape:tiled-clone-of="#rect6231"
         xlink:href="#rect6231"
         transform="translate(25,50)"
         id="use3053"
         style="fill:#39acb6;stroke:#39acb6"
         width="133"
         height="67"
         inkscape:export-filename="E:\not-important\freedroid-2\tiles\set3\iso_mini_square_0004.png"
         inkscape:export-xdpi="90"
         inkscape:export-ydpi="90" />
      <use
         x="0"
         y="0"
         inkscape:tiled-clone-of="#rect6231"
         xlink:href="#rect6231"
         transform="translate(25,62.5)"
         id="use3055"
         style="fill:#38a9bc;stroke:#38a9bc"
         width="133"
         height="67"
         inkscape:export-filename="E:\not-important\freedroid-2\tiles\set3\iso_mini_square_0004.png"
         inkscape:export-xdpi="90"
         inkscape:export-ydpi="90" />
      <use
         x="0"
         y="0"
         inkscape:tiled-clone-of="#rect6231"
         xlink:href="#rect6231"
         transform="translate(25,75)"
         id="use3057"
         style="fill:#45bcbd;stroke:#45bcbd"
         width="133"
         height="67"
         inkscape:export-filename="E:\not-important\freedroid-2\tiles\set3\iso_mini_square_0004.png"
         inkscape:export-xdpi="90"
         inkscape:export-ydpi="90" />
      <use
         x="0"
         y="0"
         inkscape:tiled-clone-of="#rect6231"
         xlink:href="#rect6231"
         transform="translate(25,87.5)"
         id="use3059"
         style="fill:#36aac3;stroke:#36aac3"
         width="133"
         height="67"
         inkscape:export-filename="E:\not-important\freedroid-2\tiles\set3\iso_mini_square_0004.png"
         inkscape:export-xdpi="90"
         inkscape:export-ydpi="90" />
      <use
         x="0"
         y="0"
         inkscape:tiled-clone-of="#rect6231"
         xlink:href="#rect6231"
         transform="translate(37.5,0)"
         id="use3061"
         style="fill:#3ac5c5;stroke:#3ac5c5"
         width="133"
         height="67"
         inkscape:export-filename="E:\not-important\freedroid-2\tiles\set3\iso_mini_square_0004.png"
         inkscape:export-xdpi="90"
         inkscape:export-ydpi="90" />
      <use
         x="0"
         y="0"
         inkscape:tiled-clone-of="#rect6231"
         xlink:href="#rect6231"
         transform="translate(37.5,12.5)"
         id="use3063"
         style="fill:#4fbfc3;stroke:#4fbfc3"
         width="133"
         height="67"
         inkscape:export-filename="E:\not-important\freedroid-2\tiles\set3\iso_mini_square_0004.png"
         inkscape:export-xdpi="90"
         inkscape:export-ydpi="90" />
      <use
         x="0"
         y="0"
         inkscape:tiled-clone-of="#rect6231"
         xlink:href="#rect6231"
         transform="translate(37.5,25)"
         id="use3065"
         style="fill:#3ba5b4;stroke:#3ba5b4"
         width="133"
         height="67"
         inkscape:export-filename="E:\not-important\freedroid-2\tiles\set3\iso_mini_square_0004.png"
         inkscape:export-xdpi="90"
         inkscape:export-ydpi="90" />
      <use
         x="0"
         y="0"
         inkscape:tiled-clone-of="#rect6231"
         xlink:href="#rect6231"
         transform="translate(37.5,37.5)"
         id="use3067"
         style="fill:#43c7cd;stroke:#43c7cd"
         width="133"
         height="67"
         inkscape:export-filename="E:\not-important\freedroid-2\tiles\set3\iso_mini_square_0004.png"
         inkscape:export-xdpi="90"
         inkscape:export-ydpi="90" />
      <use
         x="0"
         y="0"
         inkscape:tiled-clone-of="#rect6231"
         xlink:href="#rect6231"
         transform="translate(37.5,50)"
         id="use3069"
         style="fill:#37c0bc;stroke:#37c0bc"
         width="133"
         height="67"
         inkscape:export-filename="E:\not-important\freedroid-2\tiles\set3\iso_mini_square_0004.png"
         inkscape:export-xdpi="90"
         inkscape:export-ydpi="90" />
      <use
         x="0"
         y="0"
         inkscape:tiled-clone-of="#rect6231"
         xlink:href="#rect6231"
         transform="translate(37.5,62.5)"
         id="use3071"
         style="fill:#49b0c3;stroke:#49b0c3"
         width="133"
         height="67"
         inkscape:export-filename="E:\not-important\freedroid-2\tiles\set3\iso_mini_square_0004.png"
         inkscape:export-xdpi="90"
         inkscape:export-ydpi="90" />
      <use
         x="0"
         y="0"
         inkscape:tiled-clone-of="#rect6231"
         xlink:href="#rect6231"
         transform="translate(37.5,75)"
         id="use3073"
         style="fill:#39bec5;stroke:#39bec5"
         width="133"
         height="67"
         inkscape:export-filename="E:\not-important\freedroid-2\tiles\set3\iso_mini_square_0004.png"
         inkscape:export-xdpi="90"
         inkscape:export-ydpi="90" />
      <use
         x="0"
         y="0"
         inkscape:tiled-clone-of="#rect6231"
         xlink:href="#rect6231"
         transform="translate(37.5,87.5)"
         id="use3075"
         style="fill:#53c8ce;stroke:#53c8ce"
         width="133"
         height="67"
         inkscape:export-filename="E:\not-important\freedroid-2\tiles\set3\iso_mini_square_0004.png"
         inkscape:export-xdpi="90"
         inkscape:export-ydpi="90" />
      <use
         x="0"
         y="0"
         inkscape:tiled-clone-of="#rect6231"
         xlink:href="#rect6231"
         transform="translate(50,0)"
         id="use3077"
         style="fill:#4ac9cb;stroke:#4ac9cb"
         width="133"
         height="67"
         inkscape:export-filename="E:\not-important\freedroid-2\tiles\set3\iso_mini_square_0004.png"
         inkscape:export-xdpi="90"
         inkscape:export-ydpi="90" />
      <use
         x="0"
         y="0"
         inkscape:tiled-clone-of="#rect6231"
         xlink:href="#rect6231"
         transform="translate(50,12.5)"
         id="use3079"
         style="fill:#3cb3bb;stroke:#3cb3bb"
         width="133"
         height="67"
         inkscape:export-filename="E:\not-important\freedroid-2\tiles\set3\iso_mini_square_0004.png"
         inkscape:export-xdpi="90"
         inkscape:export-ydpi="90" />
      <use
         x="0"
         y="0"
         inkscape:tiled-clone-of="#rect6231"
         xlink:href="#rect6231"
         transform="translate(50,25)"
         id="use3081"
         style="fill:#47c1b9;stroke:#47c1b9"
         width="133"
         height="67"
         inkscape:export-filename="E:\not-important\freedroid-2\tiles\set3\iso_mini_square_0004.png"
         inkscape:export-xdpi="90"
         inkscape:export-ydpi="90" />
      <use
         x="0"
         y="0"
         inkscape:tiled-clone-of="#rect6231"
         xlink:href="#rect6231"
         transform="translate(50,37.5)"
         id="use3083"
         style="fill:#41b5b2;stroke:#41b5b2"
         width="133"
         height="67"
         inkscape:export-filename="E:\not-important\freedroid-2\tiles\set3\iso_mini_square_0004.png"
         inkscape:export-xdpi="90"
         inkscape:export-ydpi="90" />
      <use
         x="0"
         y="0"
         inkscape:tiled-clone-of="#rect6231"
         xlink:href="#rect6231"
         transform="translate(50,50)"
         id="use3085"
         style="fill:#48c1be;stroke:#48c1be"
         width="133"
         height="67"
         inkscape:export-filename="E:\not-important\freedroid-2\tiles\set3\iso_mini_square_0004.png"
         inkscape:export-xdpi="90"
         inkscape:export-ydpi="90" />
      <use
         x="0"
         y="0"
         inkscape:tiled-clone-of="#rect6231"
         xlink:href="#rect6231"
         transform="translate(50,62.5)"
         id="use3087"
         style="fill:#44bcba;stroke:#44bcba"
         width="133"
         height="67"
         inkscape:export-filename="E:\not-important\freedroid-2\tiles\set3\iso_mini_square_0004.png"
         inkscape:export-xdpi="90"
         inkscape:export-ydpi="90" />
      <use
         x="0"
         y="0"
         inkscape:tiled-clone-of="#rect6231"
         xlink:href="#rect6231"
         transform="translate(50,75)"
         id="use3089"
         style="fill:#4dc5c2;stroke:#4dc5c2"
         width="133"
         height="67"
         inkscape:export-filename="E:\not-important\freedroid-2\tiles\set3\iso_mini_square_0004.png"
         inkscape:export-xdpi="90"
         inkscape:export-ydpi="90" />
      <use
         x="0"
         y="0"
         inkscape:tiled-clone-of="#rect6231"
         xlink:href="#rect6231"
         transform="translate(50,87.5)"
         id="use3091"
         style="fill:#3dc5c1;stroke:#3dc5c1"
         width="133"
         height="67"
         inkscape:export-filename="E:\not-important\freedroid-2\tiles\set3\iso_mini_square_0004.png"
         inkscape:export-xdpi="90"
         inkscape:export-ydpi="90" />
      <use
         x="0"
         y="0"
         inkscape:tiled-clone-of="#rect6231"
         xlink:href="#rect6231"
         transform="translate(62.5,0)"
         id="use3093"
         style="fill:#51c6c5;stroke:#51c6c5"
         width="133"
         height="67"
         inkscape:export-filename="E:\not-important\freedroid-2\tiles\set3\iso_mini_square_0004.png"
         inkscape:export-xdpi="90"
         inkscape:export-ydpi="90" />
      <use
         x="0"
         y="0"
         inkscape:tiled-clone-of="#rect6231"
         xlink:href="#rect6231"
         transform="translate(62.5,12.5)"
         id="use3095"
         style="fill:#3db0c1;stroke:#3db0c1"
         width="133"
         height="67"
         inkscape:export-filename="E:\not-important\freedroid-2\tiles\set3\iso_mini_square_0004.png"
         inkscape:export-xdpi="90"
         inkscape:export-ydpi="90" />
      <use
         x="0"
         y="0"
         inkscape:tiled-clone-of="#rect6231"
         xlink:href="#rect6231"
         transform="translate(62.5,25)"
         id="use3097"
         style="fill:#48bfc7;stroke:#48bfc7"
         width="133"
         height="67"
         inkscape:export-filename="E:\not-important\freedroid-2\tiles\set3\iso_mini_square_0004.png"
         inkscape:export-xdpi="90"
         inkscape:export-ydpi="90" />
      <use
         x="0"
         y="0"
         inkscape:tiled-clone-of="#rect6231"
         xlink:href="#rect6231"
         transform="translate(62.5,37.5)"
         id="use3099"
         style="fill:#3fbbc4;stroke:#3fbbc4"
         width="133"
         height="67"
         inkscape:export-filename="E:\not-important\freedroid-2\tiles\set3\iso_mini_square_0004.png"
         inkscape:export-xdpi="90"
         inkscape:export-ydpi="90" />
      <use
         x="0"
         y="0"
         inkscape:tiled-clone-of="#rect6231"
         xlink:href="#rect6231"
         transform="translate(62.5,50)"
         id="use3101"
         style="fill:#45c0cc;stroke:#45c0cc"
         width="133"
         height="67"
         inkscape:export-filename="E:\not-important\freedroid-2\tiles\set3\iso_mini_square_0004.png"
         inkscape:export-xdpi="90"
         inkscape:export-ydpi="90" />
      <use
         x="0"
         y="0"
         inkscape:tiled-clone-of="#rect6231"
         xlink:href="#rect6231"
         transform="translate(62.5,62.5)"
         id="use3103"
         style="fill:#37bdc5;stroke:#37bdc5"
         width="133"
         height="67"
         inkscape:export-filename="E:\not-important\freedroid-2\tiles\set3\iso_mini_square_0004.png"
         inkscape:export-xdpi="90"
         inkscape:export-ydpi="90" />
      <use
         x="0"
         y="0"
         inkscape:tiled-clone-of="#rect6231"
         xlink:href="#rect6231"
         transform="translate(62.5,75)"
         id="use3105"
         style="fill:#3e9fb3;stroke:#3e9fb3"
         width="133"
         height="67"
         inkscape:export-filename="E:\not-important\freedroid-2\tiles\set3\iso_mini_square_0004.png"
         inkscape:export-xdpi="90"
         inkscape:export-ydpi="90" />
      <use
         x="0"
         y="0"
         inkscape:tiled-clone-of="#rect6231"
         xlink:href="#rect6231"
         transform="translate(62.5,87.5)"
         id="use3107"
         style="fill:#53c5c9;stroke:#53c5c9"
         width="133"
         height="67"
         inkscape:export-filename="E:\not-important\freedroid-2\tiles\set3\iso_mini_square_0004.png"
         inkscape:export-xdpi="90"
         inkscape:export-ydpi="90" />
      <use
         x="0"
         y="0"
         inkscape:tiled-clone-of="#rect6231"
         xlink:href="#rect6231"
         transform="translate(75,0)"
         id="use3109"
         style="fill:#47cbbf;stroke:#47cbbf"
         width="133"
         height="67"
         inkscape:export-filename="E:\not-important\freedroid-2\tiles\set3\iso_mini_square_0004.png"
         inkscape:export-xdpi="90"
         inkscape:export-ydpi="90" />
      <use
         x="0"
         y="0"
         inkscape:tiled-clone-of="#rect6231"
         xlink:href="#rect6231"
         transform="translate(75,12.5)"
         id="use3111"
         style="fill:#3d9eb3;stroke:#3d9eb3"
         width="133"
         height="67"
         inkscape:export-filename="E:\not-important\freedroid-2\tiles\set3\iso_mini_square_0004.png"
         inkscape:export-xdpi="90"
         inkscape:export-ydpi="90" />
      <use
         x="0"
         y="0"
         inkscape:tiled-clone-of="#rect6231"
         xlink:href="#rect6231"
         transform="translate(75,25)"
         id="use3113"
         style="fill:#50bdc9;stroke:#50bdc9"
         width="133"
         height="67"
         inkscape:export-filename="E:\not-important\freedroid-2\tiles\set3\iso_mini_square_0004.png"
         inkscape:export-xdpi="90"
         inkscape:export-ydpi="90" />
      <use
         x="0"
         y="0"
         inkscape:tiled-clone-of="#rect6231"
         xlink:href="#rect6231"
         transform="translate(75,37.5)"
         id="use3115"
         style="fill:#4bb9c8;stroke:#4bb9c8"
         width="133"
         height="67"
         inkscape:export-filename="E:\not-important\freedroid-2\tiles\set3\iso_mini_square_0004.png"
         inkscape:export-xdpi="90"
         inkscape:export-ydpi="90" />
      <use
         x="0"
         y="0"
         inkscape:tiled-clone-of="#rect6231"
         xlink:href="#rect6231"
         transform="translate(75,50)"
         id="use3117"
         style="fill:#3ea6b5;stroke:#3ea6b5"
         width="133"
         height="67"
         inkscape:export-filename="E:\not-important\freedroid-2\tiles\set3\iso_mini_square_0004.png"
         inkscape:export-xdpi="90"
         inkscape:export-ydpi="90" />
      <use
         x="0"
         y="0"
         inkscape:tiled-clone-of="#rect6231"
         xlink:href="#rect6231"
         transform="translate(75,62.5)"
         id="use3119"
         style="fill:#3abbb9;stroke:#3abbb9"
         width="133"
         height="67"
         inkscape:export-filename="E:\not-important\freedroid-2\tiles\set3\iso_mini_square_0004.png"
         inkscape:export-xdpi="90"
         inkscape:export-ydpi="90" />
      <use
         x="0"
         y="0"
         inkscape:tiled-clone-of="#rect6231"
         xlink:href="#rect6231"
         transform="translate(75,75)"
         id="use3121"
         style="fill:#3fb8c7;stroke:#3fb8c7"
         width="133"
         height="67"
         inkscape:export-filename="E:\not-important\freedroid-2\tiles\set3\iso_mini_square_0004.png"
         inkscape:export-xdpi="90"
         inkscape:export-ydpi="90" />
      <use
         x="0"
         y="0"
         inkscape:tiled-clone-of="#rect6231"
         xlink:href="#rect6231"
         transform="translate(75,87.5)"
         id="use3123"
         style="fill:#38c6c8;stroke:#38c6c8"
         width="133"
         height="67"
         inkscape:export-filename="E:\not-important\freedroid-2\tiles\set3\iso_mini_square_0004.png"
         inkscape:export-xdpi="90"
         inkscape:export-ydpi="90" />
      <use
         x="0"
         y="0"
         inkscape:tiled-clone-of="#rect6231"
         xlink:href="#rect6231"
         transform="translate(87.5,0)"
         id="use3125"
         style="fill:#47c6ca;stroke:#47c6ca"
         width="133"
         height="67"
         inkscape:export-filename="E:\not-important\freedroid-2\tiles\set3\iso_mini_square_0004.png"
         inkscape:export-xdpi="90"
         inkscape:export-ydpi="90" />
      <use
         x="0"
         y="0"
         inkscape:tiled-clone-of="#rect6231"
         xlink:href="#rect6231"
         transform="translate(87.5,12.5)"
         id="use3127"
         style="fill:#389abb;stroke:#389abb"
         width="133"
         height="67"
         inkscape:export-filename="E:\not-important\freedroid-2\tiles\set3\iso_mini_square_0004.png"
         inkscape:export-xdpi="90"
         inkscape:export-ydpi="90" />
      <use
         x="0"
         y="0"
         inkscape:tiled-clone-of="#rect6231"
         xlink:href="#rect6231"
         transform="translate(87.5,25)"
         id="use3129"
         style="fill:#51c4c0;stroke:#51c4c0"
         width="133"
         height="67"
         inkscape:export-filename="E:\not-important\freedroid-2\tiles\set3\iso_mini_square_0004.png"
         inkscape:export-xdpi="90"
         inkscape:export-ydpi="90" />
      <use
         x="0"
         y="0"
         inkscape:tiled-clone-of="#rect6231"
         xlink:href="#rect6231"
         transform="translate(87.5,37.5)"
         id="use3131"
         style="fill:#3faec0;stroke:#3faec0"
         width="133"
         height="67"
         inkscape:export-filename="E:\not-important\freedroid-2\tiles\set3\iso_mini_square_0004.png"
         inkscape:export-xdpi="90"
         inkscape:export-ydpi="90" />
      <use
         x="0"
         y="0"
         inkscape:tiled-clone-of="#rect6231"
         xlink:href="#rect6231"
         transform="translate(87.5,50)"
         id="use3133"
         style="fill:#3ea3b9;stroke:#3ea3b9"
         width="133"
         height="67"
         inkscape:export-filename="E:\not-important\freedroid-2\tiles\set3\iso_mini_square_0004.png"
         inkscape:export-xdpi="90"
         inkscape:export-ydpi="90" />
      <use
         x="0"
         y="0"
         inkscape:tiled-clone-of="#rect6231"
         xlink:href="#rect6231"
         transform="translate(87.5,62.5)"
         id="use3135"
         style="fill:#55b3c3;stroke:#55b3c3"
         width="133"
         height="67"
         inkscape:export-filename="E:\not-important\freedroid-2\tiles\set3\iso_mini_square_0004.png"
         inkscape:export-xdpi="90"
         inkscape:export-ydpi="90" />
      <use
         x="0"
         y="0"
         inkscape:tiled-clone-of="#rect6231"
         xlink:href="#rect6231"
         transform="translate(87.5,75)"
         id="use3137"
         style="fill:#36b8c3;stroke:#36b8c3"
         width="133"
         height="67"
         inkscape:export-filename="E:\not-important\freedroid-2\tiles\set3\iso_mini_square_0004.png"
         inkscape:export-xdpi="90"
         inkscape:export-ydpi="90" />
      <use
         x="0"
         y="0"
         inkscape:tiled-clone-of="#rect6231"
         xlink:href="#rect6231"
         transform="translate(87.5,87.5)"
         id="use3139"
         style="fill:#40a1be;stroke:#40a1be"
         width="133"
         height="67"
         inkscape:export-filename="E:\not-important\freedroid-2\tiles\set3\iso_mini_square_0004.png"
         inkscape:export-xdpi="90"
         inkscape:export-ydpi="90" />
    </g>
  </g>
</svg>
